1024
0 360
1 364
2 104
3 108
4 361
5 365
6 105
7 109
8 360
9 876
10 104
11 620
12 361
13 877
14 105
15 621
16 490
17 110
18 234
19 238
20 491
21 111
22 235
23 239
24 490
25 622
26 234
27 750
28 491
29 623
30 235
31 751
32 360
33 876
34 104
35 620
36 361
37 877
38 105
39 621
40 360
41 876
42 104
43 620
44 361
45 877
46 105
47 621
48 490
49 622
50 234
51 750
52 491
53 623
54 233
55 749
56 488
57 620
58 232
59 748
60 233
61 621
62 235
63 751
64 376
65 380
66 120
67 124
68 377
69 381
70 121
71 125
72 360
73 876
74 104
75 620
76 361
77 877
78 105
79 621
80 506
81 126
82 250
83 254
84 507
85 127
86 251
87 255
88 490
89 622
90 234
91 750
92 491
93 623
94 235
95 751
96 360
97 876
98 104
99 620
100 361
101 877
102 105
103 621
104 360
105 876
106 104
107 620
108 361
109 877
110 105
111 621
112 490
113 622
114 234
115 750
116 491
117 623
118 233
119 749
120 488
121 620
122 232
123 748
124 233
125 621
126 235
127 751
128 872
129 872
130 616
131 616
132 873
133 873
134 617
135 617
136 872
137 876
138 616
139 620
140 873
141 877
142 617
143 621
144 746
145 618
146 746
147 746
148 747
149 619
150 747
151 747
152 746
153 622
154 746
155 750
156 747
157 623
158 747
159 751
160 872
161 872
162 616
163 616
164 873
165 873
166 617
167 617
168 872
169 876
170 616
171 620
172 873
173 877
174 617
175 621
176 746
177 618
178 746
179 746
180 747
181 619
182 747
183 747
184 746
185 622
186 746
187 750
188 747
189 623
190 745
191 749
192 888
193 888
194 632
195 632
196 889
197 893
198 633
199 637
200 872
201 876
202 616
203 620
204 873
205 877
206 617
207 621
208 762
209 634
210 762
211 762
212 763
213 639
214 763
215 767
216 746
217 622
218 746
219 750
220 747
221 623
222 747
223 751
224 872
225 872
226 616
227 616
228 873
229 877
230 617
231 621
232 872
233 876
234 616
235 620
236 873
237 877
238 617
239 621
240 746
241 618
242 746
243 746
244 747
245 623
246 747
247 751
248 746
249 622
250 746
251 750
252 747
253 623
254 745
255 749
256 360
257 364
258 96
259 100
260 361
261 365
262 97
263 101
264 360
265 876
266 96
267 612
268 361
269 877
270 97
271 613
272 362
273 110
274 98
275 102
276 363
277 111
278 99
279 103
280 362
281 622
282 98
283 614
284 363
285 623
286 99
287 615
288 360
289 876
290 104
291 620
292 361
293 877
294 97
295 613
296 360
297 876
298 104
299 620
300 361
301 877
302 97
303 613
304 362
305 622
306 106
307 622
308 363
309 623
310 105
311 621
312 360
313 620
314 104
315 620
316 105
317 621
318 107
319 623
320 376
321 380
322 120
323 124
324 377
325 381
326 121
327 125
328 360
329 876
330 104
331 620
332 361
333 877
334 105
335 621
336 378
337 126
338 122
339 126
340 379
341 126
342 123
343 126
344 362
345 622
346 106
347 622
348 363
349 622
350 107
351 622
352 360
353 876
354 104
355 620
356 361
357 877
358 105
359 621
360 360
361 876
362 104
363 620
364 361
365 877
366 105
367 621
368 362
369 622
370 106
371 622
372 363
373 622
374 97
375 612
376 360
377 620
378 104
379 620
380 105
381 620
382 99
383 614
384 872
385 872
386 608
387 608
388 873
389 873
390 609
391 609
392 872
393 876
394 608
395 612
396 873
397 877
398 609
399 613
400 618
401 618
402 610
403 610
404 619
405 619
406 611
407 611
408 618
409 622
410 610
411 614
412 619
413 623
414 611
415 615
416 872
417 872
418 616
419 616
420 873
421 873
422 609
423 609
424 872
425 876
426 616
427 620
428 873
429 877
430 609
431 613
432 618
433 618
434 618
435 618
436 619
437 619
438 619
439 619
440 618
441 622
442 618
443 622
444 619
445 623
446 617
447 621
448 888
449 888
450 632
451 632
452 889
453 893
454 633
455 637
456 872
457 876
458 616
459 620
460 873
461 877
462 617
463 621
464 634
465 634
466 634
467 634
468 635
469 639
470 635
471 639
472 618
473 622
474 618
475 622
476 619
477 623
478 619
479 623
480 872
481 872
482 616
483 616
484 873
485 877
486 617
487 621
488 872
489 876
490 616
491 620
492 873
493 877
494 617
495 621
496 618
497 618
498 618
499 618
500 619
501 623
502 611
503 615
504 618
505 622
506 618
507 622
508 619
509 623
510 609
511 613
512 296
513 364
514 40
515 108
516 297
517 365
518 41
519 109
520 296
521 876
522 40
523 620
524 297
525 877
526 41
527 621
528 424
529 108
530 168
531 236
532 425
533 109
534 169
535 237
536 424
537 620
538 168
539 748
540 425
541 621
542 169
543 749
544 296
545 876
546 40
547 620
548 297
549 813
550 41
551 557
552 296
553 876
554 40
555 620
556 297
557 813
558 41
559 557
560 424
561 620
562 168
563 748
564 425
565 621
566 169
567 749
568 424
569 620
570 168
571 748
572 169
573 621
574 169
575 749
576 312
577 380
578 56
579 124
580 313
581 381
582 57
583 125
584 296
585 876
586 40
587 620
588 297
589 877
590 41
591 621
592 440
593 124
594 184
595 252
596 441
597 125
598 185
599 125
600 424
601 620
602 168
603 748
604 425
605 621
606 169
607 621
608 312
609 892
610 56
611 636
612 297
613 813
614 41
615 557
616 296
617 876
618 40
619 620
620 297
621 813
622 41
623 557
624 440
625 636
626 184
627 764
628 425
629 621
630 169
631 621
632 424
633 620
634 168
635 748
636 169
637 621
638 169
639 621
640 776
641 872
642 520
643 616
644 777
645 873
646 521
647 617
648 808
649 876
650 552
651 620
652 809
653 877
654 553
655 621
656 648
657 616
658 648
659 744
660 649
661 621
662 649
663 749
664 680
665 620
666 680
667 748
668 681
669 621
670 681
671 749
672 776
673 808
674 520
675 552
676 777
677 841
678 521
679 585
680 808
681 812
682 552
683 556
684 809
685 877
686 553
687 621
688 648
689 616
690 648
691 744
692 649
693 589
694 649
695 717
696 680
697 620
698 680
699 748
700 681
701 621
702 681
703 749
704 792
705 888
706 536
707 632
708 793
709 893
710 537
711 637
712 808
713 876
714 552
715 620
716 809
717 877
718 553
719 621
720 664
721 632
722 664
723 760
724 665
725 637
726 665
727 637
728 680
729 620
730 680
731 748
732 681
733 621
734 681
735 621
736 776
737 808
738 520
739 552
740 777
741 845
742 521
743 589
744 808
745 812
746 552
747 556
748 809
749 877
750 553
751 621
752 648
753 616
754 648
755 744
756 649
757 589
758 649
759 589
760 680
761 620
762 680
763 748
764 681
765 621
766 681
767 621
768 320
769 324
770 64
771 580
772 321
773 325
774 65
775 581
776 352
777 868
778 96
779 612
780 353
781 869
782 97
783 613
784 320
785 68
786 64
787 580
788 321
789 68
790 65
791 580
792 352
793 612
794 96
795 612
796 353
797 612
798 97
799 612
800 320
801 836
802 64
803 580
804 321
805 837
806 65
807 581
808 352
809 868
810 96
811 612
812 353
813 869
814 97
815 613
816 320
817 580
818 64
819 580
820 321
821 580
822 65
823 580
824 352
825 612
826 96
827 612
828 97
829 612
830 97
831 612
832 336
833 340
834 80
835 596
836 337
837 341
838 81
839 597
840 352
841 868
842 96
843 612
844 353
845 869
846 97
847 613
848 336
849 84
850 80
851 596
852 337
853 85
854 81
855 597
856 352
857 612
858 96
859 612
860 353
861 613
862 97
863 613
864 336
865 852
866 80
867 596
868 321
869 837
870 65
871 581
872 352
873 868
874 96
875 612
876 353
877 869
878 97
879 613
880 336
881 596
882 80
883 596
884 321
885 581
886 65
887 581
888 352
889 612
890 96
891 612
892 97
893 613
894 97
895 613
896 832
897 832
898 576
899 576
900 833
901 833
902 577
903 577
904 864
905 868
906 608
907 612
908 865
909 869
910 609
911 613
912 576
913 576
914 576
915 576
916 577
917 581
918 577
919 581
920 608
921 612
922 608
923 612
924 609
925 613
926 609
927 613
928 832
929 832
930 576
931 576
932 833
933 865
934 577
935 609
936 864
937 868
938 608
939 612
940 865
941 869
942 609
943 613
944 576
945 576
946 576
947 576
948 577
949 613
950 577
951 613
952 608
953 612
954 608
955 612
956 609
957 613
958 609
959 613
960 848
961 848
962 592
963 592
964 849
965 853
966 593
967 597
968 864
969 868
970 608
971 612
972 865
973 869
974 609
975 613
976 592
977 592
978 592
979 592
980 593
981 597
982 593
983 597
984 608
985 612
986 608
987 612
988 609
989 613
990 609
991 613
992 832
993 832
994 576
995 576
996 833
997 869
998 577
999 613
1000 864
1001 868
1002 608
1003 612
1004 865
1005 869
1006 609
1007 613
1008 576
1009 576
1010 576
1011 576
1012 577
1013 613
1014 577
1015 613
1016 608
1017 612
1018 608
1019 612
1020 609
1021 613
1022 609
1023 613
