statistika 03 2var pilnam grafam
intervals	geni: [10;12]	 ietekmejosie: [2 ; 7]
bula funkcijas rekinas pec a varianta


#gens:10 #
5 5 1 2 1 3 1 4 1 1 
1 2 1 2 1 1 2 2 2 1 
1 2 1 3 2 2 1 2 3 1 
2 2 2 2 1 1 3 3 1 1 
3 1 2 1 1 1 1 1 1 3 
1 2 1 3 1 1 1 2 2 2 

#gens:11 #
1 1 2 1 2 1 1 1 1 1 
2 1 1 1 1 3 3 1 1 6 
2 1 5 1 1 1 1 1 1 1 
1 3 1 3 2 2 1 1 1 2 
1 2 2 3 1 1 2 1 1 2 
1 1 1 4 1 2 1 1 4 1 

#gens:12 #
2 2 2 1 1 1 2 1 3 1 
2 1 1 1 3 1 1 1 1 3 
3 2 2 1 1 3 1 1 10 1 
3 1 1 2 1 3 1 2 1 3 
1 2 2 1 1 1 2 1 1 1 
2 1 1 3 1 1 2 1 1 1 

# Kopejais darbibas laiks: 0s  #
