statistika 03 2var pilnam grafam
intervals	geni: [4;18]	 ietekmejosie: [2 ; 7]
bula funkcijas rekinas pec a varianta


#gens:4 #
2 3 4 2 4 2 3 6 3 2 
5 1 2 4 6 12 7 3 5 5 
3 6 5 2 8 6 3 4 3 6 

#gens:5 #
6 3 4 4 5 5 5 2 3 3 
3 6 4 5 4 4 7 4 3 9 
15 7 7 11 11 13 4 8 6 6 
9 7 9 4 3 6 17 4 7 12 

#gens:6 #
1 5 3 3 2 5 4 7 6 4 
6 4 11 5 11 5 10 8 10 6 
16 8 11 6 11 9 5 7 12 9 
8 6 10 11 10 9 7 11 8 12 
6 7 22 18 10 15 10 8 15 12 

#gens:7 #
15 4 5 8 8 8 3 4 3 3 
11 17 9 9 20 10 6 9 5 12 
16 12 8 12 11 14 20 9 9 9 
13 17 32 8 9 15 22 21 14 12 
13 13 14 9 14 15 15 17 9 18 
7 9 23 23 17 15 18 19 31 22 

#gens:8 #
3 2 5 9 5 8 3 6 3 6 
11 9 10 5 12 12 7 27 5 6 
18 8 17 19 14 10 11 28 8 19 
26 21 12 22 19 20 17 32 14 23 
11 36 14 34 19 15 16 14 15 19 
32 23 19 29 17 23 17 40 23 14 

#gens:9 #
5 4 5 7 7 9 3 10 4 4 
15 21 10 13 7 34 9 10 8 11 
17 14 16 10 26 24 41 15 17 30 
23 30 15 19 24 27 18 15 26 24 
41 33 35 46 36 35 19 24 36 33 
24 24 28 25 36 33 38 42 35 36 

#gens:10 #
4 3 3 4 5 8 4 6 16 4 
14 9 25 12 15 12 11 17 7 23 
17 20 41 38 17 32 21 22 18 16 
20 50 56 28 33 23 40 42 48 21 
43 65 42 39 25 48 51 47 38 30 
65 47 48 84 48 50 32 36 81 43 

#gens:11 #
5 10 8 4 12 5 2 2 5 4 
11 15 9 16 9 13 9 33 14 8 
27 27 63 30 36 46 23 25 36 31 
80 43 43 46 26 29 56 54 34 51 
87 54 25 71 67 63 34 65 91 37 
71 69 81 99 95 70 57 48 43 58 

#gens:12 #
10 8 11 4 6 9 19 7 11 14 
10 9 12 10 8 28 19 15 13 30 
28 37 23 29 29 28 54 52 26 23 
59 47 76 51 61 81 36 50 99 63 
85 78 92 61 68 87 121 110 56 77 
70 127 46 77 149 119 73 86 129 70 

#gens:13 #
7 4 8 6 12 7 9 9 5 12 
12 23 45 32 12 16 14 20 43 13 
45 42 45 37 116 29 51 20 61 31 
56 57 89 112 125 47 72 87 93 115 
67 88 44 68 61 202 110 50 68 116 
149 126 149 99 138 87 126 88 115 181 

#gens:14 #
7 8 9 7 17 14 13 5 5 7 
28 31 20 15 23 31 31 28 18 10 
59 47 62 44 81 54 46 58 75 19 
83 87 87 66 79 156 121 48 95 81 
78 204 146 148 181 104 110 85 182 95 
226 211 295 254 147 216 109 137 213 155 

#gens:15 #
4 7 6 5 15 6 9 14 11 6 
42 15 83 31 14 46 26 18 18 21 
47 55 131 75 41 61 75 116 55 85 
94 136 76 99 73 86 148 173 60 262 
229 173 191 207 146 113 184 275 156 177 
255 238 161 214 252 266 166 349 347 158 

#gens:16 #
7 5 12 5 6 12 7 11 6 7 
30 38 24 16 28 21 11 37 22 26 
149 55 63 79 50 103 77 74 71 113 
203 123 186 191 138 181 183 225 139 217 
330 146 344 229 145 290 207 272 165 241 
355 332 238 293 384 334 398 264 305 264 

#gens:17 #
5 20 19 13 8 5 10 7 6 7 
35 30 46 13 13 34 13 45 35 11 
92 105 72 87 62 94 81 48 82 58 
173 281 156 140 229 172 197 305 328 80 
379 362 663 183 318 235 288 364 375 417 
354 211 537 539 445 516 328 764 342 338 

#gens:18 #
4 6 6 9 37 12 22 7 11 19 
18 34 21 61 27 65 28 13 43 36 
176 118 103 70 116 148 99 239 102 188 
144 324 191 297 191 252 160 347 278 211 
493 728 463 682 394 544 412 638 265 398 
876 446 438 681 953 646 739 395 477 907 
