statistika 03 2var pilnam grafam
intervals	geni: [4;18]	 ietekmejosie: [2 ; 7]
bula funkcijas rekinas pec a varianta


#gens:4 #
1.92 2.00 2.10 1.40 2.00 1.40 2.10 3.71 1.91 1.60 
2.71 1.00 1.17 2.83 2.83 4.25 3.17 1.88 2.29 2.29 
1.57 5.25 3.50 1.38 5.40 2.50 1.67 1.86 2.33 3.17 

#gens:5 #
2.79 1.92 2.86 2.16 2.91 3.25 3.04 1.24 2.20 1.62 
1.56 3.10 1.86 2.15 2.36 2.33 3.14 1.72 1.41 3.94 
8.00 3.67 3.09 5.85 5.83 6.43 1.88 4.91 2.69 3.36 
5.69 3.50 3.58 2.56 1.82 3.07 9.67 2.58 3.15 6.21 

#gens:6 #
1.00 3.29 1.73 1.56 1.30 2.70 1.62 2.87 2.73 1.77 
2.37 1.90 5.74 2.64 5.49 2.17 3.91 3.06 5.74 4.06 
7.56 3.96 6.41 3.74 4.74 4.52 2.58 2.15 3.39 4.29 
3.48 2.11 2.91 4.71 2.79 4.08 4.36 5.47 4.38 4.35 
3.00 3.83 13.46 6.57 2.45 7.96 4.32 3.38 5.38 4.83 

#gens:7 #
8.57 2.95 2.63 3.24 3.18 4.75 2.36 2.03 1.98 2.13 
4.47 11.25 4.88 2.95 10.83 2.48 2.71 5.96 2.05 5.12 
6.10 4.27 3.48 4.15 3.72 6.93 6.98 4.40 4.05 4.04 
5.29 7.72 19.34 3.61 4.41 4.62 8.16 11.08 5.72 3.31 
6.25 6.23 4.89 3.14 6.43 7.26 5.16 8.98 3.67 9.06 
2.85 3.47 11.02 10.24 8.51 8.60 5.74 9.16 11.65 10.22 

#gens:8 #
1.82 1.60 4.16 5.22 3.60 4.06 2.31 3.06 1.96 3.08 
3.92 3.27 4.88 3.32 3.61 4.42 2.86 12.46 3.02 2.73 
6.92 3.65 7.32 6.39 4.40 4.01 4.40 12.74 3.28 8.47 
6.59 8.50 4.58 10.01 7.47 8.85 5.98 14.68 4.10 9.46 
4.29 14.75 5.87 13.34 6.31 6.51 6.77 5.74 5.99 5.81 
12.39 9.70 8.31 11.69 7.55 9.44 6.54 18.39 7.42 4.88 

#gens:9 #
2.30 2.58 3.51 4.07 3.37 2.89 2.80 2.90 2.14 3.13 
5.51 7.68 3.75 5.46 3.99 13.51 3.22 4.52 4.02 4.61 
5.33 5.49 7.01 4.10 10.01 7.61 17.60 5.51 5.79 14.11 
9.65 11.65 4.77 6.84 8.50 10.71 6.48 6.35 9.40 8.48 
15.22 10.68 11.53 20.43 14.49 17.52 8.02 8.60 18.86 13.98 
8.22 11.21 10.92 8.73 14.95 10.25 16.46 12.22 13.18 9.09 

#gens:10 #
3.25 1.98 2.48 2.13 3.92 3.09 2.44 3.21 6.39 2.73 
4.97 4.06 5.56 4.56 4.39 4.67 4.82 8.34 4.56 8.22 
6.43 9.06 14.22 13.79 8.18 12.71 6.69 7.23 7.73 6.95 
6.59 12.58 23.38 10.72 12.44 8.25 13.50 14.06 17.80 6.87 
15.93 32.22 9.57 17.60 9.98 15.95 25.65 21.24 16.40 12.11 
25.08 20.90 16.59 28.27 16.39 17.26 9.12 13.62 42.14 12.55 

#gens:11 #
3.39 4.46 4.33 3.42 5.60 3.09 1.55 1.59 2.92 2.11 
3.67 5.23 4.59 5.11 4.51 4.91 6.51 11.83 5.36 3.12 
11.86 8.95 33.31 9.25 13.91 16.81 8.84 8.74 14.68 11.95 
23.62 12.63 18.11 15.82 7.92 9.76 20.11 23.74 12.38 19.94 
31.90 19.48 9.76 34.43 20.99 24.53 11.03 20.88 47.25 12.30 
24.95 22.90 32.57 45.57 44.48 34.78 19.74 17.52 13.87 16.36 

#gens:12 #
4.80 4.63 6.29 3.25 4.46 6.95 8.13 5.29 6.41 7.01 
4.27 3.64 5.90 5.01 5.91 11.58 5.48 7.57 4.54 9.80 
7.69 16.15 8.01 10.02 9.47 8.27 19.83 15.35 11.23 7.67 
19.43 19.21 24.81 19.03 18.12 37.13 11.80 16.60 38.18 22.79 
31.17 19.74 33.56 21.24 15.65 41.25 45.39 57.96 20.08 29.36 
23.10 58.17 19.13 32.05 53.38 49.03 26.05 21.66 36.68 32.52 

#gens:13 #
4.60 2.58 6.20 4.60 4.80 5.03 4.31 5.76 2.33 5.85 
5.04 9.16 18.77 13.10 4.15 5.82 4.83 8.46 16.09 5.88 
16.10 11.25 15.98 14.58 38.50 13.58 15.07 7.04 18.31 9.47 
17.26 22.12 32.92 60.19 54.26 12.58 22.11 37.45 33.06 42.56 
20.96 26.44 15.64 20.72 15.43 81.81 39.29 12.76 22.91 57.78 
71.23 57.73 49.52 33.89 44.43 27.48 48.04 28.75 41.48 50.50 

#gens:14 #
4.71 3.07 4.44 4.93 7.19 6.42 6.35 3.25 3.34 4.07 
10.09 12.92 6.83 7.55 7.72 12.81 9.79 12.95 7.63 5.59 
17.52 19.63 23.24 13.12 41.57 20.08 18.25 18.99 23.25 6.99 
26.55 32.92 37.08 16.42 29.61 51.21 51.14 12.24 24.07 27.06 
24.69 67.00 59.73 49.23 48.87 39.72 40.60 25.36 63.16 28.80 
84.85 102.08 147.13 96.09 64.15 82.60 30.06 54.97 82.57 57.67 

#gens:15 #
2.13 5.85 3.06 3.52 7.11 4.41 3.99 6.44 6.24 4.43 
15.88 6.19 38.17 10.11 7.61 12.68 11.04 7.60 8.09 8.06 
19.21 25.92 40.69 26.27 11.66 22.63 28.12 57.16 22.59 27.19 
30.30 76.07 35.75 31.57 28.27 24.29 70.11 84.54 18.69 77.95 
100.05 66.82 85.54 67.02 48.93 35.58 60.22 126.41 43.87 71.33 
73.86 89.64 66.08 63.76 76.53 110.19 74.66 149.94 169.15 54.61 

#gens:16 #
5.19 3.23 5.02 4.11 4.67 6.28 3.92 5.94 4.03 4.11 
9.07 16.67 12.61 6.56 10.25 6.64 4.89 19.65 7.76 9.51 
63.97 22.06 29.08 34.24 14.85 29.18 25.60 31.23 23.46 28.51 
63.72 41.04 74.97 61.49 51.14 67.63 88.61 127.28 47.04 75.68 
114.39 58.42 140.65 89.28 39.77 90.85 74.28 74.34 60.47 69.18 
144.55 161.92 71.20 102.38 125.62 117.76 120.75 98.73 126.77 121.00 

#gens:17 #
3.37 7.94 7.06 5.39 5.58 3.78 3.80 5.83 4.77 3.52 
16.87 9.81 14.99 5.02 6.66 10.65 4.91 14.13 10.94 4.63 
25.89 50.80 27.33 31.31 22.12 32.62 31.66 13.65 25.34 16.28 
60.01 65.23 72.36 49.95 62.68 54.01 70.10 129.19 152.79 22.54 
129.17 117.88 305.56 56.57 95.68 87.78 123.26 108.12 115.98 157.47 
118.47 67.82 232.86 193.51 120.55 200.45 122.90 354.19 112.66 119.69 

#gens:18 #
3.50 3.69 5.35 7.55 16.38 8.80 10.13 4.51 5.30 7.81 
7.22 16.26 11.36 20.08 9.26 29.12 11.28 8.06 13.86 14.27 
79.83 48.18 34.16 23.76 39.29 44.29 46.46 76.49 37.83 85.96 
46.20 67.39 49.40 86.80 74.22 81.72 55.26 181.94 92.48 71.54 
151.18 275.17 164.96 293.39 147.30 222.72 122.63 172.88 80.29 121.59 
329.63 140.62 122.76 168.91 296.24 178.57 311.07 121.99 150.64 323.12 
