statistika 03 2var pilnam grafam
intervals	geni: [30;30]	 ietekmejosie: [5 ; 5]
bula funkcijas rekinas pec a varianta


#gens:30 #
789817725 1031962076 1053115322 837513611 905139282 903390854 920443376 523062238 842353388 694443643 

# Kopejais darbibas laiks: 8126s  #
