statistika 03 2var pilnam grafam
intervals	geni: [30;30]	 ietekmejosie: [5 ; 5]
bula funkcijas rekinas pec a varianta


#gens:30 #
897159315 906810825 883530453 911075813 892558031 960407644 893060713 849912259 974559891 878645467 

# Kopejais darbibas laiks: 8126s  #
