statistika 03 2var pilnam grafam
intervals	geni: [30;30]	 ietekmejosie: [6 ; 6]
bula funkcijas rekinas pec a varianta


#gens:30 #
6507.40 6013.34 8065.36 2882.39 7340.59 4663.08 2106.22 5009.69 7245.61 4847.87 

# Kopejais darbibas laiks: 10180s  #
