statistika 03 2var pilnam grafam
intervals	geni: [30;30]	 ietekmejosie: [6 ; 6]
bula funkcijas rekinas pec a varianta


#gens:30   iet gens:6 #

$cikls  baseina_lielums  cikla_garums   liel_att_lidz_c$

     1        436327638           225             16189
     2        274504762          1473             14276
     3        233654355          5744              8324
     4         22406078           682              2323
     5         64893629           758              5204
     6         33863249           805              2248
     7          1994199           487               937
     8          4638521           594              1272
     9           995188            19               602
    10            73593            24               291
    11           382963           366               185
    12             7611             3                46
    13               38             2                 3

#########################################################
     1        983189157          8954             15824
     2         20656223           970              2684
     3         38370376          1338              3065
     4         28085476           762              3837
     5          1459893           109               677
     6          1958761           150               687
     7            21468             4               114
     8              361             3                11
     9               29             1                 5
    10               54             1                 5
    11               26             1                 4

#########################################################
     1       1043601783          4612             21936
     2         28679145          5106              1551
     3           330264           133               435
     4           200002            23               414
     5           174470             9               417
     6           732650           153               681
     7            21018            22               119
     8             1779            10                19
     9              710             7                14
    10                3             1                 1

#########################################################
     1       1012465677         11537              9648
     2         60666005          2899              3674
     3           570630            56               281
     4             8292            27                67
     5            31094            13                98
     6               64             3                 9
     7               62             2                11

#########################################################
     1        888664734          9811             24456
     2        164256966          6375              5218
     3          6020516           437              1379
     4         14688240          1388              2928
     5            84786            77               194
     6            26539            10               158
     7               41             2                 4
     8                2             1                 1

#########################################################
     1       1054854331          8798             15883
     2         18516490           757              1970
     3           249572            85               247
     4            14558            11                69
     5            28205            46                42
     6            19260            10                47
     7            52442            41                72
     8             6557            13                43
     9               54             6                 3
    10              257             1                11
    11               98             2                 9

#########################################################
     1        324161509          5530              5003
     2        748437727          6681              8031
     3          1140122            20               476
     4             2296             7                20
     5              153             6                13
     6               17             3                 3

#########################################################
     1        178712693          5231              4921
     2        471103530           583             13538
     3         53308038           874              4293
     4        321588636           296             10941
     5         22291822           252              2536
     6          1314967           112               617
     7          7212663          2083              1340
     8         13229502           914              2831
     9          4979942          1123              1163
    10               31             2                 4

#########################################################
     1        241644277           848             16517
     2         93683540          1077             10663
     3        145477625          4700             13539
     4        200858276          5160             10567
     5        387136708           442             20652
     6          3635061          1303              1274
     7           494722           261               561
     8           550429           515               340
     9           257425            20               413
    10             3435             4                73
    11              326             5                21

#########################################################
     1       1066016921          7226             16322
     2          1489997           127               785
     3          4077063           302               983
     4          2157534           207               720
     5              173             6                 9
     6               72             6                 4
     7               64             1                10

#########################################################

# Kopejais darbibas laiks: 10180s  #
