4096
0 2946
1 3010
2 2818
3 2882
4 2978
5 3010
6 2850
7 2882
8 2962
9 3026
10 2834
11 2834
12 2962
13 3026
14 2834
15 2834
16 2954
17 3018
18 2826
19 2890
20 2986
21 3018
22 2858
23 2890
24 2970
25 3034
26 2842
27 2842
28 2970
29 3034
30 2842
31 2842
32 2946
33 3010
34 2818
35 2882
36 2978
37 3010
38 2850
39 2882
40 2962
41 3026
42 2834
43 2834
44 2962
45 3026
46 2834
47 2834
48 2954
49 3018
50 2826
51 2890
52 2986
53 3018
54 2858
55 2890
56 2970
57 3034
58 2842
59 2842
60 2970
61 3034
62 2842
63 2842
64 2946
65 3010
66 2946
67 3010
68 2978
69 3010
70 2978
71 3010
72 2946
73 3010
74 2946
75 2946
76 2946
77 3010
78 2946
79 2946
80 2954
81 3018
82 2946
83 3010
84 2986
85 3018
86 2978
87 3010
88 2954
89 3018
90 2946
91 2946
92 2954
93 3018
94 2946
95 2946
96 2946
97 3010
98 2946
99 3010
100 2978
101 3010
102 2978
103 3010
104 2946
105 3010
106 2946
107 2946
108 2946
109 3010
110 2946
111 2946
112 2954
113 3018
114 2946
115 3010
116 2986
117 3018
118 2978
119 3010
120 2954
121 3018
122 2946
123 2946
124 2954
125 3018
126 2946
127 2946
128 898
129 962
130 770
131 834
132 930
133 962
134 802
135 834
136 914
137 978
138 786
139 786
140 914
141 978
142 786
143 786
144 650
145 714
146 522
147 586
148 938
149 970
150 810
151 842
152 666
153 730
154 538
155 538
156 922
157 986
158 794
159 794
160 898
161 962
162 770
163 834
164 930
165 962
166 802
167 834
168 914
169 978
170 786
171 786
172 914
173 978
174 786
175 786
176 650
177 714
178 522
179 586
180 938
181 970
182 810
183 842
184 666
185 730
186 538
187 538
188 922
189 986
190 794
191 794
192 2946
193 3010
194 2946
195 3010
196 2978
197 3010
198 2978
199 3010
200 2946
201 3010
202 2946
203 2946
204 2946
205 3010
206 2946
207 2946
208 2698
209 2762
210 2690
211 2754
212 2986
213 3018
214 2978
215 3010
216 2698
217 2762
218 2690
219 2690
220 2954
221 3018
222 2946
223 2946
224 2946
225 3010
226 2946
227 3010
228 2978
229 3010
230 2978
231 3010
232 2946
233 3010
234 2946
235 2946
236 2946
237 3010
238 2946
239 2946
240 2698
241 2762
242 2690
243 2754
244 2986
245 3018
246 2978
247 3010
248 2698
249 2762
250 2690
251 2690
252 2954
253 3018
254 2946
255 2946
256 2946
257 3010
258 2818
259 2882
260 2978
261 3010
262 2850
263 2882
264 2962
265 3026
266 2834
267 2834
268 2962
269 3026
270 2834
271 2834
272 2954
273 3018
274 2826
275 2890
276 2986
277 3018
278 2858
279 2890
280 2970
281 3034
282 2842
283 2842
284 2970
285 3034
286 2842
287 2842
288 2946
289 3010
290 2818
291 2882
292 2978
293 3010
294 2850
295 2882
296 2962
297 3026
298 2834
299 2834
300 2962
301 3026
302 2834
303 2834
304 2954
305 3018
306 2826
307 2890
308 2986
309 3018
310 2858
311 2890
312 2970
313 3034
314 2842
315 2842
316 2970
317 3034
318 2842
319 2842
320 2946
321 3010
322 2946
323 3010
324 2978
325 3010
326 2978
327 3010
328 2946
329 3010
330 2946
331 2946
332 2946
333 3010
334 2946
335 2946
336 2954
337 3018
338 2946
339 3010
340 2986
341 3018
342 2978
343 3010
344 2954
345 3018
346 2946
347 2946
348 2954
349 3018
350 2946
351 2946
352 2946
353 3010
354 2946
355 3010
356 2978
357 3010
358 2978
359 3010
360 2946
361 3010
362 2946
363 2946
364 2946
365 3010
366 2946
367 2946
368 2954
369 3018
370 2946
371 3010
372 2986
373 3018
374 2978
375 3010
376 2954
377 3018
378 2946
379 2946
380 2954
381 3018
382 2946
383 2946
384 898
385 962
386 770
387 834
388 930
389 962
390 802
391 834
392 914
393 978
394 786
395 786
396 914
397 978
398 786
399 786
400 650
401 714
402 522
403 586
404 938
405 970
406 810
407 842
408 666
409 730
410 538
411 538
412 922
413 986
414 794
415 794
416 898
417 962
418 770
419 834
420 930
421 962
422 802
423 834
424 914
425 978
426 786
427 786
428 914
429 978
430 786
431 786
432 650
433 714
434 522
435 586
436 938
437 970
438 810
439 842
440 666
441 730
442 538
443 538
444 922
445 986
446 794
447 794
448 2946
449 3010
450 2946
451 3010
452 2978
453 3010
454 2978
455 3010
456 2946
457 3010
458 2946
459 2946
460 2946
461 3010
462 2946
463 2946
464 2698
465 2762
466 2690
467 2754
468 2986
469 3018
470 2978
471 3010
472 2698
473 2762
474 2690
475 2690
476 2954
477 3018
478 2946
479 2946
480 2946
481 3010
482 2946
483 3010
484 2978
485 3010
486 2978
487 3010
488 2946
489 3010
490 2946
491 2946
492 2946
493 3010
494 2946
495 2946
496 2698
497 2762
498 2690
499 2754
500 2986
501 3018
502 2978
503 3010
504 2698
505 2762
506 2690
507 2690
508 2954
509 3018
510 2946
511 2946
512 262
513 326
514 262
515 326
516 294
517 326
518 294
519 326
520 278
521 342
522 278
523 278
524 278
525 342
526 278
527 278
528 268
529 332
530 268
531 332
532 300
533 332
534 300
535 332
536 286
537 350
538 286
539 286
540 286
541 350
542 286
543 286
544 262
545 326
546 262
547 326
548 294
549 326
550 294
551 326
552 278
553 342
554 278
555 278
556 278
557 342
558 278
559 278
560 268
561 332
562 268
563 332
564 300
565 332
566 300
567 332
568 286
569 350
570 286
571 286
572 286
573 350
574 286
575 286
576 262
577 326
578 262
579 326
580 294
581 326
582 294
583 326
584 262
585 326
586 262
587 262
588 262
589 326
590 262
591 262
592 268
593 332
594 260
595 324
596 300
597 332
598 292
599 324
600 270
601 334
602 262
603 262
604 270
605 334
606 262
607 262
608 262
609 326
610 262
611 326
612 294
613 326
614 294
615 326
616 262
617 326
618 262
619 262
620 262
621 326
622 262
623 262
624 268
625 332
626 260
627 324
628 300
629 332
630 292
631 324
632 270
633 334
634 262
635 262
636 270
637 334
638 262
639 262
640 258
641 322
642 258
643 322
644 290
645 322
646 290
647 322
648 274
649 338
650 274
651 274
652 274
653 338
654 274
655 274
656 8
657 72
658 8
659 72
660 296
661 328
662 296
663 328
664 26
665 90
666 26
667 26
668 282
669 346
670 282
671 282
672 258
673 322
674 258
675 322
676 290
677 322
678 290
679 322
680 274
681 338
682 274
683 274
684 274
685 338
686 274
687 274
688 8
689 72
690 8
691 72
692 296
693 328
694 296
695 328
696 26
697 90
698 26
699 26
700 282
701 346
702 282
703 282
704 258
705 322
706 258
707 322
708 290
709 322
710 290
711 322
712 258
713 322
714 258
715 258
716 258
717 322
718 258
719 258
720 8
721 72
722 0
723 64
724 296
725 328
726 288
727 320
728 10
729 74
730 2
731 2
732 266
733 330
734 258
735 258
736 258
737 322
738 258
739 322
740 290
741 322
742 290
743 322
744 258
745 322
746 258
747 258
748 258
749 322
750 258
751 258
752 8
753 72
754 0
755 64
756 296
757 328
758 288
759 320
760 10
761 74
762 2
763 2
764 266
765 330
766 258
767 258
768 262
769 326
770 262
771 326
772 294
773 326
774 294
775 326
776 278
777 342
778 278
779 278
780 278
781 342
782 278
783 278
784 268
785 332
786 268
787 332
788 300
789 332
790 300
791 332
792 286
793 350
794 286
795 286
796 286
797 350
798 286
799 286
800 262
801 326
802 262
803 326
804 294
805 326
806 294
807 326
808 278
809 342
810 278
811 278
812 278
813 342
814 278
815 278
816 268
817 332
818 268
819 332
820 300
821 332
822 300
823 332
824 286
825 350
826 286
827 286
828 286
829 350
830 286
831 286
832 262
833 326
834 262
835 326
836 294
837 326
838 294
839 326
840 262
841 326
842 262
843 262
844 262
845 326
846 262
847 262
848 268
849 332
850 260
851 324
852 300
853 332
854 292
855 324
856 270
857 334
858 262
859 262
860 270
861 334
862 262
863 262
864 262
865 326
866 262
867 326
868 294
869 326
870 294
871 326
872 262
873 326
874 262
875 262
876 262
877 326
878 262
879 262
880 268
881 332
882 260
883 324
884 300
885 332
886 292
887 324
888 270
889 334
890 262
891 262
892 270
893 334
894 262
895 262
896 258
897 322
898 258
899 322
900 290
901 322
902 290
903 322
904 274
905 338
906 274
907 274
908 274
909 338
910 274
911 274
912 8
913 72
914 8
915 72
916 296
917 328
918 296
919 328
920 26
921 90
922 26
923 26
924 282
925 346
926 282
927 282
928 258
929 322
930 258
931 322
932 290
933 322
934 290
935 322
936 274
937 338
938 274
939 274
940 274
941 338
942 274
943 274
944 8
945 72
946 8
947 72
948 296
949 328
950 296
951 328
952 26
953 90
954 26
955 26
956 282
957 346
958 282
959 282
960 258
961 322
962 258
963 322
964 290
965 322
966 290
967 322
968 258
969 322
970 258
971 258
972 258
973 322
974 258
975 258
976 8
977 72
978 0
979 64
980 296
981 328
982 288
983 320
984 10
985 74
986 2
987 2
988 266
989 330
990 258
991 258
992 258
993 322
994 258
995 322
996 290
997 322
998 290
999 322
1000 258
1001 322
1002 258
1003 258
1004 258
1005 322
1006 258
1007 258
1008 8
1009 72
1010 0
1011 64
1012 296
1013 328
1014 288
1015 320
1016 10
1017 74
1018 2
1019 2
1020 266
1021 330
1022 258
1023 258
1024 2962
1025 3026
1026 2834
1027 2898
1028 2994
1029 3026
1030 2866
1031 2898
1032 2450
1033 2514
1034 2322
1035 2322
1036 2450
1037 2514
1038 2322
1039 2322
1040 2970
1041 3034
1042 2842
1043 2906
1044 3002
1045 3034
1046 2874
1047 2906
1048 2458
1049 2522
1050 2330
1051 2330
1052 2458
1053 2522
1054 2330
1055 2330
1056 2962
1057 3026
1058 2834
1059 2898
1060 2994
1061 3026
1062 2866
1063 2898
1064 2450
1065 2514
1066 2322
1067 2322
1068 2450
1069 2514
1070 2322
1071 2322
1072 2970
1073 3034
1074 2842
1075 2906
1076 3002
1077 3034
1078 2874
1079 2906
1080 2458
1081 2522
1082 2330
1083 2330
1084 2458
1085 2522
1086 2330
1087 2330
1088 2946
1089 3010
1090 2946
1091 3010
1092 2978
1093 3010
1094 2978
1095 3010
1096 2434
1097 2498
1098 2434
1099 2434
1100 2434
1101 2498
1102 2434
1103 2434
1104 2954
1105 3018
1106 2946
1107 3010
1108 2986
1109 3018
1110 2978
1111 3010
1112 2442
1113 2506
1114 2434
1115 2434
1116 2442
1117 2506
1118 2434
1119 2434
1120 2946
1121 3010
1122 2946
1123 3010
1124 2978
1125 3010
1126 2978
1127 3010
1128 2434
1129 2498
1130 2434
1131 2434
1132 2434
1133 2498
1134 2434
1135 2434
1136 2954
1137 3018
1138 2946
1139 3010
1140 2986
1141 3018
1142 2978
1143 3010
1144 2442
1145 2506
1146 2434
1147 2434
1148 2442
1149 2506
1150 2434
1151 2434
1152 914
1153 978
1154 786
1155 850
1156 946
1157 978
1158 818
1159 850
1160 402
1161 466
1162 274
1163 274
1164 402
1165 466
1166 274
1167 274
1168 666
1169 730
1170 538
1171 602
1172 954
1173 986
1174 826
1175 858
1176 154
1177 218
1178 26
1179 26
1180 410
1181 474
1182 282
1183 282
1184 914
1185 978
1186 786
1187 850
1188 946
1189 978
1190 818
1191 850
1192 402
1193 466
1194 274
1195 274
1196 402
1197 466
1198 274
1199 274
1200 666
1201 730
1202 538
1203 602
1204 954
1205 986
1206 826
1207 858
1208 154
1209 218
1210 26
1211 26
1212 410
1213 474
1214 282
1215 282
1216 2946
1217 3010
1218 2946
1219 3010
1220 2978
1221 3010
1222 2978
1223 3010
1224 2434
1225 2498
1226 2434
1227 2434
1228 2434
1229 2498
1230 2434
1231 2434
1232 2698
1233 2762
1234 2690
1235 2754
1236 2986
1237 3018
1238 2978
1239 3010
1240 2186
1241 2250
1242 2178
1243 2178
1244 2442
1245 2506
1246 2434
1247 2434
1248 2946
1249 3010
1250 2946
1251 3010
1252 2978
1253 3010
1254 2978
1255 3010
1256 2434
1257 2498
1258 2434
1259 2434
1260 2434
1261 2498
1262 2434
1263 2434
1264 2698
1265 2762
1266 2690
1267 2754
1268 2986
1269 3018
1270 2978
1271 3010
1272 2186
1273 2250
1274 2178
1275 2178
1276 2442
1277 2506
1278 2434
1279 2434
1280 2962
1281 3026
1282 2834
1283 2898
1284 2994
1285 3026
1286 2866
1287 2898
1288 2450
1289 2514
1290 2322
1291 2322
1292 2450
1293 2514
1294 2322
1295 2322
1296 2970
1297 3034
1298 2842
1299 2906
1300 3002
1301 3034
1302 2874
1303 2906
1304 2458
1305 2522
1306 2330
1307 2330
1308 2458
1309 2522
1310 2330
1311 2330
1312 2962
1313 3026
1314 2834
1315 2898
1316 2994
1317 3026
1318 2866
1319 2898
1320 2450
1321 2514
1322 2322
1323 2322
1324 2450
1325 2514
1326 2322
1327 2322
1328 2970
1329 3034
1330 2842
1331 2906
1332 3002
1333 3034
1334 2874
1335 2906
1336 2458
1337 2522
1338 2330
1339 2330
1340 2458
1341 2522
1342 2330
1343 2330
1344 2946
1345 3010
1346 2946
1347 3010
1348 2978
1349 3010
1350 2978
1351 3010
1352 2434
1353 2498
1354 2434
1355 2434
1356 2434
1357 2498
1358 2434
1359 2434
1360 2954
1361 3018
1362 2946
1363 3010
1364 2986
1365 3018
1366 2978
1367 3010
1368 2442
1369 2506
1370 2434
1371 2434
1372 2442
1373 2506
1374 2434
1375 2434
1376 2946
1377 3010
1378 2946
1379 3010
1380 2978
1381 3010
1382 2978
1383 3010
1384 2434
1385 2498
1386 2434
1387 2434
1388 2434
1389 2498
1390 2434
1391 2434
1392 2954
1393 3018
1394 2946
1395 3010
1396 2986
1397 3018
1398 2978
1399 3010
1400 2442
1401 2506
1402 2434
1403 2434
1404 2442
1405 2506
1406 2434
1407 2434
1408 914
1409 978
1410 786
1411 850
1412 946
1413 978
1414 818
1415 850
1416 402
1417 466
1418 274
1419 274
1420 402
1421 466
1422 274
1423 274
1424 666
1425 730
1426 538
1427 602
1428 954
1429 986
1430 826
1431 858
1432 154
1433 218
1434 26
1435 26
1436 410
1437 474
1438 282
1439 282
1440 914
1441 978
1442 786
1443 850
1444 946
1445 978
1446 818
1447 850
1448 402
1449 466
1450 274
1451 274
1452 402
1453 466
1454 274
1455 274
1456 666
1457 730
1458 538
1459 602
1460 954
1461 986
1462 826
1463 858
1464 154
1465 218
1466 26
1467 26
1468 410
1469 474
1470 282
1471 282
1472 2946
1473 3010
1474 2946
1475 3010
1476 2978
1477 3010
1478 2978
1479 3010
1480 2434
1481 2498
1482 2434
1483 2434
1484 2434
1485 2498
1486 2434
1487 2434
1488 2698
1489 2762
1490 2690
1491 2754
1492 2986
1493 3018
1494 2978
1495 3010
1496 2186
1497 2250
1498 2178
1499 2178
1500 2442
1501 2506
1502 2434
1503 2434
1504 2946
1505 3010
1506 2946
1507 3010
1508 2978
1509 3010
1510 2978
1511 3010
1512 2434
1513 2498
1514 2434
1515 2434
1516 2434
1517 2498
1518 2434
1519 2434
1520 2698
1521 2762
1522 2690
1523 2754
1524 2986
1525 3018
1526 2978
1527 3010
1528 2186
1529 2250
1530 2178
1531 2178
1532 2442
1533 2506
1534 2434
1535 2434
1536 278
1537 342
1538 278
1539 342
1540 310
1541 342
1542 310
1543 342
1544 278
1545 342
1546 278
1547 278
1548 278
1549 342
1550 278
1551 278
1552 284
1553 348
1554 284
1555 348
1556 316
1557 348
1558 316
1559 348
1560 286
1561 350
1562 286
1563 286
1564 286
1565 350
1566 286
1567 286
1568 278
1569 342
1570 278
1571 342
1572 310
1573 342
1574 310
1575 342
1576 278
1577 342
1578 278
1579 278
1580 278
1581 342
1582 278
1583 278
1584 284
1585 348
1586 284
1587 348
1588 316
1589 348
1590 316
1591 348
1592 286
1593 350
1594 286
1595 286
1596 286
1597 350
1598 286
1599 286
1600 262
1601 326
1602 262
1603 326
1604 294
1605 326
1606 294
1607 326
1608 262
1609 326
1610 262
1611 262
1612 262
1613 326
1614 262
1615 262
1616 268
1617 332
1618 260
1619 324
1620 300
1621 332
1622 292
1623 324
1624 270
1625 334
1626 262
1627 262
1628 270
1629 334
1630 262
1631 262
1632 262
1633 326
1634 262
1635 326
1636 294
1637 326
1638 294
1639 326
1640 262
1641 326
1642 262
1643 262
1644 262
1645 326
1646 262
1647 262
1648 268
1649 332
1650 260
1651 324
1652 300
1653 332
1654 292
1655 324
1656 270
1657 334
1658 262
1659 262
1660 270
1661 334
1662 262
1663 262
1664 278
1665 342
1666 278
1667 342
1668 310
1669 342
1670 310
1671 342
1672 278
1673 342
1674 278
1675 278
1676 278
1677 342
1678 278
1679 278
1680 28
1681 92
1682 28
1683 92
1684 316
1685 348
1686 316
1687 348
1688 30
1689 94
1690 30
1691 30
1692 286
1693 350
1694 286
1695 286
1696 278
1697 342
1698 278
1699 342
1700 310
1701 342
1702 310
1703 342
1704 278
1705 342
1706 278
1707 278
1708 278
1709 342
1710 278
1711 278
1712 28
1713 92
1714 28
1715 92
1716 316
1717 348
1718 316
1719 348
1720 30
1721 94
1722 30
1723 30
1724 286
1725 350
1726 286
1727 286
1728 262
1729 326
1730 262
1731 326
1732 294
1733 326
1734 294
1735 326
1736 262
1737 326
1738 262
1739 262
1740 262
1741 326
1742 262
1743 262
1744 12
1745 76
1746 4
1747 68
1748 300
1749 332
1750 292
1751 324
1752 14
1753 78
1754 6
1755 6
1756 270
1757 334
1758 262
1759 262
1760 262
1761 326
1762 262
1763 326
1764 294
1765 326
1766 294
1767 326
1768 262
1769 326
1770 262
1771 262
1772 262
1773 326
1774 262
1775 262
1776 12
1777 76
1778 4
1779 68
1780 300
1781 332
1782 292
1783 324
1784 14
1785 78
1786 6
1787 6
1788 270
1789 334
1790 262
1791 262
1792 278
1793 342
1794 278
1795 342
1796 310
1797 342
1798 310
1799 342
1800 278
1801 342
1802 278
1803 278
1804 278
1805 342
1806 278
1807 278
1808 284
1809 348
1810 284
1811 348
1812 316
1813 348
1814 316
1815 348
1816 286
1817 350
1818 286
1819 286
1820 286
1821 350
1822 286
1823 286
1824 278
1825 342
1826 278
1827 342
1828 310
1829 342
1830 310
1831 342
1832 278
1833 342
1834 278
1835 278
1836 278
1837 342
1838 278
1839 278
1840 284
1841 348
1842 284
1843 348
1844 316
1845 348
1846 316
1847 348
1848 286
1849 350
1850 286
1851 286
1852 286
1853 350
1854 286
1855 286
1856 262
1857 326
1858 262
1859 326
1860 294
1861 326
1862 294
1863 326
1864 262
1865 326
1866 262
1867 262
1868 262
1869 326
1870 262
1871 262
1872 268
1873 332
1874 260
1875 324
1876 300
1877 332
1878 292
1879 324
1880 270
1881 334
1882 262
1883 262
1884 270
1885 334
1886 262
1887 262
1888 262
1889 326
1890 262
1891 326
1892 294
1893 326
1894 294
1895 326
1896 262
1897 326
1898 262
1899 262
1900 262
1901 326
1902 262
1903 262
1904 268
1905 332
1906 260
1907 324
1908 300
1909 332
1910 292
1911 324
1912 270
1913 334
1914 262
1915 262
1916 270
1917 334
1918 262
1919 262
1920 278
1921 342
1922 278
1923 342
1924 310
1925 342
1926 310
1927 342
1928 278
1929 342
1930 278
1931 278
1932 278
1933 342
1934 278
1935 278
1936 28
1937 92
1938 28
1939 92
1940 316
1941 348
1942 316
1943 348
1944 30
1945 94
1946 30
1947 30
1948 286
1949 350
1950 286
1951 286
1952 278
1953 342
1954 278
1955 342
1956 310
1957 342
1958 310
1959 342
1960 278
1961 342
1962 278
1963 278
1964 278
1965 342
1966 278
1967 278
1968 28
1969 92
1970 28
1971 92
1972 316
1973 348
1974 316
1975 348
1976 30
1977 94
1978 30
1979 30
1980 286
1981 350
1982 286
1983 286
1984 262
1985 326
1986 262
1987 326
1988 294
1989 326
1990 294
1991 326
1992 262
1993 326
1994 262
1995 262
1996 262
1997 326
1998 262
1999 262
2000 12
2001 76
2002 4
2003 68
2004 300
2005 332
2006 292
2007 324
2008 14
2009 78
2010 6
2011 6
2012 270
2013 334
2014 262
2015 262
2016 262
2017 326
2018 262
2019 326
2020 294
2021 326
2022 294
2023 326
2024 262
2025 326
2026 262
2027 262
2028 262
2029 326
2030 262
2031 262
2032 12
2033 76
2034 4
2035 68
2036 300
2037 332
2038 292
2039 324
2040 14
2041 78
2042 6
2043 6
2044 270
2045 334
2046 262
2047 262
2048 2947
2049 3011
2050 2819
2051 3906
2052 2979
2053 3011
2054 2851
2055 3906
2056 2963
2057 3027
2058 2835
2059 3858
2060 2963
2061 3027
2062 2835
2063 3858
2064 2955
2065 3019
2066 2827
2067 3914
2068 2987
2069 3019
2070 2859
2071 3914
2072 2971
2073 3035
2074 2843
2075 3866
2076 2971
2077 3035
2078 2843
2079 3866
2080 2947
2081 3011
2082 2819
2083 3906
2084 2979
2085 3011
2086 2851
2087 3906
2088 2963
2089 3027
2090 2835
2091 3858
2092 2963
2093 3027
2094 2835
2095 3858
2096 2955
2097 3019
2098 2827
2099 3914
2100 2987
2101 3019
2102 2859
2103 3914
2104 2971
2105 3035
2106 2843
2107 3866
2108 2971
2109 3035
2110 2843
2111 3866
2112 2947
2113 3011
2114 2947
2115 4034
2116 2979
2117 3011
2118 2979
2119 4034
2120 2947
2121 3011
2122 2947
2123 3970
2124 2947
2125 3011
2126 2947
2127 3970
2128 2955
2129 3019
2130 2947
2131 4034
2132 2987
2133 3019
2134 2979
2135 4034
2136 2955
2137 3019
2138 2947
2139 3970
2140 2955
2141 3019
2142 2947
2143 3970
2144 2947
2145 3011
2146 2947
2147 4034
2148 2979
2149 3011
2150 2979
2151 4034
2152 2947
2153 3011
2154 2947
2155 3970
2156 2947
2157 3011
2158 2947
2159 3970
2160 2955
2161 3019
2162 2947
2163 4034
2164 2987
2165 3019
2166 2979
2167 4034
2168 2955
2169 3019
2170 2947
2171 3970
2172 2955
2173 3019
2174 2947
2175 3970
2176 899
2177 963
2178 771
2179 1858
2180 931
2181 963
2182 803
2183 1858
2184 915
2185 979
2186 787
2187 1810
2188 915
2189 979
2190 787
2191 1810
2192 651
2193 715
2194 523
2195 1610
2196 939
2197 971
2198 811
2199 1866
2200 667
2201 731
2202 539
2203 1562
2204 923
2205 987
2206 795
2207 1818
2208 899
2209 963
2210 771
2211 1858
2212 931
2213 963
2214 803
2215 1858
2216 915
2217 979
2218 787
2219 1810
2220 915
2221 979
2222 787
2223 1810
2224 651
2225 715
2226 523
2227 1610
2228 939
2229 971
2230 811
2231 1866
2232 667
2233 731
2234 539
2235 1562
2236 923
2237 987
2238 795
2239 1818
2240 2947
2241 3011
2242 2947
2243 4034
2244 2979
2245 3011
2246 2979
2247 4034
2248 2947
2249 3011
2250 2947
2251 3970
2252 2947
2253 3011
2254 2947
2255 3970
2256 2699
2257 2763
2258 2691
2259 3778
2260 2987
2261 3019
2262 2979
2263 4034
2264 2699
2265 2763
2266 2691
2267 3714
2268 2955
2269 3019
2270 2947
2271 3970
2272 2947
2273 3011
2274 2947
2275 4034
2276 2979
2277 3011
2278 2979
2279 4034
2280 2947
2281 3011
2282 2947
2283 3970
2284 2947
2285 3011
2286 2947
2287 3970
2288 2699
2289 2763
2290 2691
2291 3778
2292 2987
2293 3019
2294 2979
2295 4034
2296 2699
2297 2763
2298 2691
2299 3714
2300 2955
2301 3019
2302 2947
2303 3970
2304 2947
2305 3011
2306 2819
2307 3906
2308 2979
2309 3011
2310 2851
2311 3906
2312 2963
2313 3027
2314 2835
2315 3858
2316 2963
2317 3027
2318 2835
2319 3858
2320 2955
2321 3019
2322 2827
2323 3914
2324 2987
2325 3019
2326 2859
2327 3914
2328 2971
2329 3035
2330 2843
2331 3866
2332 2971
2333 3035
2334 2843
2335 3866
2336 2947
2337 3011
2338 2819
2339 3906
2340 2979
2341 3011
2342 2851
2343 3906
2344 2963
2345 3027
2346 2835
2347 3858
2348 2963
2349 3027
2350 2835
2351 3858
2352 2955
2353 3019
2354 2827
2355 3914
2356 2987
2357 3019
2358 2859
2359 3914
2360 2971
2361 3035
2362 2843
2363 3866
2364 2971
2365 3035
2366 2843
2367 3866
2368 2947
2369 3011
2370 2947
2371 4034
2372 2979
2373 3011
2374 2979
2375 4034
2376 2947
2377 3011
2378 2947
2379 3970
2380 2947
2381 3011
2382 2947
2383 3970
2384 2955
2385 3019
2386 2947
2387 4034
2388 2987
2389 3019
2390 2979
2391 4034
2392 2955
2393 3019
2394 2947
2395 3970
2396 2955
2397 3019
2398 2947
2399 3970
2400 2947
2401 3011
2402 2947
2403 4034
2404 2979
2405 3011
2406 2979
2407 4034
2408 2947
2409 3011
2410 2947
2411 3970
2412 2947
2413 3011
2414 2947
2415 3970
2416 2955
2417 3019
2418 2947
2419 4034
2420 2987
2421 3019
2422 2979
2423 4034
2424 2955
2425 3019
2426 2947
2427 3970
2428 2955
2429 3019
2430 2947
2431 3970
2432 899
2433 963
2434 771
2435 1858
2436 931
2437 963
2438 803
2439 1858
2440 915
2441 979
2442 787
2443 1810
2444 915
2445 979
2446 787
2447 1810
2448 651
2449 715
2450 523
2451 1610
2452 939
2453 971
2454 811
2455 1866
2456 667
2457 731
2458 539
2459 1562
2460 923
2461 987
2462 795
2463 1818
2464 899
2465 963
2466 771
2467 1858
2468 931
2469 963
2470 803
2471 1858
2472 915
2473 979
2474 787
2475 1810
2476 915
2477 979
2478 787
2479 1810
2480 651
2481 715
2482 523
2483 1610
2484 939
2485 971
2486 811
2487 1866
2488 667
2489 731
2490 539
2491 1562
2492 923
2493 987
2494 795
2495 1818
2496 2947
2497 3011
2498 2947
2499 4034
2500 2979
2501 3011
2502 2979
2503 4034
2504 2947
2505 3011
2506 2947
2507 3970
2508 2947
2509 3011
2510 2947
2511 3970
2512 2699
2513 2763
2514 2691
2515 3778
2516 2987
2517 3019
2518 2979
2519 4034
2520 2699
2521 2763
2522 2691
2523 3714
2524 2955
2525 3019
2526 2947
2527 3970
2528 2947
2529 3011
2530 2947
2531 4034
2532 2979
2533 3011
2534 2979
2535 4034
2536 2947
2537 3011
2538 2947
2539 3970
2540 2947
2541 3011
2542 2947
2543 3970
2544 2699
2545 2763
2546 2691
2547 3778
2548 2987
2549 3019
2550 2979
2551 4034
2552 2699
2553 2763
2554 2691
2555 3714
2556 2955
2557 3019
2558 2947
2559 3970
2560 263
2561 327
2562 263
2563 1350
2564 295
2565 327
2566 295
2567 1350
2568 279
2569 343
2570 279
2571 1302
2572 279
2573 343
2574 279
2575 1302
2576 269
2577 333
2578 269
2579 1356
2580 301
2581 333
2582 301
2583 1356
2584 287
2585 351
2586 287
2587 1310
2588 287
2589 351
2590 287
2591 1310
2592 263
2593 327
2594 263
2595 1350
2596 295
2597 327
2598 295
2599 1350
2600 279
2601 343
2602 279
2603 1302
2604 279
2605 343
2606 279
2607 1302
2608 269
2609 333
2610 269
2611 1356
2612 301
2613 333
2614 301
2615 1356
2616 287
2617 351
2618 287
2619 1310
2620 287
2621 351
2622 287
2623 1310
2624 263
2625 327
2626 263
2627 1350
2628 295
2629 327
2630 295
2631 1350
2632 263
2633 327
2634 263
2635 1286
2636 263
2637 327
2638 263
2639 1286
2640 269
2641 333
2642 261
2643 1348
2644 301
2645 333
2646 293
2647 1348
2648 271
2649 335
2650 263
2651 1286
2652 271
2653 335
2654 263
2655 1286
2656 263
2657 327
2658 263
2659 1350
2660 295
2661 327
2662 295
2663 1350
2664 263
2665 327
2666 263
2667 1286
2668 263
2669 327
2670 263
2671 1286
2672 269
2673 333
2674 261
2675 1348
2676 301
2677 333
2678 293
2679 1348
2680 271
2681 335
2682 263
2683 1286
2684 271
2685 335
2686 263
2687 1286
2688 259
2689 323
2690 259
2691 1346
2692 291
2693 323
2694 291
2695 1346
2696 275
2697 339
2698 275
2699 1298
2700 275
2701 339
2702 275
2703 1298
2704 9
2705 73
2706 9
2707 1096
2708 297
2709 329
2710 297
2711 1352
2712 27
2713 91
2714 27
2715 1050
2716 283
2717 347
2718 283
2719 1306
2720 259
2721 323
2722 259
2723 1346
2724 291
2725 323
2726 291
2727 1346
2728 275
2729 339
2730 275
2731 1298
2732 275
2733 339
2734 275
2735 1298
2736 9
2737 73
2738 9
2739 1096
2740 297
2741 329
2742 297
2743 1352
2744 27
2745 91
2746 27
2747 1050
2748 283
2749 347
2750 283
2751 1306
2752 259
2753 323
2754 259
2755 1346
2756 291
2757 323
2758 291
2759 1346
2760 259
2761 323
2762 259
2763 1282
2764 259
2765 323
2766 259
2767 1282
2768 9
2769 73
2770 1
2771 1088
2772 297
2773 329
2774 289
2775 1344
2776 11
2777 75
2778 3
2779 1026
2780 267
2781 331
2782 259
2783 1282
2784 259
2785 323
2786 259
2787 1346
2788 291
2789 323
2790 291
2791 1346
2792 259
2793 323
2794 259
2795 1282
2796 259
2797 323
2798 259
2799 1282
2800 9
2801 73
2802 1
2803 1088
2804 297
2805 329
2806 289
2807 1344
2808 11
2809 75
2810 3
2811 1026
2812 267
2813 331
2814 259
2815 1282
2816 263
2817 327
2818 263
2819 1350
2820 295
2821 327
2822 295
2823 1350
2824 279
2825 343
2826 279
2827 1302
2828 279
2829 343
2830 279
2831 1302
2832 269
2833 333
2834 269
2835 1356
2836 301
2837 333
2838 301
2839 1356
2840 287
2841 351
2842 287
2843 1310
2844 287
2845 351
2846 287
2847 1310
2848 263
2849 327
2850 263
2851 1350
2852 295
2853 327
2854 295
2855 1350
2856 279
2857 343
2858 279
2859 1302
2860 279
2861 343
2862 279
2863 1302
2864 269
2865 333
2866 269
2867 1356
2868 301
2869 333
2870 301
2871 1356
2872 287
2873 351
2874 287
2875 1310
2876 287
2877 351
2878 287
2879 1310
2880 263
2881 327
2882 263
2883 1350
2884 295
2885 327
2886 295
2887 1350
2888 263
2889 327
2890 263
2891 1286
2892 263
2893 327
2894 263
2895 1286
2896 269
2897 333
2898 261
2899 1348
2900 301
2901 333
2902 293
2903 1348
2904 271
2905 335
2906 263
2907 1286
2908 271
2909 335
2910 263
2911 1286
2912 263
2913 327
2914 263
2915 1350
2916 295
2917 327
2918 295
2919 1350
2920 263
2921 327
2922 263
2923 1286
2924 263
2925 327
2926 263
2927 1286
2928 269
2929 333
2930 261
2931 1348
2932 301
2933 333
2934 293
2935 1348
2936 271
2937 335
2938 263
2939 1286
2940 271
2941 335
2942 263
2943 1286
2944 259
2945 323
2946 259
2947 1346
2948 291
2949 323
2950 291
2951 1346
2952 275
2953 339
2954 275
2955 1298
2956 275
2957 339
2958 275
2959 1298
2960 9
2961 73
2962 9
2963 1096
2964 297
2965 329
2966 297
2967 1352
2968 27
2969 91
2970 27
2971 1050
2972 283
2973 347
2974 283
2975 1306
2976 259
2977 323
2978 259
2979 1346
2980 291
2981 323
2982 291
2983 1346
2984 275
2985 339
2986 275
2987 1298
2988 275
2989 339
2990 275
2991 1298
2992 9
2993 73
2994 9
2995 1096
2996 297
2997 329
2998 297
2999 1352
3000 27
3001 91
3002 27
3003 1050
3004 283
3005 347
3006 283
3007 1306
3008 259
3009 323
3010 259
3011 1346
3012 291
3013 323
3014 291
3015 1346
3016 259
3017 323
3018 259
3019 1282
3020 259
3021 323
3022 259
3023 1282
3024 9
3025 73
3026 1
3027 1088
3028 297
3029 329
3030 289
3031 1344
3032 11
3033 75
3034 3
3035 1026
3036 267
3037 331
3038 259
3039 1282
3040 259
3041 323
3042 259
3043 1346
3044 291
3045 323
3046 291
3047 1346
3048 259
3049 323
3050 259
3051 1282
3052 259
3053 323
3054 259
3055 1282
3056 9
3057 73
3058 1
3059 1088
3060 297
3061 329
3062 289
3063 1344
3064 11
3065 75
3066 3
3067 1026
3068 267
3069 331
3070 259
3071 1282
3072 2963
3073 3027
3074 2835
3075 3922
3076 2995
3077 3027
3078 2867
3079 3922
3080 2451
3081 2515
3082 2323
3083 3346
3084 2451
3085 2515
3086 2323
3087 3346
3088 2971
3089 3035
3090 2843
3091 3930
3092 3003
3093 3035
3094 2875
3095 3930
3096 2459
3097 2523
3098 2331
3099 3354
3100 2459
3101 2523
3102 2331
3103 3354
3104 2963
3105 3027
3106 2835
3107 3922
3108 2995
3109 3027
3110 2867
3111 3922
3112 2451
3113 2515
3114 2323
3115 3346
3116 2451
3117 2515
3118 2323
3119 3346
3120 2971
3121 3035
3122 2843
3123 3930
3124 3003
3125 3035
3126 2875
3127 3930
3128 2459
3129 2523
3130 2331
3131 3354
3132 2459
3133 2523
3134 2331
3135 3354
3136 2947
3137 3011
3138 2947
3139 4034
3140 2979
3141 3011
3142 2979
3143 4034
3144 2435
3145 2499
3146 2435
3147 3458
3148 2435
3149 2499
3150 2435
3151 3458
3152 2955
3153 3019
3154 2947
3155 4034
3156 2987
3157 3019
3158 2979
3159 4034
3160 2443
3161 2507
3162 2435
3163 3458
3164 2443
3165 2507
3166 2435
3167 3458
3168 2947
3169 3011
3170 2947
3171 4034
3172 2979
3173 3011
3174 2979
3175 4034
3176 2435
3177 2499
3178 2435
3179 3458
3180 2435
3181 2499
3182 2435
3183 3458
3184 2955
3185 3019
3186 2947
3187 4034
3188 2987
3189 3019
3190 2979
3191 4034
3192 2443
3193 2507
3194 2435
3195 3458
3196 2443
3197 2507
3198 2435
3199 3458
3200 915
3201 979
3202 787
3203 1874
3204 947
3205 979
3206 819
3207 1874
3208 403
3209 467
3210 275
3211 1298
3212 403
3213 467
3214 275
3215 1298
3216 667
3217 731
3218 539
3219 1626
3220 955
3221 987
3222 827
3223 1882
3224 155
3225 219
3226 27
3227 1050
3228 411
3229 475
3230 283
3231 1306
3232 915
3233 979
3234 787
3235 1874
3236 947
3237 979
3238 819
3239 1874
3240 403
3241 467
3242 275
3243 1298
3244 403
3245 467
3246 275
3247 1298
3248 667
3249 731
3250 539
3251 1626
3252 955
3253 987
3254 827
3255 1882
3256 155
3257 219
3258 27
3259 1050
3260 411
3261 475
3262 283
3263 1306
3264 2947
3265 3011
3266 2947
3267 4034
3268 2979
3269 3011
3270 2979
3271 4034
3272 2435
3273 2499
3274 2435
3275 3458
3276 2435
3277 2499
3278 2435
3279 3458
3280 2699
3281 2763
3282 2691
3283 3778
3284 2987
3285 3019
3286 2979
3287 4034
3288 2187
3289 2251
3290 2179
3291 3202
3292 2443
3293 2507
3294 2435
3295 3458
3296 2947
3297 3011
3298 2947
3299 4034
3300 2979
3301 3011
3302 2979
3303 4034
3304 2435
3305 2499
3306 2435
3307 3458
3308 2435
3309 2499
3310 2435
3311 3458
3312 2699
3313 2763
3314 2691
3315 3778
3316 2987
3317 3019
3318 2979
3319 4034
3320 2187
3321 2251
3322 2179
3323 3202
3324 2443
3325 2507
3326 2435
3327 3458
3328 2963
3329 3027
3330 2835
3331 3922
3332 2995
3333 3027
3334 2867
3335 3922
3336 2451
3337 2515
3338 2323
3339 3346
3340 2451
3341 2515
3342 2323
3343 3346
3344 2971
3345 3035
3346 2843
3347 3930
3348 3003
3349 3035
3350 2875
3351 3930
3352 2459
3353 2523
3354 2331
3355 3354
3356 2459
3357 2523
3358 2331
3359 3354
3360 2963
3361 3027
3362 2835
3363 3922
3364 2995
3365 3027
3366 2867
3367 3922
3368 2451
3369 2515
3370 2323
3371 3346
3372 2451
3373 2515
3374 2323
3375 3346
3376 2971
3377 3035
3378 2843
3379 3930
3380 3003
3381 3035
3382 2875
3383 3930
3384 2459
3385 2523
3386 2331
3387 3354
3388 2459
3389 2523
3390 2331
3391 3354
3392 2947
3393 3011
3394 2947
3395 4034
3396 2979
3397 3011
3398 2979
3399 4034
3400 2435
3401 2499
3402 2435
3403 3458
3404 2435
3405 2499
3406 2435
3407 3458
3408 2955
3409 3019
3410 2947
3411 4034
3412 2987
3413 3019
3414 2979
3415 4034
3416 2443
3417 2507
3418 2435
3419 3458
3420 2443
3421 2507
3422 2435
3423 3458
3424 2947
3425 3011
3426 2947
3427 4034
3428 2979
3429 3011
3430 2979
3431 4034
3432 2435
3433 2499
3434 2435
3435 3458
3436 2435
3437 2499
3438 2435
3439 3458
3440 2955
3441 3019
3442 2947
3443 4034
3444 2987
3445 3019
3446 2979
3447 4034
3448 2443
3449 2507
3450 2435
3451 3458
3452 2443
3453 2507
3454 2435
3455 3458
3456 915
3457 979
3458 787
3459 1874
3460 947
3461 979
3462 819
3463 1874
3464 403
3465 467
3466 275
3467 1298
3468 403
3469 467
3470 275
3471 1298
3472 667
3473 731
3474 539
3475 1626
3476 955
3477 987
3478 827
3479 1882
3480 155
3481 219
3482 27
3483 1050
3484 411
3485 475
3486 283
3487 1306
3488 915
3489 979
3490 787
3491 1874
3492 947
3493 979
3494 819
3495 1874
3496 403
3497 467
3498 275
3499 1298
3500 403
3501 467
3502 275
3503 1298
3504 667
3505 731
3506 539
3507 1626
3508 955
3509 987
3510 827
3511 1882
3512 155
3513 219
3514 27
3515 1050
3516 411
3517 475
3518 283
3519 1306
3520 2947
3521 3011
3522 2947
3523 4034
3524 2979
3525 3011
3526 2979
3527 4034
3528 2435
3529 2499
3530 2435
3531 3458
3532 2435
3533 2499
3534 2435
3535 3458
3536 2699
3537 2763
3538 2691
3539 3778
3540 2987
3541 3019
3542 2979
3543 4034
3544 2187
3545 2251
3546 2179
3547 3202
3548 2443
3549 2507
3550 2435
3551 3458
3552 2947
3553 3011
3554 2947
3555 4034
3556 2979
3557 3011
3558 2979
3559 4034
3560 2435
3561 2499
3562 2435
3563 3458
3564 2435
3565 2499
3566 2435
3567 3458
3568 2699
3569 2763
3570 2691
3571 3778
3572 2987
3573 3019
3574 2979
3575 4034
3576 2187
3577 2251
3578 2179
3579 3202
3580 2443
3581 2507
3582 2435
3583 3458
3584 279
3585 343
3586 279
3587 1366
3588 311
3589 343
3590 311
3591 1366
3592 279
3593 343
3594 279
3595 1302
3596 279
3597 343
3598 279
3599 1302
3600 285
3601 349
3602 285
3603 1372
3604 317
3605 349
3606 317
3607 1372
3608 287
3609 351
3610 287
3611 1310
3612 287
3613 351
3614 287
3615 1310
3616 279
3617 343
3618 279
3619 1366
3620 311
3621 343
3622 311
3623 1366
3624 279
3625 343
3626 279
3627 1302
3628 279
3629 343
3630 279
3631 1302
3632 285
3633 349
3634 285
3635 1372
3636 317
3637 349
3638 317
3639 1372
3640 287
3641 351
3642 287
3643 1310
3644 287
3645 351
3646 287
3647 1310
3648 263
3649 327
3650 263
3651 1350
3652 295
3653 327
3654 295
3655 1350
3656 263
3657 327
3658 263
3659 1286
3660 263
3661 327
3662 263
3663 1286
3664 269
3665 333
3666 261
3667 1348
3668 301
3669 333
3670 293
3671 1348
3672 271
3673 335
3674 263
3675 1286
3676 271
3677 335
3678 263
3679 1286
3680 263
3681 327
3682 263
3683 1350
3684 295
3685 327
3686 295
3687 1350
3688 263
3689 327
3690 263
3691 1286
3692 263
3693 327
3694 263
3695 1286
3696 269
3697 333
3698 261
3699 1348
3700 301
3701 333
3702 293
3703 1348
3704 271
3705 335
3706 263
3707 1286
3708 271
3709 335
3710 263
3711 1286
3712 279
3713 343
3714 279
3715 1366
3716 311
3717 343
3718 311
3719 1366
3720 279
3721 343
3722 279
3723 1302
3724 279
3725 343
3726 279
3727 1302
3728 29
3729 93
3730 29
3731 1116
3732 317
3733 349
3734 317
3735 1372
3736 31
3737 95
3738 31
3739 1054
3740 287
3741 351
3742 287
3743 1310
3744 279
3745 343
3746 279
3747 1366
3748 311
3749 343
3750 311
3751 1366
3752 279
3753 343
3754 279
3755 1302
3756 279
3757 343
3758 279
3759 1302
3760 29
3761 93
3762 29
3763 1116
3764 317
3765 349
3766 317
3767 1372
3768 31
3769 95
3770 31
3771 1054
3772 287
3773 351
3774 287
3775 1310
3776 263
3777 327
3778 263
3779 1350
3780 295
3781 327
3782 295
3783 1350
3784 263
3785 327
3786 263
3787 1286
3788 263
3789 327
3790 263
3791 1286
3792 13
3793 77
3794 5
3795 1092
3796 301
3797 333
3798 293
3799 1348
3800 15
3801 79
3802 7
3803 1030
3804 271
3805 335
3806 263
3807 1286
3808 263
3809 327
3810 263
3811 1350
3812 295
3813 327
3814 295
3815 1350
3816 263
3817 327
3818 263
3819 1286
3820 263
3821 327
3822 263
3823 1286
3824 13
3825 77
3826 5
3827 1092
3828 301
3829 333
3830 293
3831 1348
3832 15
3833 79
3834 7
3835 1030
3836 271
3837 335
3838 263
3839 1286
3840 279
3841 343
3842 279
3843 1366
3844 311
3845 343
3846 311
3847 1366
3848 279
3849 343
3850 279
3851 1302
3852 279
3853 343
3854 279
3855 1302
3856 285
3857 349
3858 285
3859 1372
3860 317
3861 349
3862 317
3863 1372
3864 287
3865 351
3866 287
3867 1310
3868 287
3869 351
3870 287
3871 1310
3872 279
3873 343
3874 279
3875 1366
3876 311
3877 343
3878 311
3879 1366
3880 279
3881 343
3882 279
3883 1302
3884 279
3885 343
3886 279
3887 1302
3888 285
3889 349
3890 285
3891 1372
3892 317
3893 349
3894 317
3895 1372
3896 287
3897 351
3898 287
3899 1310
3900 287
3901 351
3902 287
3903 1310
3904 263
3905 327
3906 263
3907 1350
3908 295
3909 327
3910 295
3911 1350
3912 263
3913 327
3914 263
3915 1286
3916 263
3917 327
3918 263
3919 1286
3920 269
3921 333
3922 261
3923 1348
3924 301
3925 333
3926 293
3927 1348
3928 271
3929 335
3930 263
3931 1286
3932 271
3933 335
3934 263
3935 1286
3936 263
3937 327
3938 263
3939 1350
3940 295
3941 327
3942 295
3943 1350
3944 263
3945 327
3946 263
3947 1286
3948 263
3949 327
3950 263
3951 1286
3952 269
3953 333
3954 261
3955 1348
3956 301
3957 333
3958 293
3959 1348
3960 271
3961 335
3962 263
3963 1286
3964 271
3965 335
3966 263
3967 1286
3968 279
3969 343
3970 279
3971 1366
3972 311
3973 343
3974 311
3975 1366
3976 279
3977 343
3978 279
3979 1302
3980 279
3981 343
3982 279
3983 1302
3984 29
3985 93
3986 29
3987 1116
3988 317
3989 349
3990 317
3991 1372
3992 31
3993 95
3994 31
3995 1054
3996 287
3997 351
3998 287
3999 1310
4000 279
4001 343
4002 279
4003 1366
4004 311
4005 343
4006 311
4007 1366
4008 279
4009 343
4010 279
4011 1302
4012 279
4013 343
4014 279
4015 1302
4016 29
4017 93
4018 29
4019 1116
4020 317
4021 349
4022 317
4023 1372
4024 31
4025 95
4026 31
4027 1054
4028 287
4029 351
4030 287
4031 1310
4032 263
4033 327
4034 263
4035 1350
4036 295
4037 327
4038 295
4039 1350
4040 263
4041 327
4042 263
4043 1286
4044 263
4045 327
4046 263
4047 1286
4048 13
4049 77
4050 5
4051 1092
4052 301
4053 333
4054 293
4055 1348
4056 15
4057 79
4058 7
4059 1030
4060 271
4061 335
4062 263
4063 1286
4064 263
4065 327
4066 263
4067 1350
4068 295
4069 327
4070 295
4071 1350
4072 263
4073 327
4074 263
4075 1286
4076 263
4077 327
4078 263
4079 1286
4080 13
4081 77
4082 5
4083 1092
4084 301
4085 333
4086 293
4087 1348
4088 15
4089 79
4090 7
4091 1030
4092 271
4093 335
4094 263
4095 1286
