4096
0 1782
1 1782
2 3318
3 3830
4 1782
5 1782
6 3830
7 3830
8 1782
9 2038
10 3318
11 4086
12 2038
13 2038
14 4086
15 4086
16 630
17 630
18 2166
19 2678
20 630
21 630
22 2806
23 2806
24 630
25 886
26 2166
27 2934
28 886
29 886
30 2934
31 2934
32 1782
33 1782
34 3318
35 3830
36 1782
37 1782
38 3830
39 3830
40 1782
41 2038
42 3318
43 4086
44 2038
45 2038
46 4086
47 4086
48 630
49 630
50 2166
51 2678
52 630
53 630
54 2806
55 2806
56 630
57 886
58 2166
59 2934
60 886
61 886
62 2934
63 2934
64 1782
65 1782
66 3830
67 3830
68 1782
69 1782
70 3830
71 3830
72 1782
73 2038
74 3830
75 4086
76 2038
77 2038
78 4086
79 4086
80 630
81 630
82 2678
83 2678
84 630
85 630
86 2806
87 2806
88 630
89 886
90 2678
91 2934
92 886
93 886
94 2934
95 2934
96 1782
97 1782
98 3830
99 3830
100 1782
101 1782
102 3830
103 3830
104 1782
105 2038
106 3830
107 4086
108 2038
109 2038
110 4086
111 4086
112 630
113 630
114 2678
115 2678
116 630
117 630
118 2806
119 2806
120 630
121 886
122 2678
123 2934
124 886
125 886
126 2934
127 2934
128 1782
129 1782
130 3318
131 3830
132 1782
133 1782
134 3830
135 3830
136 2038
137 2038
138 3318
139 4086
140 2038
141 2038
142 4070
143 4070
144 758
145 758
146 2294
147 2806
148 758
149 758
150 2806
151 2806
152 1014
153 1014
154 2294
155 3062
156 1014
157 1014
158 3046
159 3046
160 1782
161 1782
162 3318
163 3830
164 1782
165 1782
166 3830
167 3830
168 2038
169 2038
170 3318
171 4086
172 2038
173 2038
174 4070
175 4070
176 758
177 758
178 2294
179 2806
180 758
181 758
182 2806
183 2806
184 1014
185 1014
186 2294
187 3062
188 1014
189 1014
190 3046
191 3046
192 1782
193 1782
194 3830
195 3830
196 1782
197 1782
198 3830
199 3830
200 2038
201 2038
202 3830
203 4086
204 2038
205 2038
206 4070
207 4070
208 758
209 758
210 2806
211 2806
212 758
213 758
214 2806
215 2806
216 1014
217 1014
218 2806
219 3062
220 1014
221 1014
222 3046
223 3046
224 1782
225 1782
226 3830
227 3830
228 1782
229 1782
230 3830
231 3830
232 2038
233 2038
234 3830
235 4086
236 2038
237 2038
238 4070
239 4070
240 758
241 758
242 2806
243 2806
244 758
245 758
246 2806
247 2806
248 1014
249 1014
250 2806
251 3062
252 1014
253 1014
254 3046
255 3046
256 1780
257 1788
258 3830
259 3838
260 1780
261 1788
262 3830
263 3838
264 1780
265 2044
266 3830
267 4094
268 2036
269 2044
270 4086
271 4094
272 628
273 636
274 2678
275 2686
276 628
277 636
278 2806
279 2814
280 628
281 892
282 2678
283 2942
284 884
285 892
286 2934
287 2942
288 1780
289 1788
290 3828
291 3836
292 1780
293 1788
294 3828
295 3836
296 1780
297 2044
298 3828
299 4092
300 2036
301 2044
302 4084
303 4092
304 628
305 636
306 2676
307 2684
308 628
309 636
310 2804
311 2812
312 628
313 892
314 2676
315 2940
316 884
317 892
318 2932
319 2940
320 1780
321 1780
322 3830
323 3830
324 1780
325 1780
326 3830
327 3830
328 1780
329 2036
330 3830
331 4086
332 2036
333 2036
334 4086
335 4086
336 628
337 628
338 2678
339 2678
340 628
341 628
342 2806
343 2806
344 628
345 884
346 2678
347 2934
348 884
349 884
350 2934
351 2934
352 1780
353 1780
354 3830
355 3830
356 1780
357 1780
358 3830
359 3830
360 1780
361 2036
362 3830
363 4086
364 2036
365 2036
366 4086
367 4086
368 628
369 628
370 2678
371 2678
372 628
373 628
374 2806
375 2806
376 628
377 884
378 2678
379 2934
380 884
381 884
382 2934
383 2934
384 1782
385 1790
386 3830
387 3838
388 1782
389 1790
390 3830
391 3838
392 2038
393 2046
394 3830
395 4094
396 2022
397 2030
398 4070
399 4078
400 758
401 766
402 2806
403 2814
404 758
405 766
406 2806
407 2814
408 1014
409 1022
410 2806
411 3070
412 998
413 1006
414 3046
415 3054
416 1782
417 1790
418 3830
419 3838
420 1782
421 1790
422 3830
423 3838
424 2038
425 2046
426 3830
427 4094
428 2022
429 2030
430 4070
431 4078
432 758
433 766
434 2806
435 2814
436 758
437 766
438 2806
439 2814
440 1014
441 1022
442 2806
443 3070
444 998
445 1006
446 3046
447 3054
448 1782
449 1782
450 3830
451 3830
452 1782
453 1782
454 3830
455 3830
456 2038
457 2038
458 3830
459 4086
460 2022
461 2022
462 4070
463 4070
464 758
465 758
466 2806
467 2806
468 758
469 758
470 2806
471 2806
472 1014
473 1014
474 2806
475 3062
476 998
477 998
478 3046
479 3046
480 1782
481 1782
482 3830
483 3830
484 1782
485 1782
486 3830
487 3830
488 2038
489 2038
490 3830
491 4086
492 2022
493 2022
494 4070
495 4070
496 758
497 758
498 2806
499 2806
500 758
501 758
502 2806
503 2806
504 1014
505 1014
506 2806
507 3062
508 998
509 998
510 3046
511 3046
512 1270
513 1782
514 3318
515 3830
516 1782
517 1782
518 3830
519 3830
520 1270
521 2038
522 3318
523 4086
524 2038
525 2038
526 4086
527 4086
528 246
529 758
530 3318
531 3830
532 758
533 758
534 3830
535 3830
536 246
537 1014
538 3318
539 4086
540 1014
541 1014
542 4086
543 4086
544 1270
545 1782
546 3318
547 3830
548 1782
549 1782
550 3830
551 3830
552 1270
553 2038
554 3318
555 4086
556 2038
557 2038
558 4086
559 4086
560 246
561 758
562 3318
563 3830
564 758
565 758
566 3830
567 3830
568 246
569 1014
570 3318
571 4086
572 1014
573 1014
574 4086
575 4086
576 1782
577 1782
578 3830
579 3830
580 1782
581 1782
582 3830
583 3830
584 1782
585 2038
586 3830
587 4086
588 2038
589 2038
590 4086
591 4086
592 758
593 758
594 2806
595 2806
596 758
597 758
598 2806
599 2806
600 758
601 1014
602 2806
603 3062
604 1014
605 1014
606 3062
607 3062
608 1782
609 1782
610 3830
611 3830
612 1782
613 1782
614 3830
615 3830
616 1782
617 2038
618 3830
619 4086
620 2038
621 2038
622 4086
623 4086
624 758
625 758
626 2806
627 2806
628 758
629 758
630 2806
631 2806
632 758
633 1014
634 2806
635 3062
636 1014
637 1014
638 3062
639 3062
640 1270
641 1782
642 3318
643 3830
644 1782
645 1782
646 3830
647 3830
648 1526
649 2038
650 3318
651 4086
652 2038
653 2038
654 4086
655 4086
656 246
657 758
658 3318
659 3830
660 758
661 758
662 3830
663 3830
664 502
665 1014
666 3318
667 4086
668 1014
669 1014
670 4086
671 4086
672 1270
673 1782
674 3318
675 3830
676 1782
677 1782
678 3830
679 3830
680 1526
681 2038
682 3318
683 4086
684 2038
685 2038
686 4086
687 4086
688 246
689 758
690 3318
691 3830
692 758
693 758
694 3830
695 3830
696 502
697 1014
698 3318
699 4086
700 1014
701 1014
702 4086
703 4086
704 1782
705 1782
706 3830
707 3830
708 1782
709 1782
710 3830
711 3830
712 2038
713 2038
714 3830
715 4086
716 2038
717 2038
718 4086
719 4086
720 758
721 758
722 2806
723 2806
724 758
725 758
726 2806
727 2806
728 1014
729 1014
730 2806
731 3062
732 1014
733 1014
734 3062
735 3062
736 1782
737 1782
738 3830
739 3830
740 1782
741 1782
742 3830
743 3830
744 2038
745 2038
746 3830
747 4086
748 2038
749 2038
750 4086
751 4086
752 758
753 758
754 2806
755 2806
756 758
757 758
758 2806
759 2806
760 1014
761 1014
762 2806
763 3062
764 1014
765 1014
766 3062
767 3062
768 1788
769 1788
770 3838
771 3838
772 1788
773 1788
774 3838
775 3838
776 1788
777 2044
778 3838
779 4094
780 2044
781 2044
782 4094
783 4094
784 764
785 764
786 2814
787 3838
788 764
789 764
790 2814
791 3838
792 764
793 1020
794 2814
795 4094
796 1020
797 1020
798 3070
799 4094
800 1788
801 1788
802 3836
803 3836
804 1788
805 1788
806 3836
807 3836
808 1788
809 2044
810 3836
811 4092
812 2044
813 2044
814 4092
815 4092
816 764
817 764
818 2812
819 3836
820 764
821 764
822 2812
823 3836
824 764
825 1020
826 2812
827 4092
828 1020
829 1020
830 3068
831 4092
832 1780
833 1780
834 3830
835 3830
836 1780
837 1780
838 3830
839 3830
840 1780
841 2036
842 3830
843 4086
844 2036
845 2036
846 4086
847 4086
848 756
849 756
850 2806
851 2806
852 756
853 756
854 2806
855 2806
856 756
857 1012
858 2806
859 3062
860 1012
861 1012
862 3062
863 3062
864 1780
865 1780
866 3830
867 3830
868 1780
869 1780
870 3830
871 3830
872 1780
873 2036
874 3830
875 4086
876 2036
877 2036
878 4086
879 4086
880 756
881 756
882 2806
883 2806
884 756
885 756
886 2806
887 2806
888 756
889 1012
890 2806
891 3062
892 1012
893 1012
894 3062
895 3062
896 1790
897 1790
898 3838
899 3838
900 1790
901 1790
902 3838
903 3838
904 2046
905 2046
906 3838
907 4094
908 2046
909 2046
910 4094
911 4094
912 766
913 766
914 2814
915 3838
916 766
917 766
918 2814
919 3838
920 1022
921 1022
922 2814
923 4094
924 1022
925 1022
926 3070
927 4094
928 1790
929 1790
930 3838
931 3838
932 1790
933 1790
934 3838
935 3838
936 2046
937 2046
938 3838
939 4094
940 2046
941 2046
942 4094
943 4094
944 766
945 766
946 2814
947 3838
948 766
949 766
950 2814
951 3838
952 1022
953 1022
954 2814
955 4094
956 1022
957 1022
958 3070
959 4094
960 1782
961 1782
962 3830
963 3830
964 1782
965 1782
966 3830
967 3830
968 2038
969 2038
970 3830
971 4086
972 2038
973 2038
974 4086
975 4086
976 758
977 758
978 2806
979 2806
980 758
981 758
982 2806
983 2806
984 1014
985 1014
986 2806
987 3062
988 1014
989 1014
990 3062
991 3062
992 1782
993 1782
994 3830
995 3830
996 1782
997 1782
998 3830
999 3830
1000 2038
1001 2038
1002 3830
1003 4086
1004 2038
1005 2038
1006 4086
1007 4086
1008 758
1009 758
1010 2806
1011 2806
1012 758
1013 758
1014 2806
1015 2806
1016 1014
1017 1014
1018 2806
1019 3062
1020 1014
1021 1014
1022 3062
1023 3062
1024 3766
1025 3766
1026 3254
1027 3766
1028 3766
1029 3766
1030 3766
1031 3766
1032 3762
1033 4022
1034 3250
1035 4022
1036 4018
1037 4022
1038 4018
1039 4022
1040 2614
1041 2614
1042 2102
1043 2614
1044 2614
1045 2614
1046 2742
1047 2742
1048 2610
1049 2870
1050 2098
1051 2870
1052 2866
1053 2870
1054 2866
1055 2870
1056 3766
1057 3766
1058 3254
1059 3766
1060 3766
1061 3766
1062 3766
1063 3766
1064 3762
1065 4022
1066 3250
1067 4022
1068 4018
1069 4022
1070 4018
1071 4022
1072 2614
1073 2614
1074 2102
1075 2614
1076 2614
1077 2614
1078 2742
1079 2742
1080 2610
1081 2870
1082 2098
1083 2870
1084 2866
1085 2870
1086 2866
1087 2870
1088 3766
1089 3766
1090 3766
1091 3766
1092 3766
1093 3766
1094 3766
1095 3766
1096 3762
1097 4022
1098 3762
1099 4022
1100 4018
1101 4022
1102 4018
1103 4022
1104 2614
1105 2614
1106 2614
1107 2614
1108 566
1109 566
1110 2742
1111 2742
1112 2610
1113 2870
1114 2610
1115 2870
1116 818
1117 822
1118 2866
1119 2870
1120 3766
1121 3766
1122 3766
1123 3766
1124 3766
1125 3766
1126 3766
1127 3766
1128 3762
1129 4022
1130 3762
1131 4022
1132 4018
1133 4022
1134 4018
1135 4022
1136 2614
1137 2614
1138 2614
1139 2614
1140 2614
1141 2614
1142 2742
1143 2742
1144 2610
1145 2870
1146 2610
1147 2870
1148 2866
1149 2870
1150 2866
1151 2870
1152 3766
1153 3766
1154 3250
1155 3766
1156 3766
1157 3766
1158 3762
1159 3766
1160 4018
1161 4022
1162 3250
1163 4022
1164 4018
1165 4022
1166 4002
1167 4006
1168 2742
1169 2742
1170 2226
1171 2742
1172 2742
1173 2742
1174 2738
1175 2742
1176 2994
1177 2998
1178 2226
1179 2998
1180 2994
1181 2998
1182 2978
1183 2982
1184 3766
1185 3766
1186 3250
1187 3766
1188 3766
1189 3766
1190 3762
1191 3766
1192 4018
1193 4022
1194 3250
1195 4022
1196 4018
1197 4022
1198 4002
1199 4006
1200 2742
1201 2742
1202 2226
1203 2742
1204 2742
1205 2742
1206 2738
1207 2742
1208 2994
1209 2998
1210 2226
1211 2998
1212 2994
1213 2998
1214 2978
1215 2982
1216 3766
1217 3766
1218 3762
1219 3766
1220 3766
1221 3766
1222 3762
1223 3766
1224 4018
1225 4022
1226 3762
1227 4022
1228 4018
1229 4022
1230 4002
1231 4006
1232 2742
1233 2742
1234 2738
1235 2742
1236 694
1237 694
1238 2738
1239 2742
1240 2994
1241 2998
1242 2738
1243 2998
1244 946
1245 950
1246 2978
1247 2982
1248 3766
1249 3766
1250 3762
1251 3766
1252 3766
1253 3766
1254 3762
1255 3766
1256 4018
1257 4022
1258 3762
1259 4022
1260 4018
1261 4022
1262 4002
1263 4006
1264 2742
1265 2742
1266 2738
1267 2742
1268 2742
1269 2742
1270 2738
1271 2742
1272 2994
1273 2998
1274 2738
1275 2998
1276 2994
1277 2998
1278 2978
1279 2982
1280 3772
1281 3772
1282 3774
1283 3774
1284 3772
1285 3772
1286 3774
1287 3774
1288 3768
1289 4028
1290 3770
1291 4030
1292 4024
1293 4028
1294 4026
1295 4030
1296 2620
1297 2620
1298 2622
1299 2622
1300 2620
1301 2620
1302 2750
1303 2750
1304 2616
1305 2876
1306 2618
1307 2878
1308 2872
1309 2876
1310 2874
1311 2878
1312 3772
1313 3772
1314 3772
1315 3772
1316 3772
1317 3772
1318 3772
1319 3772
1320 3768
1321 4028
1322 3768
1323 4028
1324 4024
1325 4028
1326 4024
1327 4028
1328 2620
1329 2620
1330 2620
1331 2620
1332 2620
1333 2620
1334 2748
1335 2748
1336 2616
1337 2876
1338 2616
1339 2876
1340 2872
1341 2876
1342 2872
1343 2876
1344 3772
1345 3772
1346 3774
1347 3774
1348 3772
1349 3772
1350 3774
1351 3774
1352 3768
1353 4028
1354 3770
1355 4030
1356 4024
1357 4028
1358 4026
1359 4030
1360 2684
1361 2684
1362 2686
1363 2622
1364 636
1365 636
1366 2814
1367 2750
1368 2680
1369 2940
1370 2682
1371 2878
1372 888
1373 892
1374 2938
1375 2878
1376 3772
1377 3772
1378 3774
1379 3774
1380 3772
1381 3772
1382 3774
1383 3774
1384 3768
1385 4028
1386 3770
1387 4030
1388 4024
1389 4028
1390 4026
1391 4030
1392 2684
1393 2684
1394 2686
1395 2622
1396 2684
1397 2684
1398 2814
1399 2750
1400 2680
1401 2940
1402 2682
1403 2878
1404 2936
1405 2940
1406 2938
1407 2878
1408 3774
1409 3774
1410 3770
1411 3774
1412 3774
1413 3774
1414 3770
1415 3774
1416 4026
1417 4030
1418 3770
1419 4030
1420 4010
1421 4014
1422 4010
1423 4014
1424 2750
1425 2750
1426 2746
1427 2750
1428 2750
1429 2750
1430 2746
1431 2750
1432 3002
1433 3006
1434 2746
1435 3006
1436 2986
1437 2990
1438 2986
1439 2990
1440 3774
1441 3774
1442 3770
1443 3774
1444 3774
1445 3774
1446 3770
1447 3774
1448 4026
1449 4030
1450 3770
1451 4030
1452 4010
1453 4014
1454 4010
1455 4014
1456 2750
1457 2750
1458 2746
1459 2750
1460 2750
1461 2750
1462 2746
1463 2750
1464 3002
1465 3006
1466 2746
1467 3006
1468 2986
1469 2990
1470 2986
1471 2990
1472 3774
1473 3774
1474 3770
1475 3774
1476 3774
1477 3774
1478 3770
1479 3774
1480 4026
1481 4030
1482 3770
1483 4030
1484 4010
1485 4014
1486 4010
1487 4014
1488 2814
1489 2814
1490 2810
1491 2750
1492 766
1493 766
1494 2810
1495 2750
1496 3066
1497 3070
1498 2810
1499 3006
1500 1002
1501 1006
1502 3050
1503 2990
1504 3774
1505 3774
1506 3770
1507 3774
1508 3774
1509 3774
1510 3770
1511 3774
1512 4026
1513 4030
1514 3770
1515 4030
1516 4010
1517 4014
1518 4010
1519 4014
1520 2814
1521 2814
1522 2810
1523 2750
1524 2814
1525 2814
1526 2810
1527 2750
1528 3066
1529 3070
1530 2810
1531 3006
1532 3050
1533 3054
1534 3050
1535 2990
1536 3250
1537 3762
1538 3250
1539 3762
1540 3762
1541 3762
1542 3762
1543 3762
1544 3250
1545 4018
1546 3250
1547 4018
1548 4018
1549 4018
1550 4018
1551 4018
1552 2226
1553 2738
1554 3250
1555 3762
1556 2738
1557 2738
1558 3762
1559 3762
1560 2226
1561 2994
1562 3250
1563 4018
1564 2994
1565 2994
1566 4018
1567 4018
1568 3250
1569 3762
1570 3250
1571 3762
1572 3762
1573 3762
1574 3762
1575 3762
1576 3250
1577 4018
1578 3250
1579 4018
1580 4018
1581 4018
1582 4018
1583 4018
1584 2226
1585 2738
1586 3250
1587 3762
1588 2738
1589 2738
1590 3762
1591 3762
1592 2226
1593 2994
1594 3250
1595 4018
1596 2994
1597 2994
1598 4018
1599 4018
1600 3762
1601 3762
1602 3762
1603 3762
1604 3762
1605 3762
1606 3762
1607 3762
1608 3762
1609 4018
1610 3762
1611 4018
1612 4018
1613 4018
1614 4018
1615 4018
1616 2738
1617 2738
1618 2738
1619 2738
1620 690
1621 690
1622 2738
1623 2738
1624 2738
1625 2994
1626 2738
1627 2994
1628 946
1629 946
1630 2994
1631 2994
1632 3762
1633 3762
1634 3762
1635 3762
1636 3762
1637 3762
1638 3762
1639 3762
1640 3762
1641 4018
1642 3762
1643 4018
1644 4018
1645 4018
1646 4018
1647 4018
1648 2738
1649 2738
1650 2738
1651 2738
1652 2738
1653 2738
1654 2738
1655 2738
1656 2738
1657 2994
1658 2738
1659 2994
1660 2994
1661 2994
1662 2994
1663 2994
1664 3250
1665 3762
1666 3250
1667 3762
1668 3762
1669 3762
1670 3762
1671 3762
1672 3506
1673 4018
1674 3250
1675 4018
1676 4018
1677 4018
1678 4018
1679 4018
1680 2226
1681 2738
1682 3250
1683 3762
1684 2738
1685 2738
1686 3762
1687 3762
1688 2482
1689 2994
1690 3250
1691 4018
1692 2994
1693 2994
1694 4018
1695 4018
1696 3250
1697 3762
1698 3250
1699 3762
1700 3762
1701 3762
1702 3762
1703 3762
1704 3506
1705 4018
1706 3250
1707 4018
1708 4018
1709 4018
1710 4018
1711 4018
1712 2226
1713 2738
1714 3250
1715 3762
1716 2738
1717 2738
1718 3762
1719 3762
1720 2482
1721 2994
1722 3250
1723 4018
1724 2994
1725 2994
1726 4018
1727 4018
1728 3762
1729 3762
1730 3762
1731 3762
1732 3762
1733 3762
1734 3762
1735 3762
1736 4018
1737 4018
1738 3762
1739 4018
1740 4018
1741 4018
1742 4018
1743 4018
1744 2738
1745 2738
1746 2738
1747 2738
1748 690
1749 690
1750 2738
1751 2738
1752 2994
1753 2994
1754 2738
1755 2994
1756 946
1757 946
1758 2994
1759 2994
1760 3762
1761 3762
1762 3762
1763 3762
1764 3762
1765 3762
1766 3762
1767 3762
1768 4018
1769 4018
1770 3762
1771 4018
1772 4018
1773 4018
1774 4018
1775 4018
1776 2738
1777 2738
1778 2738
1779 2738
1780 2738
1781 2738
1782 2738
1783 2738
1784 2994
1785 2994
1786 2738
1787 2994
1788 2994
1789 2994
1790 2994
1791 2994
1792 3768
1793 3768
1794 3770
1795 3770
1796 3768
1797 3768
1798 3770
1799 3770
1800 3768
1801 4024
1802 3770
1803 4026
1804 4024
1805 4024
1806 4026
1807 4026
1808 2744
1809 2744
1810 2746
1811 3770
1812 2744
1813 2744
1814 2746
1815 3770
1816 2744
1817 3000
1818 2746
1819 4026
1820 3000
1821 3000
1822 3002
1823 4026
1824 3768
1825 3768
1826 3768
1827 3768
1828 3768
1829 3768
1830 3768
1831 3768
1832 3768
1833 4024
1834 3768
1835 4024
1836 4024
1837 4024
1838 4024
1839 4024
1840 2744
1841 2744
1842 2744
1843 3768
1844 2744
1845 2744
1846 2744
1847 3768
1848 2744
1849 3000
1850 2744
1851 4024
1852 3000
1853 3000
1854 3000
1855 4024
1856 3768
1857 3768
1858 3770
1859 3770
1860 3768
1861 3768
1862 3770
1863 3770
1864 3768
1865 4024
1866 3770
1867 4026
1868 4024
1869 4024
1870 4026
1871 4026
1872 2808
1873 2808
1874 2810
1875 2746
1876 760
1877 760
1878 2810
1879 2746
1880 2808
1881 3064
1882 2810
1883 3002
1884 1016
1885 1016
1886 3066
1887 3002
1888 3768
1889 3768
1890 3770
1891 3770
1892 3768
1893 3768
1894 3770
1895 3770
1896 3768
1897 4024
1898 3770
1899 4026
1900 4024
1901 4024
1902 4026
1903 4026
1904 2808
1905 2808
1906 2810
1907 2746
1908 2808
1909 2808
1910 2810
1911 2746
1912 2808
1913 3064
1914 2810
1915 3002
1916 3064
1917 3064
1918 3066
1919 3002
1920 3770
1921 3770
1922 3770
1923 3770
1924 3770
1925 3770
1926 3770
1927 3770
1928 4026
1929 4026
1930 3770
1931 4026
1932 4026
1933 4026
1934 4026
1935 4026
1936 2746
1937 2746
1938 2746
1939 3770
1940 2746
1941 2746
1942 2746
1943 3770
1944 3002
1945 3002
1946 2746
1947 4026
1948 3002
1949 3002
1950 3002
1951 4026
1952 3770
1953 3770
1954 3770
1955 3770
1956 3770
1957 3770
1958 3770
1959 3770
1960 4026
1961 4026
1962 3770
1963 4026
1964 4026
1965 4026
1966 4026
1967 4026
1968 2746
1969 2746
1970 2746
1971 3770
1972 2746
1973 2746
1974 2746
1975 3770
1976 3002
1977 3002
1978 2746
1979 4026
1980 3002
1981 3002
1982 3002
1983 4026
1984 3770
1985 3770
1986 3770
1987 3770
1988 3770
1989 3770
1990 3770
1991 3770
1992 4026
1993 4026
1994 3770
1995 4026
1996 4026
1997 4026
1998 4026
1999 4026
2000 2810
2001 2810
2002 2810
2003 2746
2004 762
2005 762
2006 2810
2007 2746
2008 3066
2009 3066
2010 2810
2011 3002
2012 1018
2013 1018
2014 3066
2015 3002
2016 3770
2017 3770
2018 3770
2019 3770
2020 3770
2021 3770
2022 3770
2023 3770
2024 4026
2025 4026
2026 3770
2027 4026
2028 4026
2029 4026
2030 4026
2031 4026
2032 2810
2033 2810
2034 2810
2035 2746
2036 2810
2037 2810
2038 2810
2039 2746
2040 3066
2041 3066
2042 2810
2043 3002
2044 3066
2045 3066
2046 3066
2047 3002
2048 1782
2049 1782
2050 3318
2051 3830
2052 1782
2053 1782
2054 3830
2055 3830
2056 1782
2057 2038
2058 3318
2059 4086
2060 2038
2061 2038
2062 4086
2063 4086
2064 630
2065 630
2066 2166
2067 2678
2068 630
2069 630
2070 2806
2071 2806
2072 630
2073 886
2074 2166
2075 2934
2076 886
2077 886
2078 2934
2079 2934
2080 1782
2081 1782
2082 3318
2083 3830
2084 1782
2085 1782
2086 3830
2087 3830
2088 1782
2089 2038
2090 3318
2091 4086
2092 2038
2093 2038
2094 4086
2095 4086
2096 630
2097 630
2098 2166
2099 2678
2100 630
2101 630
2102 2806
2103 2806
2104 630
2105 886
2106 2166
2107 2934
2108 886
2109 886
2110 2934
2111 2934
2112 1782
2113 1782
2114 3830
2115 3830
2116 1782
2117 1782
2118 3830
2119 3830
2120 1782
2121 2038
2122 3830
2123 4086
2124 2038
2125 2038
2126 4086
2127 4086
2128 630
2129 630
2130 2678
2131 2678
2132 630
2133 630
2134 2806
2135 2806
2136 630
2137 886
2138 2678
2139 2934
2140 886
2141 886
2142 2934
2143 2934
2144 1782
2145 1782
2146 3830
2147 3830
2148 1782
2149 1782
2150 3830
2151 3830
2152 1782
2153 2038
2154 3830
2155 4086
2156 2038
2157 2038
2158 4086
2159 4086
2160 630
2161 630
2162 2678
2163 2678
2164 630
2165 630
2166 2806
2167 2806
2168 630
2169 886
2170 2678
2171 2934
2172 886
2173 886
2174 2934
2175 2934
2176 1750
2177 1750
2178 3286
2179 3798
2180 1782
2181 1782
2182 3830
2183 3830
2184 2038
2185 2038
2186 3574
2187 4086
2188 2038
2189 2038
2190 4070
2191 4070
2192 726
2193 726
2194 2262
2195 2774
2196 758
2197 758
2198 2806
2199 2806
2200 1014
2201 1014
2202 2550
2203 3062
2204 1014
2205 1014
2206 3046
2207 3046
2208 1750
2209 1750
2210 3286
2211 3798
2212 1782
2213 1782
2214 3830
2215 3830
2216 2038
2217 2038
2218 3574
2219 4086
2220 2038
2221 2038
2222 4070
2223 4070
2224 726
2225 726
2226 2262
2227 2774
2228 758
2229 758
2230 2806
2231 2806
2232 1014
2233 1014
2234 2550
2235 3062
2236 1014
2237 1014
2238 3046
2239 3046
2240 1750
2241 1750
2242 3798
2243 3798
2244 1782
2245 1782
2246 3830
2247 3830
2248 2038
2249 2038
2250 4086
2251 4086
2252 2038
2253 2038
2254 4070
2255 4070
2256 726
2257 726
2258 2774
2259 2774
2260 758
2261 758
2262 2806
2263 2806
2264 1014
2265 1014
2266 3062
2267 3062
2268 1014
2269 1014
2270 3046
2271 3046
2272 1750
2273 1750
2274 3798
2275 3798
2276 1782
2277 1782
2278 3830
2279 3830
2280 2038
2281 2038
2282 4086
2283 4086
2284 2038
2285 2038
2286 4070
2287 4070
2288 726
2289 726
2290 2774
2291 2774
2292 758
2293 758
2294 2806
2295 2806
2296 1014
2297 1014
2298 3062
2299 3062
2300 1014
2301 1014
2302 3046
2303 3046
2304 1780
2305 1780
2306 3828
2307 3828
2308 1780
2309 1780
2310 3828
2311 3828
2312 1780
2313 2036
2314 3828
2315 4084
2316 2036
2317 2036
2318 4084
2319 4084
2320 628
2321 628
2322 2676
2323 2676
2324 628
2325 628
2326 2804
2327 2804
2328 628
2329 884
2330 2676
2331 2932
2332 884
2333 884
2334 2932
2335 2932
2336 1780
2337 1780
2338 3828
2339 3828
2340 1780
2341 1780
2342 3828
2343 3828
2344 1780
2345 2036
2346 3828
2347 4084
2348 2036
2349 2036
2350 4084
2351 4084
2352 628
2353 628
2354 2676
2355 2676
2356 628
2357 628
2358 2804
2359 2804
2360 628
2361 884
2362 2676
2363 2932
2364 884
2365 884
2366 2932
2367 2932
2368 1780
2369 1780
2370 3830
2371 3830
2372 1780
2373 1780
2374 3830
2375 3830
2376 1780
2377 2036
2378 3830
2379 4086
2380 2036
2381 2036
2382 4086
2383 4086
2384 628
2385 628
2386 2678
2387 2678
2388 628
2389 628
2390 2806
2391 2806
2392 628
2393 884
2394 2678
2395 2934
2396 884
2397 884
2398 2934
2399 2934
2400 1780
2401 1780
2402 3830
2403 3830
2404 1780
2405 1780
2406 3830
2407 3830
2408 1780
2409 2036
2410 3830
2411 4086
2412 2036
2413 2036
2414 4086
2415 4086
2416 628
2417 628
2418 2678
2419 2678
2420 628
2421 628
2422 2806
2423 2806
2424 628
2425 884
2426 2678
2427 2934
2428 884
2429 884
2430 2934
2431 2934
2432 1782
2433 1782
2434 3830
2435 3830
2436 1782
2437 1782
2438 3830
2439 3830
2440 2038
2441 2038
2442 4086
2443 4086
2444 2022
2445 2022
2446 4070
2447 4070
2448 758
2449 758
2450 2806
2451 2806
2452 758
2453 758
2454 2806
2455 2806
2456 1014
2457 1014
2458 3062
2459 3062
2460 998
2461 998
2462 3046
2463 3046
2464 1782
2465 1782
2466 3830
2467 3830
2468 1782
2469 1782
2470 3830
2471 3830
2472 2038
2473 2038
2474 4086
2475 4086
2476 2022
2477 2022
2478 4070
2479 4070
2480 758
2481 758
2482 2806
2483 2806
2484 758
2485 758
2486 2806
2487 2806
2488 1014
2489 1014
2490 3062
2491 3062
2492 998
2493 998
2494 3046
2495 3046
2496 1782
2497 1782
2498 3830
2499 3830
2500 1782
2501 1782
2502 3830
2503 3830
2504 2038
2505 2038
2506 4086
2507 4086
2508 2022
2509 2022
2510 4070
2511 4070
2512 758
2513 758
2514 2806
2515 2806
2516 758
2517 758
2518 2806
2519 2806
2520 1014
2521 1014
2522 3062
2523 3062
2524 998
2525 998
2526 3046
2527 3046
2528 1782
2529 1782
2530 3830
2531 3830
2532 1782
2533 1782
2534 3830
2535 3830
2536 2038
2537 2038
2538 4086
2539 4086
2540 2022
2541 2022
2542 4070
2543 4070
2544 758
2545 758
2546 2806
2547 2806
2548 758
2549 758
2550 2806
2551 2806
2552 1014
2553 1014
2554 3062
2555 3062
2556 998
2557 998
2558 3046
2559 3046
2560 1270
2561 1782
2562 3318
2563 3830
2564 1782
2565 1782
2566 3830
2567 3830
2568 1270
2569 2038
2570 3318
2571 4086
2572 2038
2573 2038
2574 4086
2575 4086
2576 246
2577 758
2578 3318
2579 3830
2580 758
2581 758
2582 3830
2583 3830
2584 246
2585 1014
2586 3318
2587 4086
2588 1014
2589 1014
2590 4086
2591 4086
2592 1270
2593 1782
2594 3318
2595 3830
2596 1782
2597 1782
2598 3830
2599 3830
2600 1270
2601 2038
2602 3318
2603 4086
2604 2038
2605 2038
2606 4086
2607 4086
2608 246
2609 758
2610 3318
2611 3830
2612 758
2613 758
2614 3830
2615 3830
2616 246
2617 1014
2618 3318
2619 4086
2620 1014
2621 1014
2622 4086
2623 4086
2624 1782
2625 1782
2626 3830
2627 3830
2628 1782
2629 1782
2630 3830
2631 3830
2632 1782
2633 2038
2634 3830
2635 4086
2636 2038
2637 2038
2638 4086
2639 4086
2640 758
2641 758
2642 2806
2643 2806
2644 758
2645 758
2646 2806
2647 2806
2648 758
2649 1014
2650 2806
2651 3062
2652 1014
2653 1014
2654 3062
2655 3062
2656 1782
2657 1782
2658 3830
2659 3830
2660 1782
2661 1782
2662 3830
2663 3830
2664 1782
2665 2038
2666 3830
2667 4086
2668 2038
2669 2038
2670 4086
2671 4086
2672 758
2673 758
2674 2806
2675 2806
2676 758
2677 758
2678 2806
2679 2806
2680 758
2681 1014
2682 2806
2683 3062
2684 1014
2685 1014
2686 3062
2687 3062
2688 1238
2689 1750
2690 3286
2691 3798
2692 1782
2693 1782
2694 3830
2695 3830
2696 1526
2697 2038
2698 3574
2699 4086
2700 2038
2701 2038
2702 4086
2703 4086
2704 214
2705 726
2706 3286
2707 3798
2708 758
2709 758
2710 3830
2711 3830
2712 502
2713 1014
2714 3574
2715 4086
2716 1014
2717 1014
2718 4086
2719 4086
2720 1238
2721 1750
2722 3286
2723 3798
2724 1782
2725 1782
2726 3830
2727 3830
2728 1526
2729 2038
2730 3574
2731 4086
2732 2038
2733 2038
2734 4086
2735 4086
2736 214
2737 726
2738 3286
2739 3798
2740 758
2741 758
2742 3830
2743 3830
2744 502
2745 1014
2746 3574
2747 4086
2748 1014
2749 1014
2750 4086
2751 4086
2752 1750
2753 1750
2754 3798
2755 3798
2756 1782
2757 1782
2758 3830
2759 3830
2760 2038
2761 2038
2762 4086
2763 4086
2764 2038
2765 2038
2766 4086
2767 4086
2768 726
2769 726
2770 2774
2771 2774
2772 758
2773 758
2774 2806
2775 2806
2776 1014
2777 1014
2778 3062
2779 3062
2780 1014
2781 1014
2782 3062
2783 3062
2784 1750
2785 1750
2786 3798
2787 3798
2788 1782
2789 1782
2790 3830
2791 3830
2792 2038
2793 2038
2794 4086
2795 4086
2796 2038
2797 2038
2798 4086
2799 4086
2800 726
2801 726
2802 2774
2803 2774
2804 758
2805 758
2806 2806
2807 2806
2808 1014
2809 1014
2810 3062
2811 3062
2812 1014
2813 1014
2814 3062
2815 3062
2816 1780
2817 1780
2818 3828
2819 3828
2820 1780
2821 1780
2822 3828
2823 3828
2824 1780
2825 2036
2826 3828
2827 4084
2828 2036
2829 2036
2830 4084
2831 4084
2832 756
2833 756
2834 2804
2835 3828
2836 756
2837 756
2838 2804
2839 3828
2840 756
2841 1012
2842 2804
2843 4084
2844 1012
2845 1012
2846 3060
2847 4084
2848 1780
2849 1780
2850 3828
2851 3828
2852 1780
2853 1780
2854 3828
2855 3828
2856 1780
2857 2036
2858 3828
2859 4084
2860 2036
2861 2036
2862 4084
2863 4084
2864 756
2865 756
2866 2804
2867 3828
2868 756
2869 756
2870 2804
2871 3828
2872 756
2873 1012
2874 2804
2875 4084
2876 1012
2877 1012
2878 3060
2879 4084
2880 1780
2881 1780
2882 3830
2883 3830
2884 1780
2885 1780
2886 3830
2887 3830
2888 1780
2889 2036
2890 3830
2891 4086
2892 2036
2893 2036
2894 4086
2895 4086
2896 756
2897 756
2898 2806
2899 2806
2900 756
2901 756
2902 2806
2903 2806
2904 756
2905 1012
2906 2806
2907 3062
2908 1012
2909 1012
2910 3062
2911 3062
2912 1780
2913 1780
2914 3830
2915 3830
2916 1780
2917 1780
2918 3830
2919 3830
2920 1780
2921 2036
2922 3830
2923 4086
2924 2036
2925 2036
2926 4086
2927 4086
2928 756
2929 756
2930 2806
2931 2806
2932 756
2933 756
2934 2806
2935 2806
2936 756
2937 1012
2938 2806
2939 3062
2940 1012
2941 1012
2942 3062
2943 3062
2944 1782
2945 1782
2946 3830
2947 3830
2948 1782
2949 1782
2950 3830
2951 3830
2952 2038
2953 2038
2954 4086
2955 4086
2956 2038
2957 2038
2958 4086
2959 4086
2960 758
2961 758
2962 2806
2963 3830
2964 758
2965 758
2966 2806
2967 3830
2968 1014
2969 1014
2970 3062
2971 4086
2972 1014
2973 1014
2974 3062
2975 4086
2976 1782
2977 1782
2978 3830
2979 3830
2980 1782
2981 1782
2982 3830
2983 3830
2984 2038
2985 2038
2986 4086
2987 4086
2988 2038
2989 2038
2990 4086
2991 4086
2992 758
2993 758
2994 2806
2995 3830
2996 758
2997 758
2998 2806
2999 3830
3000 1014
3001 1014
3002 3062
3003 4086
3004 1014
3005 1014
3006 3062
3007 4086
3008 1782
3009 1782
3010 3830
3011 3830
3012 1782
3013 1782
3014 3830
3015 3830
3016 2038
3017 2038
3018 4086
3019 4086
3020 2038
3021 2038
3022 4086
3023 4086
3024 758
3025 758
3026 2806
3027 2806
3028 758
3029 758
3030 2806
3031 2806
3032 1014
3033 1014
3034 3062
3035 3062
3036 1014
3037 1014
3038 3062
3039 3062
3040 1782
3041 1782
3042 3830
3043 3830
3044 1782
3045 1782
3046 3830
3047 3830
3048 2038
3049 2038
3050 4086
3051 4086
3052 2038
3053 2038
3054 4086
3055 4086
3056 758
3057 758
3058 2806
3059 2806
3060 758
3061 758
3062 2806
3063 2806
3064 1014
3065 1014
3066 3062
3067 3062
3068 1014
3069 1014
3070 3062
3071 3062
3072 3767
3073 3766
3074 3255
3075 3766
3076 3767
3077 3766
3078 3767
3079 3766
3080 3763
3081 4022
3082 3251
3083 4022
3084 4019
3085 4022
3086 4019
3087 4022
3088 2615
3089 2614
3090 2103
3091 2614
3092 2615
3093 2614
3094 2743
3095 2742
3096 2611
3097 2870
3098 2099
3099 2870
3100 2867
3101 2870
3102 2867
3103 2870
3104 3767
3105 3766
3106 3255
3107 3766
3108 3767
3109 3766
3110 3767
3111 3766
3112 3763
3113 4022
3114 3251
3115 4022
3116 4019
3117 4022
3118 4019
3119 4022
3120 2615
3121 2614
3122 2103
3123 2614
3124 2615
3125 2614
3126 2743
3127 2742
3128 2611
3129 2870
3130 2099
3131 2870
3132 2867
3133 2870
3134 2867
3135 2870
3136 3767
3137 3766
3138 3767
3139 3766
3140 3767
3141 3766
3142 3767
3143 3766
3144 3763
3145 4022
3146 3763
3147 4022
3148 4019
3149 4022
3150 4019
3151 4022
3152 2615
3153 2614
3154 2615
3155 2614
3156 567
3157 566
3158 2743
3159 2742
3160 2611
3161 2870
3162 2611
3163 2870
3164 819
3165 822
3166 2867
3167 2870
3168 3767
3169 3766
3170 3767
3171 3766
3172 3767
3173 3766
3174 3767
3175 3766
3176 3763
3177 4022
3178 3763
3179 4022
3180 4019
3181 4022
3182 4019
3183 4022
3184 2615
3185 2614
3186 2615
3187 2614
3188 2615
3189 2614
3190 2743
3191 2742
3192 2611
3193 2870
3194 2611
3195 2870
3196 2867
3197 2870
3198 2867
3199 2870
3200 3735
3201 3734
3202 3219
3203 3734
3204 3767
3205 3766
3206 3763
3207 3766
3208 3987
3209 3990
3210 3475
3211 3990
3212 4019
3213 4022
3214 4003
3215 4006
3216 2711
3217 2710
3218 2195
3219 2710
3220 2743
3221 2742
3222 2739
3223 2742
3224 2963
3225 2966
3226 2451
3227 2966
3228 2995
3229 2998
3230 2979
3231 2982
3232 3735
3233 3734
3234 3219
3235 3734
3236 3767
3237 3766
3238 3763
3239 3766
3240 3987
3241 3990
3242 3475
3243 3990
3244 4019
3245 4022
3246 4003
3247 4006
3248 2711
3249 2710
3250 2195
3251 2710
3252 2743
3253 2742
3254 2739
3255 2742
3256 2963
3257 2966
3258 2451
3259 2966
3260 2995
3261 2998
3262 2979
3263 2982
3264 3735
3265 3734
3266 3731
3267 3734
3268 3767
3269 3766
3270 3763
3271 3766
3272 3987
3273 3990
3274 3987
3275 3990
3276 4019
3277 4022
3278 4003
3279 4006
3280 2711
3281 2710
3282 2707
3283 2710
3284 695
3285 694
3286 2739
3287 2742
3288 2963
3289 2966
3290 2963
3291 2966
3292 947
3293 950
3294 2979
3295 2982
3296 3735
3297 3734
3298 3731
3299 3734
3300 3767
3301 3766
3302 3763
3303 3766
3304 3987
3305 3990
3306 3987
3307 3990
3308 4019
3309 4022
3310 4003
3311 4006
3312 2711
3313 2710
3314 2707
3315 2710
3316 2743
3317 2742
3318 2739
3319 2742
3320 2963
3321 2966
3322 2963
3323 2966
3324 2995
3325 2998
3326 2979
3327 2982
3328 3765
3329 3764
3330 3765
3331 3764
3332 3765
3333 3764
3334 3765
3335 3764
3336 3761
3337 4020
3338 3761
3339 4020
3340 4017
3341 4020
3342 4017
3343 4020
3344 2613
3345 2612
3346 2613
3347 2612
3348 2613
3349 2612
3350 2741
3351 2740
3352 2609
3353 2868
3354 2609
3355 2868
3356 2865
3357 2868
3358 2865
3359 2868
3360 3765
3361 3764
3362 3765
3363 3764
3364 3765
3365 3764
3366 3765
3367 3764
3368 3761
3369 4020
3370 3761
3371 4020
3372 4017
3373 4020
3374 4017
3375 4020
3376 2613
3377 2612
3378 2613
3379 2612
3380 2613
3381 2612
3382 2741
3383 2740
3384 2609
3385 2868
3386 2609
3387 2868
3388 2865
3389 2868
3390 2865
3391 2868
3392 3765
3393 3764
3394 3767
3395 3766
3396 3765
3397 3764
3398 3767
3399 3766
3400 3760
3401 4020
3402 3762
3403 4022
3404 4016
3405 4020
3406 4018
3407 4022
3408 2677
3409 2676
3410 2679
3411 2614
3412 629
3413 628
3414 2807
3415 2742
3416 2672
3417 2932
3418 2674
3419 2870
3420 880
3421 884
3422 2930
3423 2870
3424 3765
3425 3764
3426 3767
3427 3766
3428 3765
3429 3764
3430 3767
3431 3766
3432 3760
3433 4020
3434 3762
3435 4022
3436 4016
3437 4020
3438 4018
3439 4022
3440 2677
3441 2676
3442 2679
3443 2614
3444 2677
3445 2676
3446 2807
3447 2742
3448 2672
3449 2932
3450 2674
3451 2870
3452 2928
3453 2932
3454 2930
3455 2870
3456 3735
3457 3734
3458 3731
3459 3734
3460 3767
3461 3766
3462 3763
3463 3766
3464 3987
3465 3990
3466 3987
3467 3990
3468 4003
3469 4006
3470 4003
3471 4006
3472 2711
3473 2710
3474 2707
3475 2710
3476 2743
3477 2742
3478 2739
3479 2742
3480 2963
3481 2966
3482 2963
3483 2966
3484 2979
3485 2982
3486 2979
3487 2982
3488 3735
3489 3734
3490 3731
3491 3734
3492 3767
3493 3766
3494 3763
3495 3766
3496 3987
3497 3990
3498 3987
3499 3990
3500 4003
3501 4006
3502 4003
3503 4006
3504 2711
3505 2710
3506 2707
3507 2710
3508 2743
3509 2742
3510 2739
3511 2742
3512 2963
3513 2966
3514 2963
3515 2966
3516 2979
3517 2982
3518 2979
3519 2982
3520 3735
3521 3734
3522 3731
3523 3734
3524 3767
3525 3766
3526 3763
3527 3766
3528 3986
3529 3990
3530 3986
3531 3990
3532 4002
3533 4006
3534 4002
3535 4006
3536 2775
3537 2774
3538 2771
3539 2710
3540 759
3541 758
3542 2803
3543 2742
3544 3026
3545 3030
3546 3026
3547 2966
3548 994
3549 998
3550 3042
3551 2982
3552 3735
3553 3734
3554 3731
3555 3734
3556 3767
3557 3766
3558 3763
3559 3766
3560 3986
3561 3990
3562 3986
3563 3990
3564 4002
3565 4006
3566 4002
3567 4006
3568 2775
3569 2774
3570 2771
3571 2710
3572 2807
3573 2806
3574 2803
3575 2742
3576 3026
3577 3030
3578 3026
3579 2966
3580 3042
3581 3046
3582 3042
3583 2982
3584 3251
3585 3762
3586 3251
3587 3762
3588 3763
3589 3762
3590 3763
3591 3762
3592 3251
3593 4018
3594 3251
3595 4018
3596 4019
3597 4018
3598 4019
3599 4018
3600 2227
3601 2738
3602 3251
3603 3762
3604 2739
3605 2738
3606 3763
3607 3762
3608 2227
3609 2994
3610 3251
3611 4018
3612 2995
3613 2994
3614 4019
3615 4018
3616 3251
3617 3762
3618 3251
3619 3762
3620 3763
3621 3762
3622 3763
3623 3762
3624 3251
3625 4018
3626 3251
3627 4018
3628 4019
3629 4018
3630 4019
3631 4018
3632 2227
3633 2738
3634 3251
3635 3762
3636 2739
3637 2738
3638 3763
3639 3762
3640 2227
3641 2994
3642 3251
3643 4018
3644 2995
3645 2994
3646 4019
3647 4018
3648 3763
3649 3762
3650 3763
3651 3762
3652 3763
3653 3762
3654 3763
3655 3762
3656 3763
3657 4018
3658 3763
3659 4018
3660 4019
3661 4018
3662 4019
3663 4018
3664 2739
3665 2738
3666 2739
3667 2738
3668 691
3669 690
3670 2739
3671 2738
3672 2739
3673 2994
3674 2739
3675 2994
3676 947
3677 946
3678 2995
3679 2994
3680 3763
3681 3762
3682 3763
3683 3762
3684 3763
3685 3762
3686 3763
3687 3762
3688 3763
3689 4018
3690 3763
3691 4018
3692 4019
3693 4018
3694 4019
3695 4018
3696 2739
3697 2738
3698 2739
3699 2738
3700 2739
3701 2738
3702 2739
3703 2738
3704 2739
3705 2994
3706 2739
3707 2994
3708 2995
3709 2994
3710 2995
3711 2994
3712 3219
3713 3730
3714 3219
3715 3730
3716 3763
3717 3762
3718 3763
3719 3762
3720 3475
3721 3986
3722 3475
3723 3986
3724 4019
3725 4018
3726 4019
3727 4018
3728 2195
3729 2706
3730 3219
3731 3730
3732 2739
3733 2738
3734 3763
3735 3762
3736 2451
3737 2962
3738 3475
3739 3986
3740 2995
3741 2994
3742 4019
3743 4018
3744 3219
3745 3730
3746 3219
3747 3730
3748 3763
3749 3762
3750 3763
3751 3762
3752 3475
3753 3986
3754 3475
3755 3986
3756 4019
3757 4018
3758 4019
3759 4018
3760 2195
3761 2706
3762 3219
3763 3730
3764 2739
3765 2738
3766 3763
3767 3762
3768 2451
3769 2962
3770 3475
3771 3986
3772 2995
3773 2994
3774 4019
3775 4018
3776 3731
3777 3730
3778 3731
3779 3730
3780 3763
3781 3762
3782 3763
3783 3762
3784 3987
3785 3986
3786 3987
3787 3986
3788 4019
3789 4018
3790 4019
3791 4018
3792 2707
3793 2706
3794 2707
3795 2706
3796 691
3797 690
3798 2739
3799 2738
3800 2963
3801 2962
3802 2963
3803 2962
3804 947
3805 946
3806 2995
3807 2994
3808 3731
3809 3730
3810 3731
3811 3730
3812 3763
3813 3762
3814 3763
3815 3762
3816 3987
3817 3986
3818 3987
3819 3986
3820 4019
3821 4018
3822 4019
3823 4018
3824 2707
3825 2706
3826 2707
3827 2706
3828 2739
3829 2738
3830 2739
3831 2738
3832 2963
3833 2962
3834 2963
3835 2962
3836 2995
3837 2994
3838 2995
3839 2994
3840 3761
3841 3760
3842 3761
3843 3760
3844 3761
3845 3760
3846 3761
3847 3760
3848 3761
3849 4016
3850 3761
3851 4016
3852 4017
3853 4016
3854 4017
3855 4016
3856 2737
3857 2736
3858 2737
3859 3760
3860 2737
3861 2736
3862 2737
3863 3760
3864 2737
3865 2992
3866 2737
3867 4016
3868 2993
3869 2992
3870 2993
3871 4016
3872 3761
3873 3760
3874 3761
3875 3760
3876 3761
3877 3760
3878 3761
3879 3760
3880 3761
3881 4016
3882 3761
3883 4016
3884 4017
3885 4016
3886 4017
3887 4016
3888 2737
3889 2736
3890 2737
3891 3760
3892 2737
3893 2736
3894 2737
3895 3760
3896 2737
3897 2992
3898 2737
3899 4016
3900 2993
3901 2992
3902 2993
3903 4016
3904 3761
3905 3760
3906 3763
3907 3762
3908 3761
3909 3760
3910 3763
3911 3762
3912 3760
3913 4016
3914 3762
3915 4018
3916 4016
3917 4016
3918 4018
3919 4018
3920 2801
3921 2800
3922 2803
3923 2738
3924 753
3925 752
3926 2803
3927 2738
3928 2800
3929 3056
3930 2802
3931 2994
3932 1008
3933 1008
3934 3058
3935 2994
3936 3761
3937 3760
3938 3763
3939 3762
3940 3761
3941 3760
3942 3763
3943 3762
3944 3760
3945 4016
3946 3762
3947 4018
3948 4016
3949 4016
3950 4018
3951 4018
3952 2801
3953 2800
3954 2803
3955 2738
3956 2801
3957 2800
3958 2803
3959 2738
3960 2800
3961 3056
3962 2802
3963 2994
3964 3056
3965 3056
3966 3058
3967 2994
3968 3731
3969 3730
3970 3731
3971 3730
3972 3763
3973 3762
3974 3763
3975 3762
3976 3987
3977 3986
3978 3987
3979 3986
3980 4019
3981 4018
3982 4019
3983 4018
3984 2707
3985 2706
3986 2707
3987 3730
3988 2739
3989 2738
3990 2739
3991 3762
3992 2963
3993 2962
3994 2963
3995 3986
3996 2995
3997 2994
3998 2995
3999 4018
4000 3731
4001 3730
4002 3731
4003 3730
4004 3763
4005 3762
4006 3763
4007 3762
4008 3987
4009 3986
4010 3987
4011 3986
4012 4019
4013 4018
4014 4019
4015 4018
4016 2707
4017 2706
4018 2707
4019 3730
4020 2739
4021 2738
4022 2739
4023 3762
4024 2963
4025 2962
4026 2963
4027 3986
4028 2995
4029 2994
4030 2995
4031 4018
4032 3731
4033 3730
4034 3731
4035 3730
4036 3763
4037 3762
4038 3763
4039 3762
4040 3986
4041 3986
4042 3986
4043 3986
4044 4018
4045 4018
4046 4018
4047 4018
4048 2771
4049 2770
4050 2771
4051 2706
4052 755
4053 754
4054 2803
4055 2738
4056 3026
4057 3026
4058 3026
4059 2962
4060 1010
4061 1010
4062 3058
4063 2994
4064 3731
4065 3730
4066 3731
4067 3730
4068 3763
4069 3762
4070 3763
4071 3762
4072 3986
4073 3986
4074 3986
4075 3986
4076 4018
4077 4018
4078 4018
4079 4018
4080 2771
4081 2770
4082 2771
4083 2706
4084 2803
4085 2802
4086 2803
4087 2738
4088 3026
4089 3026
4090 3026
4091 2962
4092 3058
4093 3058
4094 3058
4095 2994
