4096
0 1352
1 1160
2 1384
3 1192
4 1344
5 1160
6 1376
7 1192
8 1356
9 1420
10 1388
11 1452
12 1348
13 1420
14 1380
15 1452
16 1480
17 1160
18 1512
19 1192
20 1472
21 1160
22 1504
23 1192
24 1480
25 1416
26 1512
27 1448
28 1472
29 1416
30 1504
31 1448
32 1352
33 1160
34 1384
35 1192
36 1344
37 1160
38 1376
39 1192
40 1356
41 1420
42 1388
43 1452
44 1348
45 1420
46 1380
47 1452
48 1480
49 1160
50 1512
51 1192
52 1472
53 1160
54 1504
55 1192
56 1480
57 1416
58 1512
59 1448
60 1472
61 1416
62 1504
63 1448
64 1352
65 1160
66 1384
67 1192
68 1344
69 1160
70 1376
71 1192
72 1356
73 1420
74 1388
75 1452
76 1348
77 1420
78 1380
79 1452
80 1480
81 1160
82 1512
83 1192
84 1472
85 1160
86 1504
87 1192
88 1480
89 1416
90 1512
91 1448
92 1472
93 1416
94 1504
95 1448
96 1352
97 1160
98 1384
99 1192
100 1344
101 1160
102 1376
103 1192
104 1356
105 1420
106 1388
107 1452
108 1348
109 1420
110 1380
111 1452
112 1480
113 1160
114 1512
115 1192
116 1472
117 1160
118 1504
119 1192
120 1480
121 1416
122 1512
123 1448
124 1472
125 1416
126 1504
127 1448
128 1352
129 1160
130 1384
131 1192
132 1344
133 1160
134 1376
135 1192
136 1356
137 1420
138 1388
139 1452
140 1348
141 1420
142 1380
143 1452
144 1480
145 1160
146 1512
147 1192
148 1472
149 1160
150 1504
151 1192
152 1480
153 1416
154 1512
155 1448
156 1472
157 1416
158 1504
159 1448
160 1352
161 1160
162 1384
163 1192
164 1344
165 1160
166 1376
167 1192
168 1356
169 1420
170 1388
171 1452
172 1348
173 1420
174 1380
175 1452
176 1480
177 1160
178 1512
179 1192
180 1472
181 1160
182 1504
183 1192
184 1480
185 1416
186 1512
187 1448
188 1472
189 1416
190 1504
191 1448
192 1352
193 1160
194 1384
195 1192
196 1344
197 1160
198 1376
199 1192
200 1356
201 1420
202 1388
203 1452
204 1348
205 1420
206 1380
207 1452
208 1480
209 1160
210 1512
211 1192
212 1472
213 1160
214 1504
215 1192
216 1480
217 1416
218 1512
219 1448
220 1472
221 1416
222 1504
223 1448
224 1352
225 1160
226 1384
227 1192
228 1344
229 1160
230 1376
231 1192
232 1356
233 1420
234 1388
235 1452
236 1348
237 1420
238 1380
239 1452
240 1480
241 1160
242 1512
243 1192
244 1472
245 1160
246 1504
247 1192
248 1480
249 1416
250 1512
251 1448
252 1472
253 1416
254 1504
255 1448
256 1322
257 170
258 1322
259 170
260 1314
261 170
262 1314
263 170
264 1326
265 430
266 1326
267 430
268 1318
269 430
270 1318
271 430
272 1451
273 171
274 1451
275 171
276 1443
277 171
278 1443
279 171
280 1451
281 427
282 1451
283 427
284 1443
285 427
286 1443
287 427
288 1322
289 170
290 1322
291 170
292 1314
293 170
294 1314
295 170
296 1326
297 430
298 1326
299 430
300 1318
301 430
302 1318
303 430
304 1451
305 171
306 1451
307 171
308 1443
309 171
310 1443
311 171
312 1451
313 427
314 1451
315 427
316 1443
317 427
318 1443
319 427
320 1322
321 170
322 1322
323 170
324 1314
325 170
326 1314
327 170
328 1326
329 430
330 1326
331 430
332 1318
333 430
334 1318
335 430
336 1451
337 171
338 1451
339 171
340 1443
341 171
342 1443
343 171
344 1451
345 427
346 1451
347 427
348 1443
349 427
350 1443
351 427
352 1322
353 170
354 1322
355 170
356 1314
357 170
358 1314
359 170
360 1326
361 430
362 1326
363 430
364 1318
365 430
366 1318
367 430
368 1451
369 171
370 1451
371 171
372 1443
373 171
374 1443
375 171
376 1451
377 427
378 1451
379 427
380 1443
381 427
382 1443
383 427
384 1320
385 168
386 1320
387 168
388 1312
389 168
390 1312
391 168
392 1324
393 428
394 1324
395 428
396 1316
397 428
398 1316
399 428
400 1449
401 169
402 1449
403 169
404 1441
405 169
406 1441
407 169
408 1449
409 425
410 1449
411 425
412 1441
413 425
414 1441
415 425
416 1320
417 168
418 1320
419 168
420 1312
421 168
422 1312
423 168
424 1324
425 428
426 1324
427 428
428 1316
429 428
430 1316
431 428
432 1449
433 169
434 1449
435 169
436 1441
437 169
438 1441
439 169
440 1449
441 425
442 1449
443 425
444 1441
445 425
446 1441
447 425
448 1320
449 168
450 1320
451 168
452 1312
453 168
454 1312
455 168
456 1324
457 428
458 1324
459 428
460 1316
461 428
462 1316
463 428
464 1449
465 169
466 1449
467 169
468 1441
469 169
470 1441
471 169
472 1449
473 425
474 1449
475 425
476 1441
477 425
478 1441
479 425
480 1320
481 168
482 1320
483 168
484 1312
485 168
486 1312
487 168
488 1324
489 428
490 1324
491 428
492 1316
493 428
494 1316
495 428
496 1449
497 169
498 1449
499 169
500 1441
501 169
502 1441
503 169
504 1449
505 425
506 1449
507 425
508 1441
509 425
510 1441
511 425
512 1864
513 1672
514 1896
515 1704
516 1856
517 1672
518 1888
519 1704
520 1868
521 1932
522 1900
523 1964
524 1860
525 1932
526 1892
527 1964
528 1480
529 1160
530 1512
531 1192
532 1472
533 1160
534 1504
535 1192
536 1480
537 1416
538 1512
539 1448
540 1472
541 1416
542 1504
543 1448
544 1864
545 1672
546 1896
547 1704
548 1856
549 1672
550 1888
551 1704
552 1868
553 1932
554 1900
555 1964
556 1860
557 1932
558 1892
559 1964
560 1480
561 1160
562 1512
563 1192
564 1472
565 1160
566 1504
567 1192
568 1480
569 1416
570 1512
571 1448
572 1472
573 1416
574 1504
575 1448
576 1864
577 1672
578 1896
579 1704
580 1856
581 1672
582 1888
583 1704
584 1868
585 1932
586 1900
587 1964
588 1860
589 1932
590 1892
591 1964
592 1480
593 1160
594 1512
595 1192
596 1472
597 1160
598 1504
599 1192
600 1480
601 1416
602 1512
603 1448
604 1472
605 1416
606 1504
607 1448
608 1864
609 1672
610 1896
611 1704
612 1856
613 1672
614 1888
615 1704
616 1868
617 1932
618 1900
619 1964
620 1860
621 1932
622 1892
623 1964
624 1480
625 1160
626 1512
627 1192
628 1472
629 1160
630 1504
631 1192
632 1480
633 1416
634 1512
635 1448
636 1472
637 1416
638 1504
639 1448
640 1864
641 1672
642 1896
643 1704
644 1856
645 1672
646 1888
647 1704
648 1868
649 1932
650 1900
651 1964
652 1860
653 1932
654 1892
655 1964
656 1480
657 1160
658 1512
659 1192
660 1472
661 1160
662 1504
663 1192
664 1480
665 1416
666 1512
667 1448
668 1472
669 1416
670 1504
671 1448
672 1864
673 1672
674 1896
675 1704
676 1856
677 1672
678 1888
679 1704
680 1868
681 1932
682 1900
683 1964
684 1860
685 1932
686 1892
687 1964
688 1480
689 1160
690 1512
691 1192
692 1472
693 1160
694 1504
695 1192
696 1480
697 1416
698 1512
699 1448
700 1472
701 1416
702 1504
703 1448
704 1864
705 1672
706 1896
707 1704
708 1856
709 1672
710 1888
711 1704
712 1868
713 1932
714 1900
715 1964
716 1860
717 1932
718 1892
719 1964
720 1480
721 1160
722 1512
723 1192
724 1472
725 1160
726 1504
727 1192
728 1480
729 1416
730 1512
731 1448
732 1472
733 1416
734 1504
735 1448
736 1864
737 1672
738 1896
739 1704
740 1856
741 1672
742 1888
743 1704
744 1868
745 1932
746 1900
747 1964
748 1860
749 1932
750 1892
751 1964
752 1480
753 1160
754 1512
755 1192
756 1472
757 1160
758 1504
759 1192
760 1480
761 1416
762 1512
763 1448
764 1472
765 1416
766 1504
767 1448
768 1834
769 682
770 1834
771 682
772 1826
773 682
774 1826
775 682
776 1838
777 942
778 1838
779 942
780 1830
781 942
782 1830
783 942
784 1451
785 171
786 1451
787 171
788 1443
789 171
790 1443
791 171
792 1451
793 427
794 1451
795 427
796 1443
797 427
798 1443
799 427
800 1834
801 682
802 1834
803 682
804 1826
805 682
806 1826
807 682
808 1838
809 942
810 1838
811 942
812 1830
813 942
814 1830
815 942
816 1451
817 171
818 1451
819 171
820 1443
821 171
822 1443
823 171
824 1451
825 427
826 1451
827 427
828 1443
829 427
830 1443
831 427
832 1834
833 682
834 1834
835 682
836 1826
837 682
838 1826
839 682
840 1838
841 942
842 1838
843 942
844 1830
845 942
846 1830
847 942
848 1451
849 171
850 1451
851 171
852 1443
853 171
854 1443
855 171
856 1451
857 427
858 1451
859 427
860 1443
861 427
862 1443
863 427
864 1834
865 682
866 1834
867 682
868 1826
869 682
870 1826
871 682
872 1838
873 942
874 1838
875 942
876 1830
877 942
878 1830
879 942
880 1451
881 171
882 1451
883 171
884 1443
885 171
886 1443
887 171
888 1451
889 427
890 1451
891 427
892 1443
893 427
894 1443
895 427
896 1832
897 680
898 1832
899 680
900 1824
901 680
902 1824
903 680
904 1836
905 940
906 1836
907 940
908 1828
909 940
910 1828
911 940
912 1449
913 169
914 1449
915 169
916 1441
917 169
918 1441
919 169
920 1449
921 425
922 1449
923 425
924 1441
925 425
926 1441
927 425
928 1832
929 680
930 1832
931 680
932 1824
933 680
934 1824
935 680
936 1836
937 940
938 1836
939 940
940 1828
941 940
942 1828
943 940
944 1449
945 169
946 1449
947 169
948 1441
949 169
950 1441
951 169
952 1449
953 425
954 1449
955 425
956 1441
957 425
958 1441
959 425
960 1832
961 680
962 1832
963 680
964 1824
965 680
966 1824
967 680
968 1836
969 940
970 1836
971 940
972 1828
973 940
974 1828
975 940
976 1449
977 169
978 1449
979 169
980 1441
981 169
982 1441
983 169
984 1449
985 425
986 1449
987 425
988 1441
989 425
990 1441
991 425
992 1832
993 680
994 1832
995 680
996 1824
997 680
998 1824
999 680
1000 1836
1001 940
1002 1836
1003 940
1004 1828
1005 940
1006 1828
1007 940
1008 1449
1009 169
1010 1449
1011 169
1012 1441
1013 169
1014 1441
1015 169
1016 1449
1017 425
1018 1449
1019 425
1020 1441
1021 425
1022 1441
1023 425
1024 1352
1025 1160
1026 1384
1027 1192
1028 1344
1029 1160
1030 1376
1031 1192
1032 1356
1033 1420
1034 1388
1035 1452
1036 1348
1037 1420
1038 1380
1039 1452
1040 1480
1041 1160
1042 1512
1043 1192
1044 1472
1045 1160
1046 1504
1047 1192
1048 1480
1049 1416
1050 1512
1051 1448
1052 1472
1053 1416
1054 1504
1055 1448
1056 1352
1057 1160
1058 1384
1059 1192
1060 1344
1061 1160
1062 1376
1063 1192
1064 1356
1065 1420
1066 1388
1067 1452
1068 1348
1069 1420
1070 1380
1071 1452
1072 1480
1073 1160
1074 1512
1075 1192
1076 1472
1077 1160
1078 1504
1079 1192
1080 1480
1081 1416
1082 1512
1083 1448
1084 1472
1085 1416
1086 1504
1087 1448
1088 1352
1089 1160
1090 1384
1091 1192
1092 1344
1093 1160
1094 1376
1095 1192
1096 1356
1097 1420
1098 1388
1099 1452
1100 1348
1101 1420
1102 1380
1103 1452
1104 1480
1105 1160
1106 1512
1107 1192
1108 1472
1109 1160
1110 1504
1111 1192
1112 1480
1113 1416
1114 1512
1115 1448
1116 1472
1117 1416
1118 1504
1119 1448
1120 1352
1121 1160
1122 1384
1123 1192
1124 1344
1125 1160
1126 1376
1127 1192
1128 1356
1129 1420
1130 1388
1131 1452
1132 1348
1133 1420
1134 1380
1135 1452
1136 1480
1137 1160
1138 1512
1139 1192
1140 1472
1141 1160
1142 1504
1143 1192
1144 1480
1145 1416
1146 1512
1147 1448
1148 1472
1149 1416
1150 1504
1151 1448
1152 1352
1153 1160
1154 1384
1155 1192
1156 1344
1157 1160
1158 1376
1159 1192
1160 1356
1161 1420
1162 1388
1163 1452
1164 1348
1165 1420
1166 1380
1167 1452
1168 1480
1169 1160
1170 1512
1171 1192
1172 1472
1173 1160
1174 1504
1175 1192
1176 1480
1177 1416
1178 1512
1179 1448
1180 1472
1181 1416
1182 1504
1183 1448
1184 1352
1185 1160
1186 1384
1187 1192
1188 1344
1189 1160
1190 1376
1191 1192
1192 1356
1193 1420
1194 1388
1195 1452
1196 1348
1197 1420
1198 1380
1199 1452
1200 1480
1201 1160
1202 1512
1203 1192
1204 1472
1205 1160
1206 1504
1207 1192
1208 1480
1209 1416
1210 1512
1211 1448
1212 1472
1213 1416
1214 1504
1215 1448
1216 1352
1217 1160
1218 1384
1219 1192
1220 1344
1221 1160
1222 1376
1223 1192
1224 1356
1225 1420
1226 1388
1227 1452
1228 1348
1229 1420
1230 1380
1231 1452
1232 1480
1233 1160
1234 1512
1235 1192
1236 1472
1237 1160
1238 1504
1239 1192
1240 1480
1241 1416
1242 1512
1243 1448
1244 1472
1245 1416
1246 1504
1247 1448
1248 1352
1249 1160
1250 1384
1251 1192
1252 1344
1253 1160
1254 1376
1255 1192
1256 1356
1257 1420
1258 1388
1259 1452
1260 1348
1261 1420
1262 1380
1263 1452
1264 1480
1265 1160
1266 1512
1267 1192
1268 1472
1269 1160
1270 1504
1271 1192
1272 1480
1273 1416
1274 1512
1275 1448
1276 1472
1277 1416
1278 1504
1279 1448
1280 1322
1281 170
1282 1322
1283 170
1284 1314
1285 170
1286 1314
1287 170
1288 1326
1289 430
1290 1326
1291 430
1292 1318
1293 430
1294 1318
1295 430
1296 1451
1297 171
1298 1451
1299 171
1300 1443
1301 171
1302 1443
1303 171
1304 1451
1305 427
1306 1451
1307 427
1308 1443
1309 427
1310 1443
1311 427
1312 1322
1313 170
1314 1322
1315 170
1316 1314
1317 170
1318 1314
1319 170
1320 1326
1321 430
1322 1326
1323 430
1324 1318
1325 430
1326 1318
1327 430
1328 1451
1329 171
1330 1451
1331 171
1332 1443
1333 171
1334 1443
1335 171
1336 1451
1337 427
1338 1451
1339 427
1340 1443
1341 427
1342 1443
1343 427
1344 1322
1345 170
1346 1322
1347 170
1348 1314
1349 170
1350 1314
1351 170
1352 1326
1353 430
1354 1326
1355 430
1356 1318
1357 430
1358 1318
1359 430
1360 1451
1361 171
1362 1451
1363 171
1364 1443
1365 171
1366 1443
1367 171
1368 1451
1369 427
1370 1451
1371 427
1372 1443
1373 427
1374 1443
1375 427
1376 1322
1377 170
1378 1322
1379 170
1380 1314
1381 170
1382 1314
1383 170
1384 1326
1385 430
1386 1326
1387 430
1388 1318
1389 430
1390 1318
1391 430
1392 1451
1393 171
1394 1451
1395 171
1396 1443
1397 171
1398 1443
1399 171
1400 1451
1401 427
1402 1451
1403 427
1404 1443
1405 427
1406 1443
1407 427
1408 1320
1409 168
1410 1320
1411 168
1412 1312
1413 168
1414 1312
1415 168
1416 1324
1417 428
1418 1324
1419 428
1420 1316
1421 428
1422 1316
1423 428
1424 1449
1425 169
1426 1449
1427 169
1428 1441
1429 169
1430 1441
1431 169
1432 1449
1433 425
1434 1449
1435 425
1436 1441
1437 425
1438 1441
1439 425
1440 1320
1441 168
1442 1320
1443 168
1444 1312
1445 168
1446 1312
1447 168
1448 1324
1449 428
1450 1324
1451 428
1452 1316
1453 428
1454 1316
1455 428
1456 1449
1457 169
1458 1449
1459 169
1460 1441
1461 169
1462 1441
1463 169
1464 1449
1465 425
1466 1449
1467 425
1468 1441
1469 425
1470 1441
1471 425
1472 1320
1473 168
1474 1320
1475 168
1476 1312
1477 168
1478 1312
1479 168
1480 1324
1481 428
1482 1324
1483 428
1484 1316
1485 428
1486 1316
1487 428
1488 1449
1489 169
1490 1449
1491 169
1492 1441
1493 169
1494 1441
1495 169
1496 1449
1497 425
1498 1449
1499 425
1500 1441
1501 425
1502 1441
1503 425
1504 1320
1505 168
1506 1320
1507 168
1508 1312
1509 168
1510 1312
1511 168
1512 1324
1513 428
1514 1324
1515 428
1516 1316
1517 428
1518 1316
1519 428
1520 1449
1521 169
1522 1449
1523 169
1524 1441
1525 169
1526 1441
1527 169
1528 1449
1529 425
1530 1449
1531 425
1532 1441
1533 425
1534 1441
1535 425
1536 1864
1537 1672
1538 1896
1539 1704
1540 1856
1541 1672
1542 1888
1543 1704
1544 1868
1545 1932
1546 1900
1547 1964
1548 1860
1549 1932
1550 1892
1551 1964
1552 1480
1553 1160
1554 1512
1555 1192
1556 1472
1557 1160
1558 1504
1559 1192
1560 1480
1561 1416
1562 1512
1563 1448
1564 1472
1565 1416
1566 1504
1567 1448
1568 1864
1569 1672
1570 1896
1571 1704
1572 1856
1573 1672
1574 1888
1575 1704
1576 1868
1577 1932
1578 1900
1579 1964
1580 1860
1581 1932
1582 1892
1583 1964
1584 1480
1585 1160
1586 1512
1587 1192
1588 1472
1589 1160
1590 1504
1591 1192
1592 1480
1593 1416
1594 1512
1595 1448
1596 1472
1597 1416
1598 1504
1599 1448
1600 1864
1601 1672
1602 1896
1603 1704
1604 1856
1605 1672
1606 1888
1607 1704
1608 1868
1609 1932
1610 1900
1611 1964
1612 1860
1613 1932
1614 1892
1615 1964
1616 1480
1617 1160
1618 1512
1619 1192
1620 1472
1621 1160
1622 1504
1623 1192
1624 1480
1625 1416
1626 1512
1627 1448
1628 1472
1629 1416
1630 1504
1631 1448
1632 1864
1633 1672
1634 1896
1635 1704
1636 1856
1637 1672
1638 1888
1639 1704
1640 1868
1641 1932
1642 1900
1643 1964
1644 1860
1645 1932
1646 1892
1647 1964
1648 1480
1649 1160
1650 1512
1651 1192
1652 1472
1653 1160
1654 1504
1655 1192
1656 1480
1657 1416
1658 1512
1659 1448
1660 1472
1661 1416
1662 1504
1663 1448
1664 1864
1665 1672
1666 1896
1667 1704
1668 1856
1669 1672
1670 1888
1671 1704
1672 1868
1673 1932
1674 1900
1675 1964
1676 1860
1677 1932
1678 1892
1679 1964
1680 1480
1681 1160
1682 1512
1683 1192
1684 1472
1685 1160
1686 1504
1687 1192
1688 1480
1689 1416
1690 1512
1691 1448
1692 1472
1693 1416
1694 1504
1695 1448
1696 1864
1697 1672
1698 1896
1699 1704
1700 1856
1701 1672
1702 1888
1703 1704
1704 1868
1705 1932
1706 1900
1707 1964
1708 1860
1709 1932
1710 1892
1711 1964
1712 1480
1713 1160
1714 1512
1715 1192
1716 1472
1717 1160
1718 1504
1719 1192
1720 1480
1721 1416
1722 1512
1723 1448
1724 1472
1725 1416
1726 1504
1727 1448
1728 1864
1729 1672
1730 1896
1731 1704
1732 1856
1733 1672
1734 1888
1735 1704
1736 1868
1737 1932
1738 1900
1739 1964
1740 1860
1741 1932
1742 1892
1743 1964
1744 1480
1745 1160
1746 1512
1747 1192
1748 1472
1749 1160
1750 1504
1751 1192
1752 1480
1753 1416
1754 1512
1755 1448
1756 1472
1757 1416
1758 1504
1759 1448
1760 1864
1761 1672
1762 1896
1763 1704
1764 1856
1765 1672
1766 1888
1767 1704
1768 1868
1769 1932
1770 1900
1771 1964
1772 1860
1773 1932
1774 1892
1775 1964
1776 1480
1777 1160
1778 1512
1779 1192
1780 1472
1781 1160
1782 1504
1783 1192
1784 1480
1785 1416
1786 1512
1787 1448
1788 1472
1789 1416
1790 1504
1791 1448
1792 1834
1793 682
1794 1834
1795 682
1796 1826
1797 682
1798 1826
1799 682
1800 1838
1801 942
1802 1838
1803 942
1804 1830
1805 942
1806 1830
1807 942
1808 1451
1809 171
1810 1451
1811 171
1812 1443
1813 171
1814 1443
1815 171
1816 1451
1817 427
1818 1451
1819 427
1820 1443
1821 427
1822 1443
1823 427
1824 1834
1825 682
1826 1834
1827 682
1828 1826
1829 682
1830 1826
1831 682
1832 1838
1833 942
1834 1838
1835 942
1836 1830
1837 942
1838 1830
1839 942
1840 1451
1841 171
1842 1451
1843 171
1844 1443
1845 171
1846 1443
1847 171
1848 1451
1849 427
1850 1451
1851 427
1852 1443
1853 427
1854 1443
1855 427
1856 1834
1857 682
1858 1834
1859 682
1860 1826
1861 682
1862 1826
1863 682
1864 1838
1865 942
1866 1838
1867 942
1868 1830
1869 942
1870 1830
1871 942
1872 1451
1873 171
1874 1451
1875 171
1876 1443
1877 171
1878 1443
1879 171
1880 1451
1881 427
1882 1451
1883 427
1884 1443
1885 427
1886 1443
1887 427
1888 1834
1889 682
1890 1834
1891 682
1892 1826
1893 682
1894 1826
1895 682
1896 1838
1897 942
1898 1838
1899 942
1900 1830
1901 942
1902 1830
1903 942
1904 1451
1905 171
1906 1451
1907 171
1908 1443
1909 171
1910 1443
1911 171
1912 1451
1913 427
1914 1451
1915 427
1916 1443
1917 427
1918 1443
1919 427
1920 1832
1921 680
1922 1832
1923 680
1924 1824
1925 680
1926 1824
1927 680
1928 1836
1929 940
1930 1836
1931 940
1932 1828
1933 940
1934 1828
1935 940
1936 1449
1937 169
1938 1449
1939 169
1940 1441
1941 169
1942 1441
1943 169
1944 1449
1945 425
1946 1449
1947 425
1948 1441
1949 425
1950 1441
1951 425
1952 1832
1953 680
1954 1832
1955 680
1956 1824
1957 680
1958 1824
1959 680
1960 1836
1961 940
1962 1836
1963 940
1964 1828
1965 940
1966 1828
1967 940
1968 1449
1969 169
1970 1449
1971 169
1972 1441
1973 169
1974 1441
1975 169
1976 1449
1977 425
1978 1449
1979 425
1980 1441
1981 425
1982 1441
1983 425
1984 1832
1985 680
1986 1832
1987 680
1988 1824
1989 680
1990 1824
1991 680
1992 1836
1993 940
1994 1836
1995 940
1996 1828
1997 940
1998 1828
1999 940
2000 1449
2001 169
2002 1449
2003 169
2004 1441
2005 169
2006 1441
2007 169
2008 1449
2009 425
2010 1449
2011 425
2012 1441
2013 425
2014 1441
2015 425
2016 1832
2017 680
2018 1832
2019 680
2020 1824
2021 680
2022 1824
2023 680
2024 1836
2025 940
2026 1836
2027 940
2028 1828
2029 940
2030 1828
2031 940
2032 1449
2033 169
2034 1449
2035 169
2036 1441
2037 169
2038 1441
2039 169
2040 1449
2041 425
2042 1449
2043 425
2044 1441
2045 425
2046 1441
2047 425
2048 3416
2049 3224
2050 3448
2051 3256
2052 3408
2053 3224
2054 3440
2055 3256
2056 3420
2057 3484
2058 3452
2059 3516
2060 3412
2061 3484
2062 3444
2063 3516
2064 3544
2065 3224
2066 3576
2067 3256
2068 3536
2069 3224
2070 3568
2071 3256
2072 3544
2073 3480
2074 3576
2075 3512
2076 3536
2077 3480
2078 3568
2079 3512
2080 3416
2081 3224
2082 3448
2083 3256
2084 3408
2085 3224
2086 3440
2087 3256
2088 3420
2089 3484
2090 3452
2091 3516
2092 3412
2093 3484
2094 3444
2095 3516
2096 3544
2097 3224
2098 3576
2099 3256
2100 3536
2101 3224
2102 3568
2103 3256
2104 3544
2105 3480
2106 3576
2107 3512
2108 3536
2109 3480
2110 3568
2111 3512
2112 3416
2113 3224
2114 3448
2115 3256
2116 3408
2117 3224
2118 3440
2119 3256
2120 3420
2121 3484
2122 3452
2123 3516
2124 3412
2125 3484
2126 3444
2127 3516
2128 3544
2129 3224
2130 3576
2131 3256
2132 3536
2133 3224
2134 3568
2135 3256
2136 3544
2137 3480
2138 3576
2139 3512
2140 3536
2141 3480
2142 3568
2143 3512
2144 3416
2145 3224
2146 3448
2147 3256
2148 3408
2149 3224
2150 3440
2151 3256
2152 3420
2153 3484
2154 3452
2155 3516
2156 3412
2157 3484
2158 3444
2159 3516
2160 3544
2161 3224
2162 3576
2163 3256
2164 3536
2165 3224
2166 3568
2167 3256
2168 3544
2169 3480
2170 3576
2171 3512
2172 3536
2173 3480
2174 3568
2175 3512
2176 1368
2177 1176
2178 1400
2179 1208
2180 1360
2181 1176
2182 1392
2183 1208
2184 1372
2185 1436
2186 1404
2187 1468
2188 1364
2189 1436
2190 1396
2191 1468
2192 1496
2193 1176
2194 1528
2195 1208
2196 1488
2197 1176
2198 1520
2199 1208
2200 1496
2201 1432
2202 1528
2203 1464
2204 1488
2205 1432
2206 1520
2207 1464
2208 1368
2209 1176
2210 1400
2211 1208
2212 1360
2213 1176
2214 1392
2215 1208
2216 1372
2217 1436
2218 1404
2219 1468
2220 1364
2221 1436
2222 1396
2223 1468
2224 1496
2225 1176
2226 1528
2227 1208
2228 1488
2229 1176
2230 1520
2231 1208
2232 1496
2233 1432
2234 1528
2235 1464
2236 1488
2237 1432
2238 1520
2239 1464
2240 1368
2241 1176
2242 1400
2243 1208
2244 1360
2245 1176
2246 1392
2247 1208
2248 1372
2249 1436
2250 1404
2251 1468
2252 1364
2253 1436
2254 1396
2255 1468
2256 1496
2257 1176
2258 1528
2259 1208
2260 1488
2261 1176
2262 1520
2263 1208
2264 1496
2265 1432
2266 1528
2267 1464
2268 1488
2269 1432
2270 1520
2271 1464
2272 1368
2273 1176
2274 1400
2275 1208
2276 1360
2277 1176
2278 1392
2279 1208
2280 1372
2281 1436
2282 1404
2283 1468
2284 1364
2285 1436
2286 1396
2287 1468
2288 1496
2289 1176
2290 1528
2291 1208
2292 1488
2293 1176
2294 1520
2295 1208
2296 1496
2297 1432
2298 1528
2299 1464
2300 1488
2301 1432
2302 1520
2303 1464
2304 3386
2305 2234
2306 3386
2307 2234
2308 3378
2309 2234
2310 3378
2311 2234
2312 3390
2313 2494
2314 3390
2315 2494
2316 3382
2317 2494
2318 3382
2319 2494
2320 3515
2321 2235
2322 3515
2323 2235
2324 3507
2325 2235
2326 3507
2327 2235
2328 3515
2329 2491
2330 3515
2331 2491
2332 3507
2333 2491
2334 3507
2335 2491
2336 3386
2337 2234
2338 3386
2339 2234
2340 3378
2341 2234
2342 3378
2343 2234
2344 3390
2345 2494
2346 3390
2347 2494
2348 3382
2349 2494
2350 3382
2351 2494
2352 3515
2353 2235
2354 3515
2355 2235
2356 3507
2357 2235
2358 3507
2359 2235
2360 3515
2361 2491
2362 3515
2363 2491
2364 3507
2365 2491
2366 3507
2367 2491
2368 3386
2369 2234
2370 3386
2371 2234
2372 3378
2373 2234
2374 3378
2375 2234
2376 3390
2377 2494
2378 3390
2379 2494
2380 3382
2381 2494
2382 3382
2383 2494
2384 3515
2385 2235
2386 3515
2387 2235
2388 3507
2389 2235
2390 3507
2391 2235
2392 3515
2393 2491
2394 3515
2395 2491
2396 3507
2397 2491
2398 3507
2399 2491
2400 3386
2401 2234
2402 3386
2403 2234
2404 3378
2405 2234
2406 3378
2407 2234
2408 3390
2409 2494
2410 3390
2411 2494
2412 3382
2413 2494
2414 3382
2415 2494
2416 3515
2417 2235
2418 3515
2419 2235
2420 3507
2421 2235
2422 3507
2423 2235
2424 3515
2425 2491
2426 3515
2427 2491
2428 3507
2429 2491
2430 3507
2431 2491
2432 1336
2433 184
2434 1336
2435 184
2436 1328
2437 184
2438 1328
2439 184
2440 1340
2441 444
2442 1340
2443 444
2444 1332
2445 444
2446 1332
2447 444
2448 1465
2449 185
2450 1465
2451 185
2452 1457
2453 185
2454 1457
2455 185
2456 1465
2457 441
2458 1465
2459 441
2460 1457
2461 441
2462 1457
2463 441
2464 1336
2465 184
2466 1336
2467 184
2468 1328
2469 184
2470 1328
2471 184
2472 1340
2473 444
2474 1340
2475 444
2476 1332
2477 444
2478 1332
2479 444
2480 1465
2481 185
2482 1465
2483 185
2484 1457
2485 185
2486 1457
2487 185
2488 1465
2489 441
2490 1465
2491 441
2492 1457
2493 441
2494 1457
2495 441
2496 1336
2497 184
2498 1336
2499 184
2500 1328
2501 184
2502 1328
2503 184
2504 1340
2505 444
2506 1340
2507 444
2508 1332
2509 444
2510 1332
2511 444
2512 1465
2513 185
2514 1465
2515 185
2516 1457
2517 185
2518 1457
2519 185
2520 1465
2521 441
2522 1465
2523 441
2524 1457
2525 441
2526 1457
2527 441
2528 1336
2529 184
2530 1336
2531 184
2532 1328
2533 184
2534 1328
2535 184
2536 1340
2537 444
2538 1340
2539 444
2540 1332
2541 444
2542 1332
2543 444
2544 1465
2545 185
2546 1465
2547 185
2548 1457
2549 185
2550 1457
2551 185
2552 1465
2553 441
2554 1465
2555 441
2556 1457
2557 441
2558 1457
2559 441
2560 3912
2561 3720
2562 3944
2563 3752
2564 3904
2565 3720
2566 3936
2567 3752
2568 3916
2569 3980
2570 3948
2571 4012
2572 3908
2573 3980
2574 3940
2575 4012
2576 3528
2577 3208
2578 3560
2579 3240
2580 3520
2581 3208
2582 3552
2583 3240
2584 3528
2585 3464
2586 3560
2587 3496
2588 3520
2589 3464
2590 3552
2591 3496
2592 3912
2593 3720
2594 3944
2595 3752
2596 3904
2597 3720
2598 3936
2599 3752
2600 3916
2601 3980
2602 3948
2603 4012
2604 3908
2605 3980
2606 3940
2607 4012
2608 3528
2609 3208
2610 3560
2611 3240
2612 3520
2613 3208
2614 3552
2615 3240
2616 3528
2617 3464
2618 3560
2619 3496
2620 3520
2621 3464
2622 3552
2623 3496
2624 3912
2625 3720
2626 3944
2627 3752
2628 3904
2629 3720
2630 3936
2631 3752
2632 3916
2633 3980
2634 3948
2635 4012
2636 3908
2637 3980
2638 3940
2639 4012
2640 3528
2641 3208
2642 3560
2643 3240
2644 3520
2645 3208
2646 3552
2647 3240
2648 3528
2649 3464
2650 3560
2651 3496
2652 3520
2653 3464
2654 3552
2655 3496
2656 3912
2657 3720
2658 3944
2659 3752
2660 3904
2661 3720
2662 3936
2663 3752
2664 3916
2665 3980
2666 3948
2667 4012
2668 3908
2669 3980
2670 3940
2671 4012
2672 3528
2673 3208
2674 3560
2675 3240
2676 3520
2677 3208
2678 3552
2679 3240
2680 3528
2681 3464
2682 3560
2683 3496
2684 3520
2685 3464
2686 3552
2687 3496
2688 1864
2689 1672
2690 1896
2691 1704
2692 1856
2693 1672
2694 1888
2695 1704
2696 1868
2697 1932
2698 1900
2699 1964
2700 1860
2701 1932
2702 1892
2703 1964
2704 1480
2705 1160
2706 1512
2707 1192
2708 1472
2709 1160
2710 1504
2711 1192
2712 1480
2713 1416
2714 1512
2715 1448
2716 1472
2717 1416
2718 1504
2719 1448
2720 1864
2721 1672
2722 1896
2723 1704
2724 1856
2725 1672
2726 1888
2727 1704
2728 1868
2729 1932
2730 1900
2731 1964
2732 1860
2733 1932
2734 1892
2735 1964
2736 1480
2737 1160
2738 1512
2739 1192
2740 1472
2741 1160
2742 1504
2743 1192
2744 1480
2745 1416
2746 1512
2747 1448
2748 1472
2749 1416
2750 1504
2751 1448
2752 1864
2753 1672
2754 1896
2755 1704
2756 1856
2757 1672
2758 1888
2759 1704
2760 1868
2761 1932
2762 1900
2763 1964
2764 1860
2765 1932
2766 1892
2767 1964
2768 1480
2769 1160
2770 1512
2771 1192
2772 1472
2773 1160
2774 1504
2775 1192
2776 1480
2777 1416
2778 1512
2779 1448
2780 1472
2781 1416
2782 1504
2783 1448
2784 1864
2785 1672
2786 1896
2787 1704
2788 1856
2789 1672
2790 1888
2791 1704
2792 1868
2793 1932
2794 1900
2795 1964
2796 1860
2797 1932
2798 1892
2799 1964
2800 1480
2801 1160
2802 1512
2803 1192
2804 1472
2805 1160
2806 1504
2807 1192
2808 1480
2809 1416
2810 1512
2811 1448
2812 1472
2813 1416
2814 1504
2815 1448
2816 3882
2817 2730
2818 3882
2819 2730
2820 3874
2821 2730
2822 3874
2823 2730
2824 3886
2825 2990
2826 3886
2827 2990
2828 3878
2829 2990
2830 3878
2831 2990
2832 3499
2833 2219
2834 3499
2835 2219
2836 3491
2837 2219
2838 3491
2839 2219
2840 3499
2841 2475
2842 3499
2843 2475
2844 3491
2845 2475
2846 3491
2847 2475
2848 3882
2849 2730
2850 3882
2851 2730
2852 3874
2853 2730
2854 3874
2855 2730
2856 3886
2857 2990
2858 3886
2859 2990
2860 3878
2861 2990
2862 3878
2863 2990
2864 3499
2865 2219
2866 3499
2867 2219
2868 3491
2869 2219
2870 3491
2871 2219
2872 3499
2873 2475
2874 3499
2875 2475
2876 3491
2877 2475
2878 3491
2879 2475
2880 3882
2881 2730
2882 3882
2883 2730
2884 3874
2885 2730
2886 3874
2887 2730
2888 3886
2889 2990
2890 3886
2891 2990
2892 3878
2893 2990
2894 3878
2895 2990
2896 3499
2897 2219
2898 3499
2899 2219
2900 3491
2901 2219
2902 3491
2903 2219
2904 3499
2905 2475
2906 3499
2907 2475
2908 3491
2909 2475
2910 3491
2911 2475
2912 3882
2913 2730
2914 3882
2915 2730
2916 3874
2917 2730
2918 3874
2919 2730
2920 3886
2921 2990
2922 3886
2923 2990
2924 3878
2925 2990
2926 3878
2927 2990
2928 3499
2929 2219
2930 3499
2931 2219
2932 3491
2933 2219
2934 3491
2935 2219
2936 3499
2937 2475
2938 3499
2939 2475
2940 3491
2941 2475
2942 3491
2943 2475
2944 1832
2945 680
2946 1832
2947 680
2948 1824
2949 680
2950 1824
2951 680
2952 1836
2953 940
2954 1836
2955 940
2956 1828
2957 940
2958 1828
2959 940
2960 1449
2961 169
2962 1449
2963 169
2964 1441
2965 169
2966 1441
2967 169
2968 1449
2969 425
2970 1449
2971 425
2972 1441
2973 425
2974 1441
2975 425
2976 1832
2977 680
2978 1832
2979 680
2980 1824
2981 680
2982 1824
2983 680
2984 1836
2985 940
2986 1836
2987 940
2988 1828
2989 940
2990 1828
2991 940
2992 1449
2993 169
2994 1449
2995 169
2996 1441
2997 169
2998 1441
2999 169
3000 1449
3001 425
3002 1449
3003 425
3004 1441
3005 425
3006 1441
3007 425
3008 1832
3009 680
3010 1832
3011 680
3012 1824
3013 680
3014 1824
3015 680
3016 1836
3017 940
3018 1836
3019 940
3020 1828
3021 940
3022 1828
3023 940
3024 1449
3025 169
3026 1449
3027 169
3028 1441
3029 169
3030 1441
3031 169
3032 1449
3033 425
3034 1449
3035 425
3036 1441
3037 425
3038 1441
3039 425
3040 1832
3041 680
3042 1832
3043 680
3044 1824
3045 680
3046 1824
3047 680
3048 1836
3049 940
3050 1836
3051 940
3052 1828
3053 940
3054 1828
3055 940
3056 1449
3057 169
3058 1449
3059 169
3060 1441
3061 169
3062 1441
3063 169
3064 1449
3065 425
3066 1449
3067 425
3068 1441
3069 425
3070 1441
3071 425
3072 3416
3073 3224
3074 3448
3075 3256
3076 3408
3077 3224
3078 3440
3079 3256
3080 3420
3081 3484
3082 3452
3083 3516
3084 3412
3085 3484
3086 3444
3087 3516
3088 3544
3089 3224
3090 3576
3091 3256
3092 3536
3093 3224
3094 3568
3095 3256
3096 3544
3097 3480
3098 3576
3099 3512
3100 3536
3101 3480
3102 3568
3103 3512
3104 3416
3105 3224
3106 3448
3107 3256
3108 3408
3109 3224
3110 3440
3111 3256
3112 3420
3113 3484
3114 3452
3115 3516
3116 3412
3117 3484
3118 3444
3119 3516
3120 3544
3121 3224
3122 3576
3123 3256
3124 3536
3125 3224
3126 3568
3127 3256
3128 3544
3129 3480
3130 3576
3131 3512
3132 3536
3133 3480
3134 3568
3135 3512
3136 3416
3137 3224
3138 3448
3139 3256
3140 3408
3141 3224
3142 3440
3143 3256
3144 3420
3145 3484
3146 3452
3147 3516
3148 3412
3149 3484
3150 3444
3151 3516
3152 3544
3153 3224
3154 3576
3155 3256
3156 3536
3157 3224
3158 3568
3159 3256
3160 3544
3161 3480
3162 3576
3163 3512
3164 3536
3165 3480
3166 3568
3167 3512
3168 3416
3169 3224
3170 3448
3171 3256
3172 3408
3173 3224
3174 3440
3175 3256
3176 3420
3177 3484
3178 3452
3179 3516
3180 3412
3181 3484
3182 3444
3183 3516
3184 3544
3185 3224
3186 3576
3187 3256
3188 3536
3189 3224
3190 3568
3191 3256
3192 3544
3193 3480
3194 3576
3195 3512
3196 3536
3197 3480
3198 3568
3199 3512
3200 1368
3201 1176
3202 1400
3203 1208
3204 1360
3205 1176
3206 1392
3207 1208
3208 1372
3209 1436
3210 1404
3211 1468
3212 1364
3213 1436
3214 1396
3215 1468
3216 1496
3217 1176
3218 1528
3219 1208
3220 1488
3221 1176
3222 1520
3223 1208
3224 1496
3225 1432
3226 1528
3227 1464
3228 1488
3229 1432
3230 1520
3231 1464
3232 1368
3233 1176
3234 1400
3235 1208
3236 1360
3237 1176
3238 1392
3239 1208
3240 1372
3241 1436
3242 1404
3243 1468
3244 1364
3245 1436
3246 1396
3247 1468
3248 1496
3249 1176
3250 1528
3251 1208
3252 1488
3253 1176
3254 1520
3255 1208
3256 1496
3257 1432
3258 1528
3259 1464
3260 1488
3261 1432
3262 1520
3263 1464
3264 1368
3265 1176
3266 1400
3267 1208
3268 1360
3269 1176
3270 1392
3271 1208
3272 1372
3273 1436
3274 1404
3275 1468
3276 1364
3277 1436
3278 1396
3279 1468
3280 1496
3281 1176
3282 1528
3283 1208
3284 1488
3285 1176
3286 1520
3287 1208
3288 1496
3289 1432
3290 1528
3291 1464
3292 1488
3293 1432
3294 1520
3295 1464
3296 1368
3297 1176
3298 1400
3299 1208
3300 1360
3301 1176
3302 1392
3303 1208
3304 1372
3305 1436
3306 1404
3307 1468
3308 1364
3309 1436
3310 1396
3311 1468
3312 1496
3313 1176
3314 1528
3315 1208
3316 1488
3317 1176
3318 1520
3319 1208
3320 1496
3321 1432
3322 1528
3323 1464
3324 1488
3325 1432
3326 1520
3327 1464
3328 3386
3329 2234
3330 3386
3331 2234
3332 3378
3333 2234
3334 3378
3335 2234
3336 3390
3337 2494
3338 3390
3339 2494
3340 3382
3341 2494
3342 3382
3343 2494
3344 3515
3345 2235
3346 3515
3347 2235
3348 3507
3349 2235
3350 3507
3351 2235
3352 3515
3353 2491
3354 3515
3355 2491
3356 3507
3357 2491
3358 3507
3359 2491
3360 3386
3361 2234
3362 3386
3363 2234
3364 3378
3365 2234
3366 3378
3367 2234
3368 3390
3369 2494
3370 3390
3371 2494
3372 3382
3373 2494
3374 3382
3375 2494
3376 3515
3377 2235
3378 3515
3379 2235
3380 3507
3381 2235
3382 3507
3383 2235
3384 3515
3385 2491
3386 3515
3387 2491
3388 3507
3389 2491
3390 3507
3391 2491
3392 3386
3393 2234
3394 3386
3395 2234
3396 3378
3397 2234
3398 3378
3399 2234
3400 3390
3401 2494
3402 3390
3403 2494
3404 3382
3405 2494
3406 3382
3407 2494
3408 3515
3409 2235
3410 3515
3411 2235
3412 3507
3413 2235
3414 3507
3415 2235
3416 3515
3417 2491
3418 3515
3419 2491
3420 3507
3421 2491
3422 3507
3423 2491
3424 3386
3425 2234
3426 3386
3427 2234
3428 3378
3429 2234
3430 3378
3431 2234
3432 3390
3433 2494
3434 3390
3435 2494
3436 3382
3437 2494
3438 3382
3439 2494
3440 3515
3441 2235
3442 3515
3443 2235
3444 3507
3445 2235
3446 3507
3447 2235
3448 3515
3449 2491
3450 3515
3451 2491
3452 3507
3453 2491
3454 3507
3455 2491
3456 1336
3457 184
3458 1336
3459 184
3460 1328
3461 184
3462 1328
3463 184
3464 1340
3465 444
3466 1340
3467 444
3468 1332
3469 444
3470 1332
3471 444
3472 1465
3473 185
3474 1465
3475 185
3476 1457
3477 185
3478 1457
3479 185
3480 1465
3481 441
3482 1465
3483 441
3484 1457
3485 441
3486 1457
3487 441
3488 1336
3489 184
3490 1336
3491 184
3492 1328
3493 184
3494 1328
3495 184
3496 1340
3497 444
3498 1340
3499 444
3500 1332
3501 444
3502 1332
3503 444
3504 1465
3505 185
3506 1465
3507 185
3508 1457
3509 185
3510 1457
3511 185
3512 1465
3513 441
3514 1465
3515 441
3516 1457
3517 441
3518 1457
3519 441
3520 1336
3521 184
3522 1336
3523 184
3524 1328
3525 184
3526 1328
3527 184
3528 1340
3529 444
3530 1340
3531 444
3532 1332
3533 444
3534 1332
3535 444
3536 1465
3537 185
3538 1465
3539 185
3540 1457
3541 185
3542 1457
3543 185
3544 1465
3545 441
3546 1465
3547 441
3548 1457
3549 441
3550 1457
3551 441
3552 1336
3553 184
3554 1336
3555 184
3556 1328
3557 184
3558 1328
3559 184
3560 1340
3561 444
3562 1340
3563 444
3564 1332
3565 444
3566 1332
3567 444
3568 1465
3569 185
3570 1465
3571 185
3572 1457
3573 185
3574 1457
3575 185
3576 1465
3577 441
3578 1465
3579 441
3580 1457
3581 441
3582 1457
3583 441
3584 3912
3585 3720
3586 3944
3587 3752
3588 3904
3589 3720
3590 3936
3591 3752
3592 3916
3593 3980
3594 3948
3595 4012
3596 3908
3597 3980
3598 3940
3599 4012
3600 3528
3601 3208
3602 3560
3603 3240
3604 3520
3605 3208
3606 3552
3607 3240
3608 3528
3609 3464
3610 3560
3611 3496
3612 3520
3613 3464
3614 3552
3615 3496
3616 3912
3617 3720
3618 3944
3619 3752
3620 3904
3621 3720
3622 3936
3623 3752
3624 3916
3625 3980
3626 3948
3627 4012
3628 3908
3629 3980
3630 3940
3631 4012
3632 3528
3633 3208
3634 3560
3635 3240
3636 3520
3637 3208
3638 3552
3639 3240
3640 3528
3641 3464
3642 3560
3643 3496
3644 3520
3645 3464
3646 3552
3647 3496
3648 3912
3649 3720
3650 3944
3651 3752
3652 3904
3653 3720
3654 3936
3655 3752
3656 3916
3657 3980
3658 3948
3659 4012
3660 3908
3661 3980
3662 3940
3663 4012
3664 3528
3665 3208
3666 3560
3667 3240
3668 3520
3669 3208
3670 3552
3671 3240
3672 3528
3673 3464
3674 3560
3675 3496
3676 3520
3677 3464
3678 3552
3679 3496
3680 3912
3681 3720
3682 3944
3683 3752
3684 3904
3685 3720
3686 3936
3687 3752
3688 3916
3689 3980
3690 3948
3691 4012
3692 3908
3693 3980
3694 3940
3695 4012
3696 3528
3697 3208
3698 3560
3699 3240
3700 3520
3701 3208
3702 3552
3703 3240
3704 3528
3705 3464
3706 3560
3707 3496
3708 3520
3709 3464
3710 3552
3711 3496
3712 1864
3713 1672
3714 1896
3715 1704
3716 1856
3717 1672
3718 1888
3719 1704
3720 1868
3721 1932
3722 1900
3723 1964
3724 1860
3725 1932
3726 1892
3727 1964
3728 1480
3729 1160
3730 1512
3731 1192
3732 1472
3733 1160
3734 1504
3735 1192
3736 1480
3737 1416
3738 1512
3739 1448
3740 1472
3741 1416
3742 1504
3743 1448
3744 1864
3745 1672
3746 1896
3747 1704
3748 1856
3749 1672
3750 1888
3751 1704
3752 1868
3753 1932
3754 1900
3755 1964
3756 1860
3757 1932
3758 1892
3759 1964
3760 1480
3761 1160
3762 1512
3763 1192
3764 1472
3765 1160
3766 1504
3767 1192
3768 1480
3769 1416
3770 1512
3771 1448
3772 1472
3773 1416
3774 1504
3775 1448
3776 1864
3777 1672
3778 1896
3779 1704
3780 1856
3781 1672
3782 1888
3783 1704
3784 1868
3785 1932
3786 1900
3787 1964
3788 1860
3789 1932
3790 1892
3791 1964
3792 1480
3793 1160
3794 1512
3795 1192
3796 1472
3797 1160
3798 1504
3799 1192
3800 1480
3801 1416
3802 1512
3803 1448
3804 1472
3805 1416
3806 1504
3807 1448
3808 1864
3809 1672
3810 1896
3811 1704
3812 1856
3813 1672
3814 1888
3815 1704
3816 1868
3817 1932
3818 1900
3819 1964
3820 1860
3821 1932
3822 1892
3823 1964
3824 1480
3825 1160
3826 1512
3827 1192
3828 1472
3829 1160
3830 1504
3831 1192
3832 1480
3833 1416
3834 1512
3835 1448
3836 1472
3837 1416
3838 1504
3839 1448
3840 3882
3841 2730
3842 3882
3843 2730
3844 3874
3845 2730
3846 3874
3847 2730
3848 3886
3849 2990
3850 3886
3851 2990
3852 3878
3853 2990
3854 3878
3855 2990
3856 3499
3857 2219
3858 3499
3859 2219
3860 3491
3861 2219
3862 3491
3863 2219
3864 3499
3865 2475
3866 3499
3867 2475
3868 3491
3869 2475
3870 3491
3871 2475
3872 3882
3873 2730
3874 3882
3875 2730
3876 3874
3877 2730
3878 3874
3879 2730
3880 3886
3881 2990
3882 3886
3883 2990
3884 3878
3885 2990
3886 3878
3887 2990
3888 3499
3889 2219
3890 3499
3891 2219
3892 3491
3893 2219
3894 3491
3895 2219
3896 3499
3897 2475
3898 3499
3899 2475
3900 3491
3901 2475
3902 3491
3903 2475
3904 3882
3905 2730
3906 3882
3907 2730
3908 3874
3909 2730
3910 3874
3911 2730
3912 3886
3913 2990
3914 3886
3915 2990
3916 3878
3917 2990
3918 3878
3919 2990
3920 3499
3921 2219
3922 3499
3923 2219
3924 3491
3925 2219
3926 3491
3927 2219
3928 3499
3929 2475
3930 3499
3931 2475
3932 3491
3933 2475
3934 3491
3935 2475
3936 3882
3937 2730
3938 3882
3939 2730
3940 3874
3941 2730
3942 3874
3943 2730
3944 3886
3945 2990
3946 3886
3947 2990
3948 3878
3949 2990
3950 3878
3951 2990
3952 3499
3953 2219
3954 3499
3955 2219
3956 3491
3957 2219
3958 3491
3959 2219
3960 3499
3961 2475
3962 3499
3963 2475
3964 3491
3965 2475
3966 3491
3967 2475
3968 1832
3969 680
3970 1832
3971 680
3972 1824
3973 680
3974 1824
3975 680
3976 1836
3977 940
3978 1836
3979 940
3980 1828
3981 940
3982 1828
3983 940
3984 1449
3985 169
3986 1449
3987 169
3988 1441
3989 169
3990 1441
3991 169
3992 1449
3993 425
3994 1449
3995 425
3996 1441
3997 425
3998 1441
3999 425
4000 1832
4001 680
4002 1832
4003 680
4004 1824
4005 680
4006 1824
4007 680
4008 1836
4009 940
4010 1836
4011 940
4012 1828
4013 940
4014 1828
4015 940
4016 1449
4017 169
4018 1449
4019 169
4020 1441
4021 169
4022 1441
4023 169
4024 1449
4025 425
4026 1449
4027 425
4028 1441
4029 425
4030 1441
4031 425
4032 1832
4033 680
4034 1832
4035 680
4036 1824
4037 680
4038 1824
4039 680
4040 1836
4041 940
4042 1836
4043 940
4044 1828
4045 940
4046 1828
4047 940
4048 1449
4049 169
4050 1449
4051 169
4052 1441
4053 169
4054 1441
4055 169
4056 1449
4057 425
4058 1449
4059 425
4060 1441
4061 425
4062 1441
4063 425
4064 1832
4065 680
4066 1832
4067 680
4068 1824
4069 680
4070 1824
4071 680
4072 1836
4073 940
4074 1836
4075 940
4076 1828
4077 940
4078 1828
4079 940
4080 1449
4081 169
4082 1449
4083 169
4084 1441
4085 169
4086 1441
4087 169
4088 1449
4089 425
4090 1449
4091 425
4092 1441
4093 425
4094 1441
4095 425
