4096
0 3383
1 3474
2 3895
3 3986
4 3383
5 3474
6 3895
7 3986
8 3383
9 3474
10 3895
11 3986
12 3383
13 3474
14 3895
15 3986
16 3383
17 3474
18 3895
19 3986
20 3383
21 3474
22 3895
23 3986
24 3383
25 3474
26 3895
27 3986
28 3383
29 3474
30 3895
31 3986
32 3127
33 3218
34 3647
35 3738
36 3127
37 3218
38 3639
39 3730
40 3127
41 3218
42 3647
43 3738
44 3127
45 3218
46 3639
47 3730
48 3127
49 3218
50 3647
51 3738
52 3127
53 3218
54 3639
55 3730
56 3127
57 3218
58 3647
59 3738
60 3127
61 3218
62 3639
63 3730
64 3351
65 3474
66 3863
67 3986
68 3351
69 3474
70 3863
71 3986
72 3351
73 3474
74 3863
75 3986
76 3351
77 3474
78 3863
79 3986
80 3351
81 3346
82 3863
83 3858
84 3351
85 3346
86 3863
87 3858
88 3351
89 3346
90 3863
91 3858
92 3351
93 3346
94 3863
95 3858
96 3091
97 3218
98 3611
99 3738
100 3091
101 3218
102 3603
103 3730
104 3091
105 3218
106 3611
107 3738
108 3091
109 3218
110 3603
111 3730
112 3091
113 3090
114 3611
115 3610
116 3091
117 3090
118 3603
119 3602
120 3091
121 3090
122 3611
123 3610
124 3091
125 3090
126 3603
127 3602
128 2359
129 2450
130 2871
131 2962
132 2359
133 2450
134 2871
135 2962
136 3383
137 3474
138 3895
139 3986
140 3383
141 3474
142 3895
143 3986
144 2359
145 2450
146 2871
147 2962
148 2359
149 2450
150 2871
151 2962
152 3383
153 3474
154 3895
155 3986
156 3383
157 3474
158 3895
159 3986
160 2103
161 2194
162 2623
163 2714
164 2103
165 2194
166 2615
167 2706
168 3127
169 3218
170 3647
171 3738
172 3127
173 3218
174 3639
175 3730
176 2103
177 2194
178 2623
179 2714
180 2103
181 2194
182 2615
183 2706
184 3127
185 3218
186 3647
187 3738
188 3127
189 3218
190 3639
191 3730
192 2327
193 2450
194 2839
195 2962
196 2327
197 2450
198 2839
199 2962
200 3351
201 3474
202 3863
203 3986
204 3351
205 3474
206 3863
207 3986
208 2327
209 2322
210 2839
211 2834
212 2327
213 2322
214 2839
215 2834
216 3351
217 3346
218 3863
219 3858
220 3351
221 3346
222 3863
223 3858
224 2067
225 2194
226 2587
227 2714
228 2067
229 2194
230 2579
231 2706
232 3091
233 3218
234 3611
235 3738
236 3091
237 3218
238 3603
239 3730
240 2067
241 2066
242 2587
243 2586
244 2067
245 2066
246 2579
247 2578
248 3091
249 3090
250 3611
251 3610
252 3091
253 3090
254 3603
255 3602
256 3351
257 3474
258 3863
259 3986
260 3351
261 3474
262 3863
263 3986
264 3351
265 3474
266 3863
267 3986
268 3351
269 3474
270 3863
271 3986
272 3351
273 3474
274 3863
275 3986
276 3351
277 3474
278 3863
279 3986
280 3351
281 3474
282 3863
283 3986
284 3351
285 3474
286 3863
287 3986
288 3095
289 3218
290 3615
291 3738
292 3095
293 3218
294 3607
295 3730
296 3095
297 3218
298 3615
299 3738
300 3095
301 3218
302 3607
303 3730
304 3095
305 3218
306 3615
307 3738
308 3095
309 3218
310 3607
311 3730
312 3095
313 3218
314 3615
315 3738
316 3095
317 3218
318 3607
319 3730
320 3351
321 3474
322 3863
323 3986
324 3351
325 3474
326 3863
327 3986
328 3351
329 3474
330 3863
331 3986
332 3351
333 3474
334 3863
335 3986
336 3351
337 3474
338 3863
339 3986
340 3351
341 3474
342 3863
343 3986
344 3351
345 3474
346 3863
347 3986
348 3351
349 3474
350 3863
351 3986
352 3091
353 3218
354 3611
355 3738
356 3091
357 3218
358 3603
359 3730
360 3091
361 3218
362 3611
363 3738
364 3091
365 3218
366 3603
367 3730
368 3091
369 3218
370 3611
371 3738
372 3091
373 3218
374 3603
375 3730
376 3091
377 3218
378 3611
379 3738
380 3091
381 3218
382 3603
383 3730
384 2327
385 2450
386 2839
387 2962
388 2391
389 2514
390 2903
391 3026
392 2327
393 2450
394 2839
395 2962
396 2391
397 2514
398 2903
399 3026
400 2327
401 2450
402 2839
403 2962
404 2391
405 2514
406 2903
407 3026
408 2327
409 2450
410 2839
411 2962
412 2391
413 2514
414 2903
415 3026
416 2071
417 2194
418 2591
419 2714
420 2135
421 2258
422 2647
423 2770
424 2071
425 2194
426 2591
427 2714
428 2135
429 2258
430 2647
431 2770
432 2071
433 2194
434 2591
435 2714
436 2135
437 2258
438 2647
439 2770
440 2071
441 2194
442 2591
443 2714
444 2135
445 2258
446 2647
447 2770
448 2327
449 2450
450 2839
451 2962
452 2391
453 2514
454 2903
455 3026
456 2327
457 2450
458 2839
459 2962
460 2391
461 2514
462 2903
463 3026
464 2327
465 2450
466 2839
467 2962
468 2391
469 2514
470 2903
471 3026
472 2327
473 2450
474 2839
475 2962
476 2391
477 2514
478 2903
479 3026
480 2067
481 2194
482 2587
483 2714
484 2131
485 2258
486 2643
487 2770
488 2067
489 2194
490 2587
491 2714
492 2131
493 2258
494 2643
495 2770
496 2067
497 2194
498 2587
499 2714
500 2131
501 2258
502 2643
503 2770
504 2067
505 2194
506 2587
507 2714
508 2131
509 2258
510 2643
511 2770
512 3127
513 3218
514 1079
515 1170
516 3127
517 3218
518 1079
519 1170
520 3127
521 3218
522 1079
523 1170
524 3127
525 3218
526 1079
527 1170
528 3127
529 3218
530 1079
531 1170
532 3127
533 3218
534 1079
535 1170
536 3127
537 3218
538 1079
539 1170
540 3127
541 3218
542 1079
543 1170
544 3127
545 3218
546 1087
547 1178
548 3127
549 3218
550 1079
551 1170
552 3127
553 3218
554 1087
555 1178
556 3127
557 3218
558 1079
559 1170
560 3127
561 3218
562 1087
563 1178
564 3127
565 3218
566 1079
567 1170
568 3127
569 3218
570 1087
571 1178
572 3127
573 3218
574 1079
575 1170
576 3095
577 3218
578 3095
579 3218
580 3095
581 3218
582 3095
583 3218
584 3095
585 3218
586 3095
587 3218
588 3095
589 3218
590 3095
591 3218
592 3095
593 3090
594 3095
595 3090
596 3095
597 3090
598 3095
599 3090
600 3095
601 3090
602 3095
603 3090
604 3095
605 3090
606 3095
607 3090
608 3091
609 3218
610 3099
611 3226
612 3091
613 3218
614 3091
615 3218
616 3091
617 3218
618 3099
619 3226
620 3091
621 3218
622 3091
623 3218
624 3091
625 3090
626 3099
627 3098
628 3091
629 3090
630 3091
631 3090
632 3091
633 3090
634 3099
635 3098
636 3091
637 3090
638 3091
639 3090
640 2103
641 2194
642 55
643 146
644 2103
645 2194
646 55
647 146
648 3127
649 3218
650 1079
651 1170
652 3127
653 3218
654 1079
655 1170
656 2103
657 2194
658 55
659 146
660 2103
661 2194
662 55
663 146
664 3127
665 3218
666 1079
667 1170
668 3127
669 3218
670 1079
671 1170
672 2103
673 2194
674 63
675 154
676 2103
677 2194
678 55
679 146
680 3127
681 3218
682 1087
683 1178
684 3127
685 3218
686 1079
687 1170
688 2103
689 2194
690 63
691 154
692 2103
693 2194
694 55
695 146
696 3127
697 3218
698 1087
699 1178
700 3127
701 3218
702 1079
703 1170
704 2071
705 2194
706 2071
707 2194
708 2071
709 2194
710 2071
711 2194
712 3095
713 3218
714 3095
715 3218
716 3095
717 3218
718 3095
719 3218
720 2071
721 2066
722 2071
723 2066
724 2071
725 2066
726 2071
727 2066
728 3095
729 3090
730 3095
731 3090
732 3095
733 3090
734 3095
735 3090
736 2067
737 2194
738 2075
739 2202
740 2067
741 2194
742 2067
743 2194
744 3091
745 3218
746 3099
747 3226
748 3091
749 3218
750 3091
751 3218
752 2067
753 2066
754 2075
755 2074
756 2067
757 2066
758 2067
759 2066
760 3091
761 3090
762 3099
763 3098
764 3091
765 3090
766 3091
767 3090
768 3095
769 3218
770 1047
771 1170
772 3095
773 3218
774 1047
775 1170
776 3095
777 3218
778 1047
779 1170
780 3095
781 3218
782 1047
783 1170
784 3095
785 3218
786 1047
787 1170
788 3095
789 3218
790 1047
791 1170
792 3095
793 3218
794 1047
795 1170
796 3095
797 3218
798 1047
799 1170
800 3095
801 3218
802 1055
803 1178
804 3095
805 3218
806 1047
807 1170
808 3095
809 3218
810 1055
811 1178
812 3095
813 3218
814 1047
815 1170
816 3095
817 3218
818 1055
819 1178
820 3095
821 3218
822 1047
823 1170
824 3095
825 3218
826 1055
827 1178
828 3095
829 3218
830 1047
831 1170
832 3095
833 3218
834 3095
835 3218
836 3095
837 3218
838 3095
839 3218
840 3095
841 3218
842 3095
843 3218
844 3095
845 3218
846 3095
847 3218
848 3095
849 3218
850 3095
851 3218
852 3095
853 3218
854 3095
855 3218
856 3095
857 3218
858 3095
859 3218
860 3095
861 3218
862 3095
863 3218
864 3091
865 3218
866 3099
867 3226
868 3091
869 3218
870 3091
871 3218
872 3091
873 3218
874 3099
875 3226
876 3091
877 3218
878 3091
879 3218
880 3091
881 3218
882 3099
883 3226
884 3091
885 3218
886 3091
887 3218
888 3091
889 3218
890 3099
891 3226
892 3091
893 3218
894 3091
895 3218
896 2071
897 2194
898 23
899 146
900 2135
901 2258
902 87
903 210
904 2071
905 2194
906 23
907 146
908 2135
909 2258
910 87
911 210
912 2071
913 2194
914 23
915 146
916 2135
917 2258
918 87
919 210
920 2071
921 2194
922 23
923 146
924 2135
925 2258
926 87
927 210
928 2071
929 2194
930 31
931 154
932 2135
933 2258
934 87
935 210
936 2071
937 2194
938 31
939 154
940 2135
941 2258
942 87
943 210
944 2071
945 2194
946 31
947 154
948 2135
949 2258
950 87
951 210
952 2071
953 2194
954 31
955 154
956 2135
957 2258
958 87
959 210
960 2071
961 2194
962 2071
963 2194
964 2135
965 2258
966 2135
967 2258
968 2071
969 2194
970 2071
971 2194
972 2135
973 2258
974 2135
975 2258
976 2071
977 2194
978 2071
979 2194
980 2135
981 2258
982 2135
983 2258
984 2071
985 2194
986 2071
987 2194
988 2135
989 2258
990 2135
991 2258
992 2067
993 2194
994 2075
995 2202
996 2131
997 2258
998 2131
999 2258
1000 2067
1001 2194
1002 2075
1003 2202
1004 2131
1005 2258
1006 2131
1007 2258
1008 2067
1009 2194
1010 2075
1011 2202
1012 2131
1013 2258
1014 2131
1015 2258
1016 2067
1017 2194
1018 2075
1019 2202
1020 2131
1021 2258
1022 2131
1023 2258
1024 3095
1025 3218
1026 3607
1027 3730
1028 3095
1029 3218
1030 3095
1031 3218
1032 3095
1033 3218
1034 3607
1035 3730
1036 3095
1037 3218
1038 3095
1039 3218
1040 3095
1041 3218
1042 3607
1043 3730
1044 3095
1045 3218
1046 3095
1047 3218
1048 3095
1049 3218
1050 3607
1051 3730
1052 3095
1053 3218
1054 3095
1055 3218
1056 3095
1057 3218
1058 3607
1059 3730
1060 3095
1061 3218
1062 3095
1063 3218
1064 3095
1065 3218
1066 3607
1067 3730
1068 3095
1069 3218
1070 3095
1071 3218
1072 3095
1073 3218
1074 3607
1075 3730
1076 3095
1077 3218
1078 3095
1079 3218
1080 3095
1081 3218
1082 3607
1083 3730
1084 3095
1085 3218
1086 3095
1087 3218
1088 3095
1089 3218
1090 3607
1091 3730
1092 3095
1093 3218
1094 3095
1095 3218
1096 3095
1097 3218
1098 3607
1099 3730
1100 3095
1101 3218
1102 3095
1103 3218
1104 3095
1105 3090
1106 3607
1107 3602
1108 3095
1109 3090
1110 3095
1111 3090
1112 3095
1113 3090
1114 3607
1115 3602
1116 3095
1117 3090
1118 3095
1119 3090
1120 3091
1121 3218
1122 3603
1123 3730
1124 3091
1125 3218
1126 3091
1127 3218
1128 3091
1129 3218
1130 3603
1131 3730
1132 3091
1133 3218
1134 3091
1135 3218
1136 3091
1137 3090
1138 3603
1139 3602
1140 3091
1141 3090
1142 3091
1143 3090
1144 3091
1145 3090
1146 3603
1147 3602
1148 3091
1149 3090
1150 3091
1151 3090
1152 2071
1153 2194
1154 2583
1155 2706
1156 2071
1157 2194
1158 2071
1159 2194
1160 3095
1161 3218
1162 3607
1163 3730
1164 3095
1165 3218
1166 3095
1167 3218
1168 2071
1169 2194
1170 2583
1171 2706
1172 2071
1173 2194
1174 2071
1175 2194
1176 3095
1177 3218
1178 3607
1179 3730
1180 3095
1181 3218
1182 3095
1183 3218
1184 2071
1185 2194
1186 2583
1187 2706
1188 2071
1189 2194
1190 2071
1191 2194
1192 3095
1193 3218
1194 3607
1195 3730
1196 3095
1197 3218
1198 3095
1199 3218
1200 2071
1201 2194
1202 2583
1203 2706
1204 2071
1205 2194
1206 2071
1207 2194
1208 3095
1209 3218
1210 3607
1211 3730
1212 3095
1213 3218
1214 3095
1215 3218
1216 2071
1217 2194
1218 2583
1219 2706
1220 2071
1221 2194
1222 2071
1223 2194
1224 3095
1225 3218
1226 3607
1227 3730
1228 3095
1229 3218
1230 3095
1231 3218
1232 2071
1233 2066
1234 2583
1235 2578
1236 2071
1237 2066
1238 2071
1239 2066
1240 3095
1241 3090
1242 3607
1243 3602
1244 3095
1245 3090
1246 3095
1247 3090
1248 2067
1249 2194
1250 2579
1251 2706
1252 2067
1253 2194
1254 2067
1255 2194
1256 3091
1257 3218
1258 3603
1259 3730
1260 3091
1261 3218
1262 3091
1263 3218
1264 2067
1265 2066
1266 2579
1267 2578
1268 2067
1269 2066
1270 2067
1271 2066
1272 3091
1273 3090
1274 3603
1275 3602
1276 3091
1277 3090
1278 3091
1279 3090
1280 3095
1281 3218
1282 3607
1283 3730
1284 3159
1285 3282
1286 3159
1287 3282
1288 3095
1289 3218
1290 3607
1291 3730
1292 3159
1293 3282
1294 3159
1295 3282
1296 3095
1297 3218
1298 3607
1299 3730
1300 3159
1301 3282
1302 3159
1303 3282
1304 3095
1305 3218
1306 3607
1307 3730
1308 3159
1309 3282
1310 3159
1311 3282
1312 3095
1313 3218
1314 3607
1315 3730
1316 3159
1317 3282
1318 3159
1319 3282
1320 3095
1321 3218
1322 3607
1323 3730
1324 3159
1325 3282
1326 3159
1327 3282
1328 3095
1329 3218
1330 3607
1331 3730
1332 3159
1333 3282
1334 3159
1335 3282
1336 3095
1337 3218
1338 3607
1339 3730
1340 3159
1341 3282
1342 3159
1343 3282
1344 3095
1345 3218
1346 3607
1347 3730
1348 3159
1349 3282
1350 3159
1351 3282
1352 3095
1353 3218
1354 3607
1355 3730
1356 3159
1357 3282
1358 3159
1359 3282
1360 3095
1361 3218
1362 3607
1363 3730
1364 3159
1365 3282
1366 3159
1367 3282
1368 3095
1369 3218
1370 3607
1371 3730
1372 3159
1373 3282
1374 3159
1375 3282
1376 3091
1377 3218
1378 3603
1379 3730
1380 3155
1381 3282
1382 3155
1383 3282
1384 3091
1385 3218
1386 3603
1387 3730
1388 3155
1389 3282
1390 3155
1391 3282
1392 3091
1393 3218
1394 3603
1395 3730
1396 3155
1397 3282
1398 3155
1399 3282
1400 3091
1401 3218
1402 3603
1403 3730
1404 3155
1405 3282
1406 3155
1407 3282
1408 2071
1409 2194
1410 2583
1411 2706
1412 2135
1413 2258
1414 2135
1415 2258
1416 2071
1417 2194
1418 2583
1419 2706
1420 2135
1421 2258
1422 2135
1423 2258
1424 2071
1425 2194
1426 2583
1427 2706
1428 2135
1429 2258
1430 2135
1431 2258
1432 2071
1433 2194
1434 2583
1435 2706
1436 2135
1437 2258
1438 2135
1439 2258
1440 2071
1441 2194
1442 2583
1443 2706
1444 2135
1445 2258
1446 2135
1447 2258
1448 2071
1449 2194
1450 2583
1451 2706
1452 2135
1453 2258
1454 2135
1455 2258
1456 2071
1457 2194
1458 2583
1459 2706
1460 2135
1461 2258
1462 2135
1463 2258
1464 2071
1465 2194
1466 2583
1467 2706
1468 2135
1469 2258
1470 2135
1471 2258
1472 2071
1473 2194
1474 2583
1475 2706
1476 2135
1477 2258
1478 2135
1479 2258
1480 2071
1481 2194
1482 2583
1483 2706
1484 2135
1485 2258
1486 2135
1487 2258
1488 2071
1489 2194
1490 2583
1491 2706
1492 2135
1493 2258
1494 2135
1495 2258
1496 2071
1497 2194
1498 2583
1499 2706
1500 2135
1501 2258
1502 2135
1503 2258
1504 2067
1505 2194
1506 2579
1507 2706
1508 2131
1509 2258
1510 2131
1511 2258
1512 2067
1513 2194
1514 2579
1515 2706
1516 2131
1517 2258
1518 2131
1519 2258
1520 2067
1521 2194
1522 2579
1523 2706
1524 2131
1525 2258
1526 2131
1527 2258
1528 2067
1529 2194
1530 2579
1531 2706
1532 2131
1533 2258
1534 2131
1535 2258
1536 3095
1537 3218
1538 1047
1539 1170
1540 3095
1541 3218
1542 1047
1543 1170
1544 3095
1545 3218
1546 1047
1547 1170
1548 3095
1549 3218
1550 1047
1551 1170
1552 3095
1553 3218
1554 1047
1555 1170
1556 3095
1557 3218
1558 1047
1559 1170
1560 3095
1561 3218
1562 1047
1563 1170
1564 3095
1565 3218
1566 1047
1567 1170
1568 3095
1569 3218
1570 1047
1571 1170
1572 3095
1573 3218
1574 1047
1575 1170
1576 3095
1577 3218
1578 1047
1579 1170
1580 3095
1581 3218
1582 1047
1583 1170
1584 3095
1585 3218
1586 1047
1587 1170
1588 3095
1589 3218
1590 1047
1591 1170
1592 3095
1593 3218
1594 1047
1595 1170
1596 3095
1597 3218
1598 1047
1599 1170
1600 3095
1601 3218
1602 3095
1603 3218
1604 3095
1605 3218
1606 3095
1607 3218
1608 3095
1609 3218
1610 3095
1611 3218
1612 3095
1613 3218
1614 3095
1615 3218
1616 3095
1617 3090
1618 3095
1619 3090
1620 3095
1621 3090
1622 3095
1623 3090
1624 3095
1625 3090
1626 3095
1627 3090
1628 3095
1629 3090
1630 3095
1631 3090
1632 3091
1633 3218
1634 3091
1635 3218
1636 3091
1637 3218
1638 3091
1639 3218
1640 3091
1641 3218
1642 3091
1643 3218
1644 3091
1645 3218
1646 3091
1647 3218
1648 3091
1649 3090
1650 3091
1651 3090
1652 3091
1653 3090
1654 3091
1655 3090
1656 3091
1657 3090
1658 3091
1659 3090
1660 3091
1661 3090
1662 3091
1663 3090
1664 2071
1665 2194
1666 23
1667 146
1668 2071
1669 2194
1670 23
1671 146
1672 3095
1673 3218
1674 1047
1675 1170
1676 3095
1677 3218
1678 1047
1679 1170
1680 2071
1681 2194
1682 23
1683 146
1684 2071
1685 2194
1686 23
1687 146
1688 3095
1689 3218
1690 1047
1691 1170
1692 3095
1693 3218
1694 1047
1695 1170
1696 2071
1697 2194
1698 23
1699 146
1700 2071
1701 2194
1702 23
1703 146
1704 3095
1705 3218
1706 1047
1707 1170
1708 3095
1709 3218
1710 1047
1711 1170
1712 2071
1713 2194
1714 23
1715 146
1716 2071
1717 2194
1718 23
1719 146
1720 3095
1721 3218
1722 1047
1723 1170
1724 3095
1725 3218
1726 1047
1727 1170
1728 2071
1729 2194
1730 2071
1731 2194
1732 2071
1733 2194
1734 2071
1735 2194
1736 3095
1737 3218
1738 3095
1739 3218
1740 3095
1741 3218
1742 3095
1743 3218
1744 2071
1745 2066
1746 2071
1747 2066
1748 2071
1749 2066
1750 2071
1751 2066
1752 3095
1753 3090
1754 3095
1755 3090
1756 3095
1757 3090
1758 3095
1759 3090
1760 2067
1761 2194
1762 2067
1763 2194
1764 2067
1765 2194
1766 2067
1767 2194
1768 3091
1769 3218
1770 3091
1771 3218
1772 3091
1773 3218
1774 3091
1775 3218
1776 2067
1777 2066
1778 2067
1779 2066
1780 2067
1781 2066
1782 2067
1783 2066
1784 3091
1785 3090
1786 3091
1787 3090
1788 3091
1789 3090
1790 3091
1791 3090
1792 3095
1793 3218
1794 1047
1795 1170
1796 3159
1797 3282
1798 1111
1799 1234
1800 3095
1801 3218
1802 1047
1803 1170
1804 3159
1805 3282
1806 1111
1807 1234
1808 3095
1809 3218
1810 1047
1811 1170
1812 3159
1813 3282
1814 1111
1815 1234
1816 3095
1817 3218
1818 1047
1819 1170
1820 3159
1821 3282
1822 1111
1823 1234
1824 3095
1825 3218
1826 1047
1827 1170
1828 3159
1829 3282
1830 1111
1831 1234
1832 3095
1833 3218
1834 1047
1835 1170
1836 3159
1837 3282
1838 1111
1839 1234
1840 3095
1841 3218
1842 1047
1843 1170
1844 3159
1845 3282
1846 1111
1847 1234
1848 3095
1849 3218
1850 1047
1851 1170
1852 3159
1853 3282
1854 1111
1855 1234
1856 3095
1857 3218
1858 3095
1859 3218
1860 3159
1861 3282
1862 3159
1863 3282
1864 3095
1865 3218
1866 3095
1867 3218
1868 3159
1869 3282
1870 3159
1871 3282
1872 3095
1873 3218
1874 3095
1875 3218
1876 3159
1877 3282
1878 3159
1879 3282
1880 3095
1881 3218
1882 3095
1883 3218
1884 3159
1885 3282
1886 3159
1887 3282
1888 3091
1889 3218
1890 3091
1891 3218
1892 3155
1893 3282
1894 3155
1895 3282
1896 3091
1897 3218
1898 3091
1899 3218
1900 3155
1901 3282
1902 3155
1903 3282
1904 3091
1905 3218
1906 3091
1907 3218
1908 3155
1909 3282
1910 3155
1911 3282
1912 3091
1913 3218
1914 3091
1915 3218
1916 3155
1917 3282
1918 3155
1919 3282
1920 2071
1921 2194
1922 23
1923 146
1924 2135
1925 2258
1926 87
1927 210
1928 2071
1929 2194
1930 23
1931 146
1932 2135
1933 2258
1934 87
1935 210
1936 2071
1937 2194
1938 23
1939 146
1940 2135
1941 2258
1942 87
1943 210
1944 2071
1945 2194
1946 23
1947 146
1948 2135
1949 2258
1950 87
1951 210
1952 2071
1953 2194
1954 23
1955 146
1956 2135
1957 2258
1958 87
1959 210
1960 2071
1961 2194
1962 23
1963 146
1964 2135
1965 2258
1966 87
1967 210
1968 2071
1969 2194
1970 23
1971 146
1972 2135
1973 2258
1974 87
1975 210
1976 2071
1977 2194
1978 23
1979 146
1980 2135
1981 2258
1982 87
1983 210
1984 2071
1985 2194
1986 2071
1987 2194
1988 2135
1989 2258
1990 2135
1991 2258
1992 2071
1993 2194
1994 2071
1995 2194
1996 2135
1997 2258
1998 2135
1999 2258
2000 2071
2001 2194
2002 2071
2003 2194
2004 2135
2005 2258
2006 2135
2007 2258
2008 2071
2009 2194
2010 2071
2011 2194
2012 2135
2013 2258
2014 2135
2015 2258
2016 2067
2017 2194
2018 2067
2019 2194
2020 2131
2021 2258
2022 2131
2023 2258
2024 2067
2025 2194
2026 2067
2027 2194
2028 2131
2029 2258
2030 2131
2031 2258
2032 2067
2033 2194
2034 2067
2035 2194
2036 2131
2037 2258
2038 2131
2039 2258
2040 2067
2041 2194
2042 2067
2043 2194
2044 2131
2045 2258
2046 2131
2047 2258
2048 1057
2049 1152
2050 1585
2051 1680
2052 1057
2053 1152
2054 1569
2055 1664
2056 1057
2057 1152
2058 1585
2059 1680
2060 1057
2061 1152
2062 1569
2063 1664
2064 1073
2065 1168
2066 1585
2067 1680
2068 1057
2069 1152
2070 1569
2071 1664
2072 1073
2073 1168
2074 1585
2075 1680
2076 1057
2077 1152
2078 1569
2079 1664
2080 1057
2081 1152
2082 1593
2083 1688
2084 1057
2085 1152
2086 1569
2087 1664
2088 1057
2089 1152
2090 1593
2091 1688
2092 1057
2093 1152
2094 1569
2095 1664
2096 1073
2097 1168
2098 1593
2099 1688
2100 1057
2101 1152
2102 1569
2103 1664
2104 1073
2105 1168
2106 1593
2107 1688
2108 1057
2109 1152
2110 1569
2111 1664
2112 3073
2113 3200
2114 3601
2115 3728
2116 3073
2117 3200
2118 3585
2119 3712
2120 3073
2121 3200
2122 3601
2123 3728
2124 3073
2125 3200
2126 3585
2127 3712
2128 3089
2129 3088
2130 3601
2131 3600
2132 3073
2133 3072
2134 3585
2135 3584
2136 3089
2137 3088
2138 3601
2139 3600
2140 3073
2141 3072
2142 3585
2143 3584
2144 3073
2145 3200
2146 3609
2147 3736
2148 3073
2149 3200
2150 3585
2151 3712
2152 3073
2153 3200
2154 3609
2155 3736
2156 3073
2157 3200
2158 3585
2159 3712
2160 3089
2161 3088
2162 3609
2163 3608
2164 3073
2165 3072
2166 3585
2167 3584
2168 3089
2169 3088
2170 3609
2171 3608
2172 3073
2173 3072
2174 3585
2175 3584
2176 1057
2177 1152
2178 1585
2179 1680
2180 1057
2181 1152
2182 1569
2183 1664
2184 1057
2185 1152
2186 1585
2187 1680
2188 1057
2189 1152
2190 1569
2191 1664
2192 1073
2193 1168
2194 1585
2195 1680
2196 1057
2197 1152
2198 1569
2199 1664
2200 1073
2201 1168
2202 1585
2203 1680
2204 1057
2205 1152
2206 1569
2207 1664
2208 1057
2209 1152
2210 1593
2211 1688
2212 1057
2213 1152
2214 1569
2215 1664
2216 1057
2217 1152
2218 1593
2219 1688
2220 1057
2221 1152
2222 1569
2223 1664
2224 1073
2225 1168
2226 1593
2227 1688
2228 1057
2229 1152
2230 1569
2231 1664
2232 1073
2233 1168
2234 1593
2235 1688
2236 1057
2237 1152
2238 1569
2239 1664
2240 3073
2241 3200
2242 3601
2243 3728
2244 3073
2245 3200
2246 3585
2247 3712
2248 3073
2249 3200
2250 3601
2251 3728
2252 3073
2253 3200
2254 3585
2255 3712
2256 3089
2257 3088
2258 3601
2259 3600
2260 3073
2261 3072
2262 3585
2263 3584
2264 3089
2265 3088
2266 3601
2267 3600
2268 3073
2269 3072
2270 3585
2271 3584
2272 3073
2273 3200
2274 3609
2275 3736
2276 3073
2277 3200
2278 3585
2279 3712
2280 3073
2281 3200
2282 3609
2283 3736
2284 3073
2285 3200
2286 3585
2287 3712
2288 3089
2289 3088
2290 3609
2291 3608
2292 3073
2293 3072
2294 3585
2295 3584
2296 3089
2297 3088
2298 3609
2299 3608
2300 3073
2301 3072
2302 3585
2303 3584
2304 1027
2305 1154
2306 1555
2307 1682
2308 1027
2309 1154
2310 1539
2311 1666
2312 1025
2313 1152
2314 1553
2315 1680
2316 1025
2317 1152
2318 1537
2319 1664
2320 1043
2321 1170
2322 1555
2323 1682
2324 1027
2325 1154
2326 1539
2327 1666
2328 1041
2329 1168
2330 1553
2331 1680
2332 1025
2333 1152
2334 1537
2335 1664
2336 1027
2337 1154
2338 1563
2339 1690
2340 1027
2341 1154
2342 1539
2343 1666
2344 1025
2345 1152
2346 1561
2347 1688
2348 1025
2349 1152
2350 1537
2351 1664
2352 1043
2353 1170
2354 1563
2355 1690
2356 1027
2357 1154
2358 1539
2359 1666
2360 1041
2361 1168
2362 1561
2363 1688
2364 1025
2365 1152
2366 1537
2367 1664
2368 3075
2369 3202
2370 3603
2371 3730
2372 3075
2373 3202
2374 3587
2375 3714
2376 3073
2377 3200
2378 3601
2379 3728
2380 3073
2381 3200
2382 3585
2383 3712
2384 3091
2385 3218
2386 3603
2387 3730
2388 3075
2389 3202
2390 3587
2391 3714
2392 3089
2393 3216
2394 3601
2395 3728
2396 3073
2397 3200
2398 3585
2399 3712
2400 3075
2401 3202
2402 3611
2403 3738
2404 3075
2405 3202
2406 3587
2407 3714
2408 3073
2409 3200
2410 3609
2411 3736
2412 3073
2413 3200
2414 3585
2415 3712
2416 3091
2417 3218
2418 3611
2419 3738
2420 3075
2421 3202
2422 3587
2423 3714
2424 3089
2425 3216
2426 3609
2427 3736
2428 3073
2429 3200
2430 3585
2431 3712
2432 1027
2433 1154
2434 1555
2435 1682
2436 1091
2437 1218
2438 1603
2439 1730
2440 1027
2441 1154
2442 1555
2443 1682
2444 1091
2445 1218
2446 1603
2447 1730
2448 1043
2449 1170
2450 1555
2451 1682
2452 1091
2453 1218
2454 1603
2455 1730
2456 1043
2457 1170
2458 1555
2459 1682
2460 1091
2461 1218
2462 1603
2463 1730
2464 1027
2465 1154
2466 1563
2467 1690
2468 1091
2469 1218
2470 1603
2471 1730
2472 1027
2473 1154
2474 1563
2475 1690
2476 1091
2477 1218
2478 1603
2479 1730
2480 1043
2481 1170
2482 1563
2483 1690
2484 1091
2485 1218
2486 1603
2487 1730
2488 1043
2489 1170
2490 1563
2491 1690
2492 1091
2493 1218
2494 1603
2495 1730
2496 3075
2497 3202
2498 3603
2499 3730
2500 3139
2501 3266
2502 3651
2503 3778
2504 3075
2505 3202
2506 3603
2507 3730
2508 3139
2509 3266
2510 3651
2511 3778
2512 3091
2513 3218
2514 3603
2515 3730
2516 3139
2517 3266
2518 3651
2519 3778
2520 3091
2521 3218
2522 3603
2523 3730
2524 3139
2525 3266
2526 3651
2527 3778
2528 3075
2529 3202
2530 3611
2531 3738
2532 3139
2533 3266
2534 3651
2535 3778
2536 3075
2537 3202
2538 3611
2539 3738
2540 3139
2541 3266
2542 3651
2543 3778
2544 3091
2545 3218
2546 3611
2547 3738
2548 3139
2549 3266
2550 3651
2551 3778
2552 3091
2553 3218
2554 3611
2555 3738
2556 3139
2557 3266
2558 3651
2559 3778
2560 1057
2561 1152
2562 1073
2563 1168
2564 1057
2565 1152
2566 1057
2567 1152
2568 1057
2569 1152
2570 1073
2571 1168
2572 1057
2573 1152
2574 1057
2575 1152
2576 1073
2577 1168
2578 1073
2579 1168
2580 1057
2581 1152
2582 1057
2583 1152
2584 1073
2585 1168
2586 1073
2587 1168
2588 1057
2589 1152
2590 1057
2591 1152
2592 1057
2593 1152
2594 1081
2595 1176
2596 1057
2597 1152
2598 1057
2599 1152
2600 1057
2601 1152
2602 1081
2603 1176
2604 1057
2605 1152
2606 1057
2607 1152
2608 1073
2609 1168
2610 1081
2611 1176
2612 1057
2613 1152
2614 1057
2615 1152
2616 1073
2617 1168
2618 1081
2619 1176
2620 1057
2621 1152
2622 1057
2623 1152
2624 3073
2625 3200
2626 3089
2627 3216
2628 3073
2629 3200
2630 3073
2631 3200
2632 3073
2633 3200
2634 3089
2635 3216
2636 3073
2637 3200
2638 3073
2639 3200
2640 3089
2641 3088
2642 3089
2643 3088
2644 3073
2645 3072
2646 3073
2647 3072
2648 3089
2649 3088
2650 3089
2651 3088
2652 3073
2653 3072
2654 3073
2655 3072
2656 3073
2657 3200
2658 3097
2659 3224
2660 3073
2661 3200
2662 3073
2663 3200
2664 3073
2665 3200
2666 3097
2667 3224
2668 3073
2669 3200
2670 3073
2671 3200
2672 3089
2673 3088
2674 3097
2675 3096
2676 3073
2677 3072
2678 3073
2679 3072
2680 3089
2681 3088
2682 3097
2683 3096
2684 3073
2685 3072
2686 3073
2687 3072
2688 1057
2689 1152
2690 1073
2691 1168
2692 1057
2693 1152
2694 1057
2695 1152
2696 1057
2697 1152
2698 1073
2699 1168
2700 1057
2701 1152
2702 1057
2703 1152
2704 1073
2705 1168
2706 1073
2707 1168
2708 1057
2709 1152
2710 1057
2711 1152
2712 1073
2713 1168
2714 1073
2715 1168
2716 1057
2717 1152
2718 1057
2719 1152
2720 1057
2721 1152
2722 1081
2723 1176
2724 1057
2725 1152
2726 1057
2727 1152
2728 1057
2729 1152
2730 1081
2731 1176
2732 1057
2733 1152
2734 1057
2735 1152
2736 1073
2737 1168
2738 1081
2739 1176
2740 1057
2741 1152
2742 1057
2743 1152
2744 1073
2745 1168
2746 1081
2747 1176
2748 1057
2749 1152
2750 1057
2751 1152
2752 3073
2753 3200
2754 3089
2755 3216
2756 3073
2757 3200
2758 3073
2759 3200
2760 3073
2761 3200
2762 3089
2763 3216
2764 3073
2765 3200
2766 3073
2767 3200
2768 3089
2769 3088
2770 3089
2771 3088
2772 3073
2773 3072
2774 3073
2775 3072
2776 3089
2777 3088
2778 3089
2779 3088
2780 3073
2781 3072
2782 3073
2783 3072
2784 3073
2785 3200
2786 3097
2787 3224
2788 3073
2789 3200
2790 3073
2791 3200
2792 3073
2793 3200
2794 3097
2795 3224
2796 3073
2797 3200
2798 3073
2799 3200
2800 3089
2801 3088
2802 3097
2803 3096
2804 3073
2805 3072
2806 3073
2807 3072
2808 3089
2809 3088
2810 3097
2811 3096
2812 3073
2813 3072
2814 3073
2815 3072
2816 1027
2817 1154
2818 1043
2819 1170
2820 1027
2821 1154
2822 1027
2823 1154
2824 1025
2825 1152
2826 1041
2827 1168
2828 1025
2829 1152
2830 1025
2831 1152
2832 1043
2833 1170
2834 1043
2835 1170
2836 1027
2837 1154
2838 1027
2839 1154
2840 1041
2841 1168
2842 1041
2843 1168
2844 1025
2845 1152
2846 1025
2847 1152
2848 1027
2849 1154
2850 1051
2851 1178
2852 1027
2853 1154
2854 1027
2855 1154
2856 1025
2857 1152
2858 1049
2859 1176
2860 1025
2861 1152
2862 1025
2863 1152
2864 1043
2865 1170
2866 1051
2867 1178
2868 1027
2869 1154
2870 1027
2871 1154
2872 1041
2873 1168
2874 1049
2875 1176
2876 1025
2877 1152
2878 1025
2879 1152
2880 3075
2881 3202
2882 3091
2883 3218
2884 3075
2885 3202
2886 3075
2887 3202
2888 3073
2889 3200
2890 3089
2891 3216
2892 3073
2893 3200
2894 3073
2895 3200
2896 3091
2897 3218
2898 3091
2899 3218
2900 3075
2901 3202
2902 3075
2903 3202
2904 3089
2905 3216
2906 3089
2907 3216
2908 3073
2909 3200
2910 3073
2911 3200
2912 3075
2913 3202
2914 3099
2915 3226
2916 3075
2917 3202
2918 3075
2919 3202
2920 3073
2921 3200
2922 3097
2923 3224
2924 3073
2925 3200
2926 3073
2927 3200
2928 3091
2929 3218
2930 3099
2931 3226
2932 3075
2933 3202
2934 3075
2935 3202
2936 3089
2937 3216
2938 3097
2939 3224
2940 3073
2941 3200
2942 3073
2943 3200
2944 1027
2945 1154
2946 1043
2947 1170
2948 1091
2949 1218
2950 1091
2951 1218
2952 1027
2953 1154
2954 1043
2955 1170
2956 1091
2957 1218
2958 1091
2959 1218
2960 1043
2961 1170
2962 1043
2963 1170
2964 1091
2965 1218
2966 1091
2967 1218
2968 1043
2969 1170
2970 1043
2971 1170
2972 1091
2973 1218
2974 1091
2975 1218
2976 1027
2977 1154
2978 1051
2979 1178
2980 1091
2981 1218
2982 1091
2983 1218
2984 1027
2985 1154
2986 1051
2987 1178
2988 1091
2989 1218
2990 1091
2991 1218
2992 1043
2993 1170
2994 1051
2995 1178
2996 1091
2997 1218
2998 1091
2999 1218
3000 1043
3001 1170
3002 1051
3003 1178
3004 1091
3005 1218
3006 1091
3007 1218
3008 3075
3009 3202
3010 3091
3011 3218
3012 3139
3013 3266
3014 3139
3015 3266
3016 3075
3017 3202
3018 3091
3019 3218
3020 3139
3021 3266
3022 3139
3023 3266
3024 3091
3025 3218
3026 3091
3027 3218
3028 3139
3029 3266
3030 3139
3031 3266
3032 3091
3033 3218
3034 3091
3035 3218
3036 3139
3037 3266
3038 3139
3039 3266
3040 3075
3041 3202
3042 3099
3043 3226
3044 3139
3045 3266
3046 3139
3047 3266
3048 3075
3049 3202
3050 3099
3051 3226
3052 3139
3053 3266
3054 3139
3055 3266
3056 3091
3057 3218
3058 3099
3059 3226
3060 3139
3061 3266
3062 3139
3063 3266
3064 3091
3065 3218
3066 3099
3067 3226
3068 3139
3069 3266
3070 3139
3071 3266
3072 1025
3073 1152
3074 1553
3075 1681
3076 1025
3077 1152
3078 1025
3079 1153
3080 1025
3081 1152
3082 1553
3083 1681
3084 1025
3085 1152
3086 1025
3087 1153
3088 1041
3089 1168
3090 1553
3091 1681
3092 1025
3093 1152
3094 1025
3095 1153
3096 1041
3097 1168
3098 1553
3099 1681
3100 1025
3101 1152
3102 1025
3103 1153
3104 1025
3105 1152
3106 1553
3107 1681
3108 1025
3109 1152
3110 1025
3111 1153
3112 1025
3113 1152
3114 1553
3115 1681
3116 1025
3117 1152
3118 1025
3119 1153
3120 1041
3121 1168
3122 1553
3123 1681
3124 1025
3125 1152
3126 1025
3127 1153
3128 1041
3129 1168
3130 1553
3131 1681
3132 1025
3133 1152
3134 1025
3135 1153
3136 3073
3137 3200
3138 3601
3139 3729
3140 3073
3141 3200
3142 3073
3143 3201
3144 3073
3145 3200
3146 3601
3147 3729
3148 3073
3149 3200
3150 3073
3151 3201
3152 3089
3153 3088
3154 3601
3155 3601
3156 3073
3157 3072
3158 3073
3159 3073
3160 3089
3161 3088
3162 3601
3163 3601
3164 3073
3165 3072
3166 3073
3167 3073
3168 3073
3169 3200
3170 3601
3171 3729
3172 3073
3173 3200
3174 3073
3175 3201
3176 3073
3177 3200
3178 3601
3179 3729
3180 3073
3181 3200
3182 3073
3183 3201
3184 3089
3185 3088
3186 3601
3187 3601
3188 3073
3189 3072
3190 3073
3191 3073
3192 3089
3193 3088
3194 3601
3195 3601
3196 3073
3197 3072
3198 3073
3199 3073
3200 1025
3201 1152
3202 1553
3203 1681
3204 1025
3205 1152
3206 1025
3207 1153
3208 1025
3209 1152
3210 1553
3211 1681
3212 1025
3213 1152
3214 1025
3215 1153
3216 1041
3217 1168
3218 1553
3219 1681
3220 1025
3221 1152
3222 1025
3223 1153
3224 1041
3225 1168
3226 1553
3227 1681
3228 1025
3229 1152
3230 1025
3231 1153
3232 1025
3233 1152
3234 1553
3235 1681
3236 1025
3237 1152
3238 1025
3239 1153
3240 1025
3241 1152
3242 1553
3243 1681
3244 1025
3245 1152
3246 1025
3247 1153
3248 1041
3249 1168
3250 1553
3251 1681
3252 1025
3253 1152
3254 1025
3255 1153
3256 1041
3257 1168
3258 1553
3259 1681
3260 1025
3261 1152
3262 1025
3263 1153
3264 3073
3265 3200
3266 3601
3267 3729
3268 3073
3269 3200
3270 3073
3271 3201
3272 3073
3273 3200
3274 3601
3275 3729
3276 3073
3277 3200
3278 3073
3279 3201
3280 3089
3281 3088
3282 3601
3283 3601
3284 3073
3285 3072
3286 3073
3287 3073
3288 3089
3289 3088
3290 3601
3291 3601
3292 3073
3293 3072
3294 3073
3295 3073
3296 3073
3297 3200
3298 3601
3299 3729
3300 3073
3301 3200
3302 3073
3303 3201
3304 3073
3305 3200
3306 3601
3307 3729
3308 3073
3309 3200
3310 3073
3311 3201
3312 3089
3313 3088
3314 3601
3315 3601
3316 3073
3317 3072
3318 3073
3319 3073
3320 3089
3321 3088
3322 3601
3323 3601
3324 3073
3325 3072
3326 3073
3327 3073
3328 1027
3329 1154
3330 1555
3331 1683
3332 1091
3333 1218
3334 1091
3335 1219
3336 1025
3337 1152
3338 1553
3339 1681
3340 1089
3341 1216
3342 1089
3343 1217
3344 1043
3345 1170
3346 1555
3347 1683
3348 1091
3349 1218
3350 1091
3351 1219
3352 1041
3353 1168
3354 1553
3355 1681
3356 1089
3357 1216
3358 1089
3359 1217
3360 1027
3361 1154
3362 1555
3363 1683
3364 1091
3365 1218
3366 1091
3367 1219
3368 1025
3369 1152
3370 1553
3371 1681
3372 1089
3373 1216
3374 1089
3375 1217
3376 1043
3377 1170
3378 1555
3379 1683
3380 1091
3381 1218
3382 1091
3383 1219
3384 1041
3385 1168
3386 1553
3387 1681
3388 1089
3389 1216
3390 1089
3391 1217
3392 3075
3393 3202
3394 3603
3395 3731
3396 3139
3397 3266
3398 3139
3399 3267
3400 3073
3401 3200
3402 3601
3403 3729
3404 3137
3405 3264
3406 3137
3407 3265
3408 3091
3409 3218
3410 3603
3411 3731
3412 3139
3413 3266
3414 3139
3415 3267
3416 3089
3417 3216
3418 3601
3419 3729
3420 3137
3421 3264
3422 3137
3423 3265
3424 3075
3425 3202
3426 3603
3427 3731
3428 3139
3429 3266
3430 3139
3431 3267
3432 3073
3433 3200
3434 3601
3435 3729
3436 3137
3437 3264
3438 3137
3439 3265
3440 3091
3441 3218
3442 3603
3443 3731
3444 3139
3445 3266
3446 3139
3447 3267
3448 3089
3449 3216
3450 3601
3451 3729
3452 3137
3453 3264
3454 3137
3455 3265
3456 1027
3457 1154
3458 1555
3459 1683
3460 1091
3461 1218
3462 1091
3463 1219
3464 1027
3465 1154
3466 1555
3467 1683
3468 1091
3469 1218
3470 1091
3471 1219
3472 1043
3473 1170
3474 1555
3475 1683
3476 1091
3477 1218
3478 1091
3479 1219
3480 1043
3481 1170
3482 1555
3483 1683
3484 1091
3485 1218
3486 1091
3487 1219
3488 1027
3489 1154
3490 1555
3491 1683
3492 1091
3493 1218
3494 1091
3495 1219
3496 1027
3497 1154
3498 1555
3499 1683
3500 1091
3501 1218
3502 1091
3503 1219
3504 1043
3505 1170
3506 1555
3507 1683
3508 1091
3509 1218
3510 1091
3511 1219
3512 1043
3513 1170
3514 1555
3515 1683
3516 1091
3517 1218
3518 1091
3519 1219
3520 3075
3521 3202
3522 3603
3523 3731
3524 3139
3525 3266
3526 3139
3527 3267
3528 3075
3529 3202
3530 3603
3531 3731
3532 3139
3533 3266
3534 3139
3535 3267
3536 3091
3537 3218
3538 3603
3539 3731
3540 3139
3541 3266
3542 3139
3543 3267
3544 3091
3545 3218
3546 3603
3547 3731
3548 3139
3549 3266
3550 3139
3551 3267
3552 3075
3553 3202
3554 3603
3555 3731
3556 3139
3557 3266
3558 3139
3559 3267
3560 3075
3561 3202
3562 3603
3563 3731
3564 3139
3565 3266
3566 3139
3567 3267
3568 3091
3569 3218
3570 3603
3571 3731
3572 3139
3573 3266
3574 3139
3575 3267
3576 3091
3577 3218
3578 3603
3579 3731
3580 3139
3581 3266
3582 3139
3583 3267
3584 1025
3585 1152
3586 1041
3587 1169
3588 1025
3589 1152
3590 1025
3591 1153
3592 1025
3593 1152
3594 1041
3595 1169
3596 1025
3597 1152
3598 1025
3599 1153
3600 1041
3601 1168
3602 1041
3603 1169
3604 1025
3605 1152
3606 1025
3607 1153
3608 1041
3609 1168
3610 1041
3611 1169
3612 1025
3613 1152
3614 1025
3615 1153
3616 1025
3617 1152
3618 1041
3619 1169
3620 1025
3621 1152
3622 1025
3623 1153
3624 1025
3625 1152
3626 1041
3627 1169
3628 1025
3629 1152
3630 1025
3631 1153
3632 1041
3633 1168
3634 1041
3635 1169
3636 1025
3637 1152
3638 1025
3639 1153
3640 1041
3641 1168
3642 1041
3643 1169
3644 1025
3645 1152
3646 1025
3647 1153
3648 3073
3649 3200
3650 3089
3651 3217
3652 3073
3653 3200
3654 3073
3655 3201
3656 3073
3657 3200
3658 3089
3659 3217
3660 3073
3661 3200
3662 3073
3663 3201
3664 3089
3665 3088
3666 3089
3667 3089
3668 3073
3669 3072
3670 3073
3671 3073
3672 3089
3673 3088
3674 3089
3675 3089
3676 3073
3677 3072
3678 3073
3679 3073
3680 3073
3681 3200
3682 3089
3683 3217
3684 3073
3685 3200
3686 3073
3687 3201
3688 3073
3689 3200
3690 3089
3691 3217
3692 3073
3693 3200
3694 3073
3695 3201
3696 3089
3697 3088
3698 3089
3699 3089
3700 3073
3701 3072
3702 3073
3703 3073
3704 3089
3705 3088
3706 3089
3707 3089
3708 3073
3709 3072
3710 3073
3711 3073
3712 1025
3713 1152
3714 1041
3715 1169
3716 1025
3717 1152
3718 1025
3719 1153
3720 1025
3721 1152
3722 1041
3723 1169
3724 1025
3725 1152
3726 1025
3727 1153
3728 1041
3729 1168
3730 1041
3731 1169
3732 1025
3733 1152
3734 1025
3735 1153
3736 1041
3737 1168
3738 1041
3739 1169
3740 1025
3741 1152
3742 1025
3743 1153
3744 1025
3745 1152
3746 1041
3747 1169
3748 1025
3749 1152
3750 1025
3751 1153
3752 1025
3753 1152
3754 1041
3755 1169
3756 1025
3757 1152
3758 1025
3759 1153
3760 1041
3761 1168
3762 1041
3763 1169
3764 1025
3765 1152
3766 1025
3767 1153
3768 1041
3769 1168
3770 1041
3771 1169
3772 1025
3773 1152
3774 1025
3775 1153
3776 3073
3777 3200
3778 3089
3779 3217
3780 3073
3781 3200
3782 3073
3783 3201
3784 3073
3785 3200
3786 3089
3787 3217
3788 3073
3789 3200
3790 3073
3791 3201
3792 3089
3793 3088
3794 3089
3795 3089
3796 3073
3797 3072
3798 3073
3799 3073
3800 3089
3801 3088
3802 3089
3803 3089
3804 3073
3805 3072
3806 3073
3807 3073
3808 3073
3809 3200
3810 3089
3811 3217
3812 3073
3813 3200
3814 3073
3815 3201
3816 3073
3817 3200
3818 3089
3819 3217
3820 3073
3821 3200
3822 3073
3823 3201
3824 3089
3825 3088
3826 3089
3827 3089
3828 3073
3829 3072
3830 3073
3831 3073
3832 3089
3833 3088
3834 3089
3835 3089
3836 3073
3837 3072
3838 3073
3839 3073
3840 1027
3841 1154
3842 1043
3843 1171
3844 1091
3845 1218
3846 1091
3847 1219
3848 1025
3849 1152
3850 1041
3851 1169
3852 1089
3853 1216
3854 1089
3855 1217
3856 1043
3857 1170
3858 1043
3859 1171
3860 1091
3861 1218
3862 1091
3863 1219
3864 1041
3865 1168
3866 1041
3867 1169
3868 1089
3869 1216
3870 1089
3871 1217
3872 1027
3873 1154
3874 1043
3875 1171
3876 1091
3877 1218
3878 1091
3879 1219
3880 1025
3881 1152
3882 1041
3883 1169
3884 1089
3885 1216
3886 1089
3887 1217
3888 1043
3889 1170
3890 1043
3891 1171
3892 1091
3893 1218
3894 1091
3895 1219
3896 1041
3897 1168
3898 1041
3899 1169
3900 1089
3901 1216
3902 1089
3903 1217
3904 3075
3905 3202
3906 3091
3907 3219
3908 3139
3909 3266
3910 3139
3911 3267
3912 3073
3913 3200
3914 3089
3915 3217
3916 3137
3917 3264
3918 3137
3919 3265
3920 3091
3921 3218
3922 3091
3923 3219
3924 3139
3925 3266
3926 3139
3927 3267
3928 3089
3929 3216
3930 3089
3931 3217
3932 3137
3933 3264
3934 3137
3935 3265
3936 3075
3937 3202
3938 3091
3939 3219
3940 3139
3941 3266
3942 3139
3943 3267
3944 3073
3945 3200
3946 3089
3947 3217
3948 3137
3949 3264
3950 3137
3951 3265
3952 3091
3953 3218
3954 3091
3955 3219
3956 3139
3957 3266
3958 3139
3959 3267
3960 3089
3961 3216
3962 3089
3963 3217
3964 3137
3965 3264
3966 3137
3967 3265
3968 1027
3969 1154
3970 1043
3971 1171
3972 1091
3973 1218
3974 1091
3975 1219
3976 1027
3977 1154
3978 1043
3979 1171
3980 1091
3981 1218
3982 1091
3983 1219
3984 1043
3985 1170
3986 1043
3987 1171
3988 1091
3989 1218
3990 1091
3991 1219
3992 1043
3993 1170
3994 1043
3995 1171
3996 1091
3997 1218
3998 1091
3999 1219
4000 1027
4001 1154
4002 1043
4003 1171
4004 1091
4005 1218
4006 1091
4007 1219
4008 1027
4009 1154
4010 1043
4011 1171
4012 1091
4013 1218
4014 1091
4015 1219
4016 1043
4017 1170
4018 1043
4019 1171
4020 1091
4021 1218
4022 1091
4023 1219
4024 1043
4025 1170
4026 1043
4027 1171
4028 1091
4029 1218
4030 1091
4031 1219
4032 3075
4033 3202
4034 3091
4035 3219
4036 3139
4037 3266
4038 3139
4039 3267
4040 3075
4041 3202
4042 3091
4043 3219
4044 3139
4045 3266
4046 3139
4047 3267
4048 3091
4049 3218
4050 3091
4051 3219
4052 3139
4053 3266
4054 3139
4055 3267
4056 3091
4057 3218
4058 3091
4059 3219
4060 3139
4061 3266
4062 3139
4063 3267
4064 3075
4065 3202
4066 3091
4067 3219
4068 3139
4069 3266
4070 3139
4071 3267
4072 3075
4073 3202
4074 3091
4075 3219
4076 3139
4077 3266
4078 3139
4079 3267
4080 3091
4081 3218
4082 3091
4083 3219
4084 3139
4085 3266
4086 3139
4087 3267
4088 3091
4089 3218
4090 3091
4091 3219
4092 3139
4093 3266
4094 3139
4095 3267
