statistika 03 2var pilnam grafam
intervals	geni: [30;30]	 ietekmejosie: [4 ; 4]
bula funkcijas rekinas pec a varianta


#gens:30 #
1065470387 602428556 1070617279 452395320 1024927546 841941424 638315518 1060152410 858661800 743497820 
