statistika 03 2var pilnam grafam
intervals	geni: [4;18]	 ietekmejosie: [2 ; 7]
bula funkcijas rekinas pec a varianta


#gens:4 #
1 2 2 4 2 2 1 2 1 1 
2 1 4 2 2 1 1 4 2 1 
1 2 2 2 1 3 3 2 3 1 

#gens:5 #
2 2 1 1 1 1 1 2 1 3 
3 1 1 2 4 2 2 3 1 1 
2 3 2 2 2 3 2 2 1 3 
2 1 2 3 3 3 1 2 3 2 

#gens:6 #
2 1 4 2 4 3 8 2 2 3 
5 1 2 2 3 9 3 1 3 1 
1 4 1 1 1 1 4 3 6 4 
1 3 5 3 3 2 5 2 5 4 
4 2 1 4 2 2 3 4 2 2 

#gens:7 #
4 2 2 3 4 2 1 2 1 4 
3 1 2 4 3 1 5 1 6 4 
3 1 4 11 1 4 3 2 2 1 
3 2 2 3 3 2 2 2 5 2 
2 2 3 5 4 3 2 1 4 2 
5 5 4 3 3 2 5 4 3 4 

#gens:8 #
2 1 1 2 1 1 1 1 8 1 
2 7 4 3 2 2 5 1 2 2 
4 2 6 1 6 4 3 4 4 3 
1 8 4 3 3 2 3 2 2 6 
4 1 3 6 2 2 3 6 3 3 
4 5 3 4 4 8 4 2 2 5 

#gens:9 #
5 1 1 3 2 4 1 11 2 1 
2 4 7 3 3 3 3 3 3 3 
5 1 3 8 1 6 2 2 3 1 
3 3 4 7 4 4 4 2 2 4 
4 4 7 2 3 1 1 4 4 4 
8 2 3 2 2 3 1 3 3 6 

#gens:10 #
1 3 5 2 3 4 2 9 6 10 
2 4 3 5 6 5 4 2 2 2 
3 3 2 4 2 2 2 2 3 5 
1 2 5 2 6 3 3 4 1 5 
3 1 6 5 4 2 4 4 3 7 
5 5 7 2 2 4 4 3 5 1 

#gens:11 #
3 1 2 1 2 1 24 26 5 8 
6 3 3 4 2 2 1 3 3 2 
3 5 2 9 3 6 5 2 4 5 
4 5 4 1 3 2 3 4 3 2 
2 6 5 3 1 4 3 3 2 7 
2 3 2 5 2 3 7 2 5 6 

#gens:12 #
3 2 2 2 1 1 2 1 2 2 
9 3 3 4 3 5 4 2 5 6 
5 3 3 6 4 3 2 4 2 1 
2 3 3 5 7 4 5 9 7 3 
3 2 3 6 6 5 6 1 5 7 
3 3 4 4 3 2 5 6 7 6 

#gens:13 #
2 3 1 2 1 1 16 6 12 3 
4 6 1 2 11 4 7 3 5 1 
2 4 4 5 5 3 5 7 5 7 
4 3 4 2 4 5 3 6 4 5 
12 2 5 8 6 4 6 4 6 3 
5 3 4 3 7 6 4 6 7 4 

#gens:14 #
1 5 1 2 2 2 2 4 1 8 
6 2 3 4 8 3 2 3 3 3 
3 5 3 7 2 2 3 4 4 4 
3 5 2 2 10 6 3 3 7 7 
6 8 7 3 4 4 7 3 2 13 
8 3 5 3 7 6 8 9 4 4 

#gens:15 #
4 1 3 1 5 1 14 2 4 1 
10 7 2 3 4 17 3 4 4 3 
6 3 4 2 5 6 5 8 2 5 
5 2 4 6 5 1 2 4 9 5 
4 5 6 4 8 9 3 6 13 8 
7 5 4 6 5 7 5 7 3 6 

#gens:16 #
1 2 8 2 2 4 2 4 1 9 
2 7 3 1 4 4 3 2 5 3 
6 4 3 7 2 4 4 3 2 10 
4 3 3 7 2 5 1 4 3 4 
7 4 11 10 6 5 6 4 4 7 
6 5 4 6 6 6 2 3 3 7 

#gens:17 #
4 6 9 4 2 4 6 1 4 4 
8 3 11 6 1 5 3 6 2 3 
2 6 4 5 7 3 2 2 2 3 
4 8 5 4 6 5 5 3 8 4 
8 8 3 8 5 5 8 5 8 11 
8 6 7 5 6 5 9 9 5 7 

#gens:18 #
2 4 1 2 1 2 1 4 2 11 
5 5 8 5 4 4 4 3 7 1 
5 3 7 7 4 4 4 8 7 4 
10 4 4 1 4 4 4 2 9 9 
8 9 3 6 6 5 5 7 7 7 
4 7 7 8 4 4 4 4 7 4 

# Kopejais darbibas laiks: 24s  #
