statistika 03 2var pilnam grafam
intervals	geni: [4;18]	 ietekmejosie: [2 ; 7]
bula funkcijas rekinas pec a varianta


#gens:4 #
1 2 2 2 6 2 4 1 1 3 
2 11 3 2 2 1 2 2 2 3 
6 4 2 4 1 2 4 4 2 3 

#gens:5 #
2 2 1 4 1 3 1 5 2 3 
4 1 4 8 2 6 2 2 11 5 
2 1 5 3 4 4 6 1 5 3 
1 7 6 9 6 3 1 7 4 3 

#gens:6 #
2 1 1 4 2 1 4 5 5 3 
5 20 1 4 3 2 5 9 7 5 
2 7 2 5 4 5 4 4 7 8 
13 13 9 6 8 9 1 8 5 4 
6 10 1 6 15 4 13 7 1 6 

#gens:7 #
9 2 2 6 2 2 4 5 4 4 
3 1 4 8 2 20 5 4 2 8 
4 10 12 6 11 3 3 2 4 4 
3 1 2 5 9 12 4 3 7 20 
10 7 8 20 4 9 10 7 7 1 
12 14 2 7 4 5 6 2 4 3 

#gens:8 #
8 4 1 3 1 1 2 2 2 5 
8 4 3 1 14 3 4 5 6 11 
15 14 8 10 8 9 7 5 4 7 
28 6 18 6 5 9 8 9 18 5 
24 9 20 6 20 14 9 6 11 22 
9 9 4 9 7 7 9 6 17 13 

#gens:9 #
4 2 1 2 3 1 1 4 2 1 
8 3 4 2 1 4 2 12 2 20 
10 22 2 8 12 22 4 3 6 10 
6 10 32 8 10 33 29 28 12 6 
20 20 14 7 9 5 23 16 5 25 
8 17 22 44 10 38 18 18 8 27 

#gens:10 #
1 2 2 31 1 4 7 6 4 2 
7 3 2 5 8 5 3 5 4 7 
24 7 8 6 14 6 15 15 3 14 
48 8 11 18 25 25 7 13 4 53 
12 2 37 10 39 54 5 20 13 11 
11 12 5 23 20 18 51 25 15 74 

#gens:11 #
4 4 3 2 2 2 10 2 2 3 
7 9 4 12 4 11 1 10 9 5 
10 12 2 3 14 7 6 21 4 5 
23 53 19 20 32 53 47 2 20 15 
15 20 48 4 43 10 15 20 10 42 
13 32 70 22 11 12 48 43 63 51 

#gens:12 #
3 1 2 1 1 1 6 2 1 1 
6 8 2 7 2 5 18 10 5 5 
12 17 9 12 26 21 6 12 3 6 
36 21 29 21 21 10 8 33 7 10 
31 58 19 20 94 23 41 3 108 13 
75 12 45 7 70 45 73 49 12 16 

#gens:13 #
2 2 2 1 4 2 4 4 6 4 
7 11 12 13 4 3 4 7 11 6 
10 10 43 13 9 9 12 7 25 13 
26 22 29 10 9 32 80 12 50 22 
63 57 93 87 69 30 37 180 48 12 
20 87 99 104 63 47 8 47 42 77 

#gens:14 #
4 11 1 5 12 10 2 6 1 6 
11 6 5 8 4 2 10 8 8 4 
20 15 28 27 10 27 26 33 17 19 
23 96 50 76 34 21 2 115 74 30 
54 25 28 74 86 35 87 136 101 110 
76 14 16 27 76 83 125 49 73 96 

#gens:15 #
6 2 15 1 6 1 3 7 2 1 
19 4 5 18 8 38 9 6 27 6 
11 24 20 6 14 47 6 23 5 7 
154 23 14 17 79 105 17 13 118 58 
16 30 35 93 45 64 50 20 167 59 
89 34 108 176 115 62 143 33 83 135 

#gens:16 #
2 2 2 4 2 7 2 7 2 2 
10 3 2 5 16 8 4 4 26 11 
38 17 6 25 57 23 16 4 15 34 
72 31 17 110 50 45 9 23 75 26 
52 126 44 60 244 184 117 242 300 64 
60 17 160 204 264 56 279 55 66 96 

#gens:17 #
4 6 10 3 2 27 7 1 2 4 
4 10 10 6 30 15 6 14 2 8 
39 15 26 33 29 32 66 70 44 48 
144 169 75 52 134 108 55 29 44 30 
247 202 7 292 277 267 26 164 184 139 
76 232 79 334 143 85 115 159 125 153 

#gens:18 #
2 3 1 1 1 5 11 4 4 6 
8 2 1 6 72 13 12 2 16 22 
26 31 16 3 29 156 14 108 120 39 
19 351 173 238 54 82 4 21 286 112 
250 78 92 8 175 182 224 137 400 398 
238 464 521 481 552 321 53 579 152 237 

# Kopejais darbibas laiks: 24s  #
