4096
0 3941
1 3685
2 3909
3 3909
4 3941
5 3685
6 3909
7 3909
8 3909
9 3141
10 3909
11 3397
12 3909
13 3653
14 3909
15 3909
16 3877
17 3637
18 3925
19 3925
20 3941
21 3701
22 3925
23 3925
24 3845
25 3093
26 3925
27 3413
28 3909
29 3669
30 3925
31 3925
32 4077
33 3821
34 4045
35 4045
36 4077
37 3821
38 4045
39 4045
40 4045
41 3277
42 4045
43 3533
44 4045
45 3789
46 4045
47 4045
48 4013
49 3773
50 4061
51 4061
52 4077
53 3837
54 4061
55 4061
56 3981
57 3229
58 4061
59 3549
60 4045
61 3805
62 4061
63 4061
64 3941
65 1637
66 3909
67 1861
68 3941
69 1637
70 3909
71 1861
72 3909
73 1093
74 3909
75 1349
76 3909
77 1093
78 3909
79 1349
80 3877
81 1589
82 3909
83 1877
84 3941
85 1653
86 3909
87 1877
88 3845
89 1045
90 3909
91 1365
92 3909
93 1109
94 3909
95 1365
96 3949
97 1645
98 3917
99 1869
100 3949
101 1645
102 3917
103 1869
104 3917
105 1101
106 3917
107 1357
108 3917
109 1101
110 3917
111 1357
112 3885
113 1597
114 3917
115 1885
116 3949
117 1661
118 3917
119 1885
120 3853
121 1053
122 3917
123 1373
124 3917
125 1117
126 3917
127 1373
128 3655
129 3653
130 3911
131 3909
132 3653
133 3653
134 3909
135 3909
136 3655
137 3655
138 3911
139 3911
140 3653
141 3653
142 3909
143 3909
144 3591
145 3605
146 3927
147 3925
148 3653
149 3669
150 3925
151 3925
152 3591
153 3607
154 3927
155 3927
156 3653
157 3669
158 3925
159 3925
160 3791
161 3789
162 4047
163 4045
164 3789
165 3789
166 4045
167 4045
168 3791
169 3789
170 4047
171 4045
172 3789
173 3789
174 4045
175 4045
176 3727
177 3741
178 4063
179 4061
180 3789
181 3805
182 4061
183 4061
184 3727
185 3741
186 4063
187 4061
188 3789
189 3805
190 4061
191 4061
192 3655
193 1605
194 3911
195 1861
196 3653
197 1605
198 3909
199 1861
200 3655
201 1607
202 3911
203 1863
204 3653
205 1605
206 3909
207 1861
208 3591
209 1557
210 3911
211 1877
212 3653
213 1621
214 3909
215 1877
216 3591
217 1559
218 3911
219 1879
220 3653
221 1621
222 3909
223 1877
224 3663
225 1613
226 3919
227 1869
228 3661
229 1613
230 3917
231 1869
232 3663
233 1613
234 3919
235 1869
236 3661
237 1613
238 3917
239 1869
240 3599
241 1565
242 3919
243 1885
244 3661
245 1629
246 3917
247 1885
248 3599
249 1565
250 3919
251 1885
252 3661
253 1629
254 3917
255 1885
256 3940
257 3652
258 3908
259 3908
260 3940
261 3652
262 3908
263 3908
264 3396
265 3140
266 3396
267 3396
268 3396
269 3140
270 3396
271 3396
272 3892
273 3636
274 3924
275 3924
276 3940
277 3700
278 3924
279 3924
280 3348
281 3092
282 3412
283 3412
284 3396
285 3156
286 3412
287 3412
288 4076
289 3788
290 4044
291 4044
292 4076
293 3788
294 4044
295 4044
296 3532
297 3276
298 3532
299 3532
300 3532
301 3276
302 3532
303 3532
304 4028
305 3772
306 4060
307 4060
308 4076
309 3836
310 4060
311 4060
312 3484
313 3228
314 3548
315 3548
316 3532
317 3292
318 3548
319 3548
320 3940
321 1604
322 3908
323 1860
324 3940
325 1604
326 3908
327 1860
328 3396
329 1092
330 3396
331 1348
332 3396
333 1092
334 3396
335 1348
336 3876
337 1588
338 3908
339 1876
340 3940
341 1652
342 3908
343 1876
344 3332
345 1044
346 3396
347 1364
348 3396
349 1108
350 3396
351 1364
352 3948
353 1612
354 3916
355 1868
356 3948
357 1612
358 3916
359 1868
360 3404
361 1100
362 3404
363 1356
364 3404
365 1100
366 3404
367 1356
368 3884
369 1596
370 3916
371 1884
372 3948
373 1660
374 3916
375 1884
376 3340
377 1052
378 3404
379 1372
380 3404
381 1116
382 3404
383 1372
384 3654
385 3652
386 3910
387 3908
388 3652
389 3652
390 3908
391 3908
392 3654
393 3652
394 3910
395 3908
396 3652
397 3652
398 3908
399 3908
400 3606
401 3604
402 3926
403 3924
404 3652
405 3668
406 3924
407 3924
408 3606
409 3604
410 3926
411 3924
412 3652
413 3668
414 3924
415 3924
416 3790
417 3788
418 4046
419 4044
420 3788
421 3788
422 4044
423 4044
424 3790
425 3788
426 4046
427 4044
428 3788
429 3788
430 4044
431 4044
432 3742
433 3740
434 4062
435 4060
436 3788
437 3804
438 4060
439 4060
440 3742
441 3740
442 4062
443 4060
444 3788
445 3804
446 4060
447 4060
448 1606
449 1604
450 1862
451 1860
452 1604
453 1604
454 1860
455 1860
456 1606
457 1604
458 1862
459 1860
460 1604
461 1604
462 1860
463 1860
464 1542
465 1556
466 1862
467 1876
468 1604
469 1620
470 1860
471 1876
472 1542
473 1556
474 1862
475 1876
476 1604
477 1620
478 1860
479 1876
480 1614
481 1612
482 1870
483 1868
484 1612
485 1612
486 1868
487 1868
488 1614
489 1612
490 1870
491 1868
492 1612
493 1612
494 1868
495 1868
496 1550
497 1564
498 1870
499 1884
500 1612
501 1628
502 1868
503 1884
504 1550
505 1564
506 1870
507 1884
508 1612
509 1628
510 1868
511 1884
512 3684
513 3684
514 3908
515 3908
516 3684
517 3684
518 3908
519 3908
520 3652
521 3652
522 3908
523 3908
524 3652
525 3652
526 3908
527 3908
528 3684
529 3700
530 3924
531 3924
532 3684
533 3700
534 3924
535 3924
536 3652
537 3668
538 3924
539 3924
540 3652
541 3668
542 3924
543 3924
544 4076
545 3820
546 4044
547 4044
548 4076
549 3820
550 4044
551 4044
552 4044
553 3788
554 4044
555 4044
556 4044
557 3788
558 4044
559 4044
560 4076
561 3836
562 4060
563 4060
564 4076
565 3836
566 4060
567 4060
568 4044
569 3804
570 4060
571 4060
572 4044
573 3804
574 4060
575 4060
576 3684
577 1636
578 3908
579 1860
580 3684
581 1636
582 3908
583 1860
584 3652
585 1604
586 3908
587 1860
588 3652
589 1604
590 3908
591 1860
592 3684
593 1652
594 3908
595 1876
596 3684
597 1652
598 3908
599 1876
600 3652
601 1620
602 3908
603 1876
604 3652
605 1620
606 3908
607 1876
608 3948
609 1644
610 3916
611 1868
612 3948
613 1644
614 3916
615 1868
616 3916
617 1612
618 3916
619 1868
620 3916
621 1612
622 3916
623 1868
624 3948
625 1660
626 3916
627 1884
628 3948
629 1660
630 3916
631 1884
632 3916
633 1628
634 3916
635 1884
636 3916
637 1628
638 3916
639 1884
640 3654
641 3654
642 3910
643 3910
644 3652
645 3652
646 3908
647 3908
648 3654
649 3654
650 3910
651 3910
652 3652
653 3652
654 3908
655 3908
656 3654
657 3670
658 3926
659 3926
660 3652
661 3668
662 3924
663 3924
664 3654
665 3670
666 3926
667 3926
668 3652
669 3668
670 3924
671 3924
672 3790
673 3788
674 4046
675 4044
676 3788
677 3788
678 4044
679 4044
680 3790
681 3788
682 4046
683 4044
684 3788
685 3788
686 4044
687 4044
688 3790
689 3804
690 4062
691 4060
692 3788
693 3804
694 4060
695 4060
696 3790
697 3804
698 4062
699 4060
700 3788
701 3804
702 4060
703 4060
704 3654
705 1606
706 3910
707 1862
708 3652
709 1604
710 3908
711 1860
712 3654
713 1606
714 3910
715 1862
716 3652
717 1604
718 3908
719 1860
720 3654
721 1622
722 3910
723 1878
724 3652
725 1620
726 3908
727 1876
728 3654
729 1622
730 3910
731 1878
732 3652
733 1620
734 3908
735 1876
736 3662
737 1612
738 3918
739 1868
740 3660
741 1612
742 3916
743 1868
744 3662
745 1612
746 3918
747 1868
748 3660
749 1612
750 3916
751 1868
752 3662
753 1628
754 3918
755 1884
756 3660
757 1628
758 3916
759 1884
760 3662
761 1628
762 3918
763 1884
764 3660
765 1628
766 3916
767 1884
768 3684
769 3652
770 3908
771 3908
772 3684
773 3652
774 3908
775 3908
776 3140
777 3140
778 3396
779 3396
780 3140
781 3140
782 3396
783 3396
784 3700
785 3700
786 3924
787 3924
788 3684
789 3700
790 3924
791 3924
792 3156
793 3156
794 3412
795 3412
796 3140
797 3156
798 3412
799 3412
800 4076
801 3788
802 4044
803 4044
804 4076
805 3788
806 4044
807 4044
808 3532
809 3276
810 3532
811 3532
812 3532
813 3276
814 3532
815 3532
816 4092
817 3836
818 4060
819 4060
820 4076
821 3836
822 4060
823 4060
824 3548
825 3292
826 3548
827 3548
828 3532
829 3292
830 3548
831 3548
832 3684
833 1604
834 3908
835 1860
836 3684
837 1604
838 3908
839 1860
840 3140
841 1092
842 3396
843 1348
844 3140
845 1092
846 3396
847 1348
848 3684
849 1652
850 3908
851 1876
852 3684
853 1652
854 3908
855 1876
856 3140
857 1108
858 3396
859 1364
860 3140
861 1108
862 3396
863 1364
864 3948
865 1612
866 3916
867 1868
868 3948
869 1612
870 3916
871 1868
872 3404
873 1100
874 3404
875 1356
876 3404
877 1100
878 3404
879 1356
880 3948
881 1660
882 3916
883 1884
884 3948
885 1660
886 3916
887 1884
888 3404
889 1116
890 3404
891 1372
892 3404
893 1116
894 3404
895 1372
896 3654
897 3654
898 3910
899 3910
900 3652
901 3652
902 3908
903 3908
904 3654
905 3654
906 3910
907 3910
908 3652
909 3652
910 3908
911 3908
912 3670
913 3670
914 3926
915 3926
916 3652
917 3668
918 3924
919 3924
920 3670
921 3670
922 3926
923 3926
924 3652
925 3668
926 3924
927 3924
928 3790
929 3788
930 4046
931 4044
932 3788
933 3788
934 4044
935 4044
936 3790
937 3788
938 4046
939 4044
940 3788
941 3788
942 4044
943 4044
944 3806
945 3804
946 4062
947 4060
948 3788
949 3804
950 4060
951 4060
952 3806
953 3804
954 4062
955 4060
956 3788
957 3804
958 4060
959 4060
960 1606
961 1606
962 1862
963 1862
964 1604
965 1604
966 1860
967 1860
968 1606
969 1606
970 1862
971 1862
972 1604
973 1604
974 1860
975 1860
976 1606
977 1622
978 1862
979 1878
980 1604
981 1620
982 1860
983 1876
984 1606
985 1622
986 1862
987 1878
988 1604
989 1620
990 1860
991 1876
992 1614
993 1612
994 1870
995 1868
996 1612
997 1612
998 1868
999 1868
1000 1614
1001 1612
1002 1870
1003 1868
1004 1612
1005 1612
1006 1868
1007 1868
1008 1614
1009 1628
1010 1870
1011 1884
1012 1612
1013 1628
1014 1868
1015 1884
1016 1614
1017 1628
1018 1870
1019 1884
1020 1612
1021 1628
1022 1868
1023 1884
1024 3953
1025 3697
1026 3921
1027 3921
1028 3953
1029 3697
1030 3921
1031 3921
1032 3921
1033 3153
1034 3921
1035 3409
1036 3921
1037 3665
1038 3921
1039 3921
1040 3889
1041 3633
1042 3921
1043 3921
1044 3953
1045 3697
1046 3921
1047 3921
1048 3857
1049 3089
1050 3921
1051 3409
1052 3921
1053 3665
1054 3921
1055 3921
1056 4089
1057 3833
1058 4057
1059 4057
1060 4089
1061 3833
1062 4057
1063 4057
1064 4049
1065 3281
1066 4057
1067 3545
1068 4049
1069 3793
1070 4057
1071 4057
1072 4025
1073 3769
1074 4057
1075 4057
1076 4089
1077 3833
1078 4057
1079 4057
1080 3985
1081 3217
1082 4057
1083 3545
1084 4049
1085 3793
1086 4057
1087 4057
1088 3953
1089 1649
1090 3921
1091 1873
1092 2933
1093 629
1094 2901
1095 853
1096 3921
1097 1105
1098 3921
1099 1361
1100 3925
1101 1109
1102 3925
1103 1365
1104 3889
1105 1585
1106 3921
1107 1873
1108 2933
1109 629
1110 2901
1111 853
1112 3857
1113 1041
1114 3921
1115 1361
1116 3925
1117 1109
1118 3925
1119 1365
1120 4089
1121 1785
1122 4057
1123 2009
1124 3069
1125 765
1126 3037
1127 989
1128 4049
1129 1233
1130 4057
1131 1497
1132 3029
1133 213
1134 3037
1135 477
1136 4025
1137 1721
1138 4057
1139 2009
1140 3069
1141 765
1142 3037
1143 989
1144 3985
1145 1169
1146 4057
1147 1497
1148 3029
1149 213
1150 3037
1151 477
1152 3667
1153 3665
1154 3923
1155 3921
1156 3665
1157 3665
1158 3921
1159 3921
1160 3667
1161 3667
1162 3923
1163 3923
1164 3665
1165 3665
1166 3921
1167 3921
1168 3603
1169 3601
1170 3923
1171 3921
1172 3665
1173 3665
1174 3921
1175 3921
1176 3603
1177 3603
1178 3923
1179 3923
1180 3665
1181 3665
1182 3921
1183 3921
1184 3803
1185 3801
1186 4059
1187 4057
1188 3801
1189 3801
1190 4057
1191 4057
1192 3795
1193 3793
1194 4059
1195 4057
1196 3793
1197 3793
1198 4057
1199 4057
1200 3739
1201 3737
1202 4059
1203 4057
1204 3801
1205 3801
1206 4057
1207 4057
1208 3731
1209 3729
1210 4059
1211 4057
1212 3793
1213 3793
1214 4057
1215 4057
1216 3667
1217 1617
1218 3923
1219 1873
1220 2645
1221 597
1222 2901
1223 853
1224 3667
1225 1619
1226 3923
1227 1875
1228 2645
1229 597
1230 2901
1231 853
1232 3603
1233 1553
1234 3923
1235 1873
1236 2645
1237 597
1238 2901
1239 853
1240 3603
1241 1555
1242 3923
1243 1875
1244 2645
1245 597
1246 2901
1247 853
1248 3803
1249 1753
1250 4059
1251 2009
1252 2781
1253 733
1254 3037
1255 989
1256 3795
1257 1745
1258 4059
1259 2009
1260 2773
1261 725
1262 3037
1263 989
1264 3739
1265 1689
1266 4059
1267 2009
1268 2781
1269 733
1270 3037
1271 989
1272 3731
1273 1681
1274 4059
1275 2009
1276 2773
1277 725
1278 3037
1279 989
1280 3952
1281 3664
1282 3920
1283 3920
1284 3952
1285 3664
1286 3920
1287 3920
1288 3408
1289 3152
1290 3408
1291 3408
1292 3408
1293 3152
1294 3408
1295 3408
1296 3888
1297 3632
1298 3920
1299 3920
1300 3952
1301 3696
1302 3920
1303 3920
1304 3344
1305 3088
1306 3408
1307 3408
1308 3408
1309 3152
1310 3408
1311 3408
1312 4088
1313 3800
1314 4056
1315 4056
1316 4088
1317 3800
1318 4056
1319 4056
1320 3536
1321 3280
1322 3544
1323 3544
1324 3536
1325 3280
1326 3544
1327 3544
1328 4024
1329 3768
1330 4056
1331 4056
1332 4088
1333 3832
1334 4056
1335 4056
1336 3472
1337 3216
1338 3544
1339 3544
1340 3536
1341 3280
1342 3544
1343 3544
1344 3952
1345 1616
1346 3920
1347 1872
1348 2928
1349 592
1350 2900
1351 852
1352 3408
1353 1104
1354 3408
1355 1360
1356 3412
1357 1108
1358 3412
1359 1364
1360 3888
1361 1584
1362 3920
1363 1872
1364 2928
1365 624
1366 2900
1367 852
1368 3344
1369 1040
1370 3408
1371 1360
1372 3412
1373 1108
1374 3412
1375 1364
1376 4088
1377 1752
1378 4056
1379 2008
1380 3064
1381 728
1382 3036
1383 988
1384 3536
1385 1232
1386 3544
1387 1496
1388 2516
1389 212
1390 2524
1391 476
1392 4024
1393 1720
1394 4056
1395 2008
1396 3064
1397 760
1398 3036
1399 988
1400 3472
1401 1168
1402 3544
1403 1496
1404 2516
1405 212
1406 2524
1407 476
1408 3666
1409 3664
1410 3922
1411 3920
1412 3664
1413 3664
1414 3920
1415 3920
1416 3666
1417 3664
1418 3922
1419 3920
1420 3664
1421 3664
1422 3920
1423 3920
1424 3602
1425 3600
1426 3922
1427 3920
1428 3664
1429 3664
1430 3920
1431 3920
1432 3602
1433 3600
1434 3922
1435 3920
1436 3664
1437 3664
1438 3920
1439 3920
1440 3802
1441 3800
1442 4058
1443 4056
1444 3800
1445 3800
1446 4056
1447 4056
1448 3794
1449 3792
1450 4058
1451 4056
1452 3792
1453 3792
1454 4056
1455 4056
1456 3738
1457 3736
1458 4058
1459 4056
1460 3800
1461 3800
1462 4056
1463 4056
1464 3730
1465 3728
1466 4058
1467 4056
1468 3792
1469 3792
1470 4056
1471 4056
1472 1618
1473 1616
1474 1874
1475 1872
1476 596
1477 596
1478 852
1479 852
1480 1618
1481 1616
1482 1874
1483 1872
1484 596
1485 596
1486 852
1487 852
1488 1554
1489 1552
1490 1874
1491 1872
1492 596
1493 596
1494 852
1495 852
1496 1554
1497 1552
1498 1874
1499 1872
1500 596
1501 596
1502 852
1503 852
1504 1754
1505 1752
1506 2010
1507 2008
1508 732
1509 732
1510 988
1511 988
1512 1746
1513 1744
1514 2010
1515 2008
1516 724
1517 724
1518 988
1519 988
1520 1690
1521 1688
1522 2010
1523 2008
1524 732
1525 732
1526 988
1527 988
1528 1682
1529 1680
1530 2010
1531 2008
1532 724
1533 724
1534 988
1535 988
1536 3952
1537 3696
1538 3920
1539 3920
1540 3952
1541 3696
1542 3920
1543 3920
1544 3920
1545 3664
1546 3920
1547 3920
1548 3920
1549 3664
1550 3920
1551 3920
1552 3952
1553 3696
1554 3920
1555 3920
1556 3952
1557 3696
1558 3920
1559 3920
1560 3856
1561 3600
1562 3920
1563 3920
1564 3920
1565 3664
1566 3920
1567 3920
1568 4088
1569 3832
1570 4056
1571 4056
1572 4088
1573 3832
1574 4056
1575 4056
1576 4048
1577 3792
1578 4056
1579 4056
1580 4048
1581 3792
1582 4056
1583 4056
1584 4088
1585 3832
1586 4056
1587 4056
1588 4088
1589 3832
1590 4056
1591 4056
1592 3984
1593 3728
1594 4056
1595 4056
1596 4048
1597 3792
1598 4056
1599 4056
1600 3952
1601 1648
1602 3920
1603 1872
1604 2932
1605 628
1606 2900
1607 852
1608 3920
1609 1616
1610 3920
1611 1872
1612 3924
1613 1620
1614 3924
1615 1876
1616 3952
1617 1648
1618 3920
1619 1872
1620 2932
1621 628
1622 2900
1623 852
1624 3856
1625 1552
1626 3920
1627 1872
1628 3924
1629 1620
1630 3924
1631 1876
1632 4088
1633 1784
1634 4056
1635 2008
1636 3068
1637 764
1638 3036
1639 988
1640 4048
1641 1744
1642 4056
1643 2008
1644 3028
1645 724
1646 3036
1647 988
1648 4088
1649 1784
1650 4056
1651 2008
1652 3068
1653 764
1654 3036
1655 988
1656 3984
1657 1680
1658 4056
1659 2008
1660 3028
1661 724
1662 3036
1663 988
1664 3666
1665 3666
1666 3922
1667 3922
1668 3664
1669 3664
1670 3920
1671 3920
1672 3666
1673 3666
1674 3922
1675 3922
1676 3664
1677 3664
1678 3920
1679 3920
1680 3666
1681 3666
1682 3922
1683 3922
1684 3664
1685 3664
1686 3920
1687 3920
1688 3602
1689 3602
1690 3922
1691 3922
1692 3664
1693 3664
1694 3920
1695 3920
1696 3802
1697 3800
1698 4058
1699 4056
1700 3800
1701 3800
1702 4056
1703 4056
1704 3794
1705 3792
1706 4058
1707 4056
1708 3792
1709 3792
1710 4056
1711 4056
1712 3802
1713 3800
1714 4058
1715 4056
1716 3800
1717 3800
1718 4056
1719 4056
1720 3730
1721 3728
1722 4058
1723 4056
1724 3792
1725 3792
1726 4056
1727 4056
1728 3666
1729 1618
1730 3922
1731 1874
1732 2644
1733 596
1734 2900
1735 852
1736 3666
1737 1618
1738 3922
1739 1874
1740 2644
1741 596
1742 2900
1743 852
1744 3666
1745 1618
1746 3922
1747 1874
1748 2644
1749 596
1750 2900
1751 852
1752 3602
1753 1554
1754 3922
1755 1874
1756 2644
1757 596
1758 2900
1759 852
1760 3802
1761 1752
1762 4058
1763 2008
1764 2780
1765 732
1766 3036
1767 988
1768 3794
1769 1744
1770 4058
1771 2008
1772 2772
1773 724
1774 3036
1775 988
1776 3802
1777 1752
1778 4058
1779 2008
1780 2780
1781 732
1782 3036
1783 988
1784 3730
1785 1680
1786 4058
1787 2008
1788 2772
1789 724
1790 3036
1791 988
1792 3696
1793 3664
1794 3920
1795 3920
1796 3696
1797 3664
1798 3920
1799 3920
1800 3152
1801 3152
1802 3408
1803 3408
1804 3152
1805 3152
1806 3408
1807 3408
1808 3696
1809 3696
1810 3920
1811 3920
1812 3696
1813 3696
1814 3920
1815 3920
1816 3088
1817 3088
1818 3408
1819 3408
1820 3152
1821 3152
1822 3408
1823 3408
1824 4088
1825 3800
1826 4056
1827 4056
1828 4088
1829 3800
1830 4056
1831 4056
1832 3536
1833 3280
1834 3544
1835 3544
1836 3536
1837 3280
1838 3544
1839 3544
1840 4088
1841 3832
1842 4056
1843 4056
1844 4088
1845 3832
1846 4056
1847 4056
1848 3472
1849 3216
1850 3544
1851 3544
1852 3536
1853 3280
1854 3544
1855 3544
1856 3696
1857 1616
1858 3920
1859 1872
1860 2672
1861 592
1862 2900
1863 852
1864 3152
1865 1104
1866 3408
1867 1360
1868 3156
1869 1108
1870 3412
1871 1364
1872 3696
1873 1648
1874 3920
1875 1872
1876 2672
1877 624
1878 2900
1879 852
1880 3088
1881 1040
1882 3408
1883 1360
1884 3156
1885 1108
1886 3412
1887 1364
1888 4088
1889 1752
1890 4056
1891 2008
1892 3064
1893 728
1894 3036
1895 988
1896 3536
1897 1232
1898 3544
1899 1496
1900 2516
1901 212
1902 2524
1903 476
1904 4088
1905 1784
1906 4056
1907 2008
1908 3064
1909 760
1910 3036
1911 988
1912 3472
1913 1168
1914 3544
1915 1496
1916 2516
1917 212
1918 2524
1919 476
1920 3666
1921 3666
1922 3922
1923 3922
1924 3664
1925 3664
1926 3920
1927 3920
1928 3666
1929 3666
1930 3922
1931 3922
1932 3664
1933 3664
1934 3920
1935 3920
1936 3666
1937 3666
1938 3922
1939 3922
1940 3664
1941 3664
1942 3920
1943 3920
1944 3602
1945 3602
1946 3922
1947 3922
1948 3664
1949 3664
1950 3920
1951 3920
1952 3802
1953 3800
1954 4058
1955 4056
1956 3800
1957 3800
1958 4056
1959 4056
1960 3794
1961 3792
1962 4058
1963 4056
1964 3792
1965 3792
1966 4056
1967 4056
1968 3802
1969 3800
1970 4058
1971 4056
1972 3800
1973 3800
1974 4056
1975 4056
1976 3730
1977 3728
1978 4058
1979 4056
1980 3792
1981 3792
1982 4056
1983 4056
1984 3666
1985 1618
1986 1874
1987 1874
1988 2644
1989 596
1990 852
1991 852
1992 3666
1993 1618
1994 1874
1995 1874
1996 2644
1997 596
1998 852
1999 852
2000 3666
2001 1618
2002 1874
2003 1874
2004 2644
2005 596
2006 852
2007 852
2008 3602
2009 1554
2010 1874
2011 1874
2012 2644
2013 596
2014 852
2015 852
2016 3802
2017 1752
2018 2010
2019 2008
2020 2780
2021 732
2022 988
2023 988
2024 3794
2025 1744
2026 2010
2027 2008
2028 2772
2029 724
2030 988
2031 988
2032 3802
2033 1752
2034 2010
2035 2008
2036 2780
2037 732
2038 988
2039 988
2040 3730
2041 1680
2042 2010
2043 2008
2044 2772
2045 724
2046 988
2047 988
2048 3909
2049 3653
2050 3909
2051 3909
2052 3909
2053 3653
2054 3909
2055 3909
2056 3909
2057 3141
2058 3909
2059 3397
2060 3909
2061 3653
2062 3909
2063 3909
2064 3845
2065 3605
2066 3925
2067 3925
2068 3909
2069 3669
2070 3925
2071 3925
2072 3845
2073 3093
2074 3925
2075 3413
2076 3909
2077 3669
2078 3925
2079 3925
2080 4045
2081 3789
2082 4045
2083 4045
2084 4045
2085 3789
2086 4045
2087 4045
2088 4045
2089 3277
2090 4045
2091 3533
2092 4045
2093 3789
2094 4045
2095 4045
2096 3981
2097 3741
2098 4061
2099 4061
2100 4045
2101 3805
2102 4061
2103 4061
2104 3981
2105 3229
2106 4061
2107 3549
2108 4045
2109 3805
2110 4061
2111 4061
2112 3909
2113 1605
2114 3909
2115 1861
2116 3909
2117 1605
2118 3909
2119 1861
2120 3909
2121 1093
2122 3909
2123 1349
2124 3909
2125 1093
2126 3909
2127 1349
2128 3845
2129 1557
2130 3909
2131 1877
2132 3909
2133 1621
2134 3909
2135 1877
2136 3845
2137 1045
2138 3909
2139 1365
2140 3909
2141 1109
2142 3909
2143 1365
2144 3917
2145 1613
2146 3917
2147 1869
2148 3917
2149 1613
2150 3917
2151 1869
2152 3917
2153 1101
2154 3917
2155 1357
2156 3917
2157 1101
2158 3917
2159 1357
2160 3853
2161 1565
2162 3917
2163 1885
2164 3917
2165 1629
2166 3917
2167 1885
2168 3853
2169 1053
2170 3917
2171 1373
2172 3917
2173 1117
2174 3917
2175 1373
2176 3655
2177 3653
2178 3911
2179 3909
2180 3653
2181 3653
2182 3909
2183 3909
2184 3655
2185 3655
2186 3911
2187 3911
2188 3653
2189 3653
2190 3909
2191 3909
2192 3591
2193 3605
2194 3927
2195 3925
2196 3653
2197 3669
2198 3925
2199 3925
2200 3591
2201 3607
2202 3927
2203 3927
2204 3653
2205 3669
2206 3925
2207 3925
2208 3791
2209 3789
2210 4047
2211 4045
2212 3789
2213 3789
2214 4045
2215 4045
2216 3791
2217 3789
2218 4047
2219 4045
2220 3789
2221 3789
2222 4045
2223 4045
2224 3727
2225 3741
2226 4063
2227 4061
2228 3789
2229 3805
2230 4061
2231 4061
2232 3727
2233 3741
2234 4063
2235 4061
2236 3789
2237 3805
2238 4061
2239 4061
2240 3655
2241 1605
2242 3911
2243 1861
2244 3653
2245 1605
2246 3909
2247 1861
2248 3655
2249 1607
2250 3911
2251 1863
2252 3653
2253 1605
2254 3909
2255 1861
2256 3591
2257 1557
2258 3911
2259 1877
2260 3653
2261 1621
2262 3909
2263 1877
2264 3591
2265 1559
2266 3911
2267 1879
2268 3653
2269 1621
2270 3909
2271 1877
2272 3663
2273 1613
2274 3919
2275 1869
2276 3661
2277 1613
2278 3917
2279 1869
2280 3663
2281 1613
2282 3919
2283 1869
2284 3661
2285 1613
2286 3917
2287 1869
2288 3599
2289 1565
2290 3919
2291 1885
2292 3661
2293 1629
2294 3917
2295 1885
2296 3599
2297 1565
2298 3919
2299 1885
2300 3661
2301 1629
2302 3917
2303 1885
2304 3908
2305 3652
2306 3908
2307 3908
2308 3908
2309 3652
2310 3908
2311 3908
2312 3396
2313 3140
2314 3396
2315 3396
2316 3396
2317 3140
2318 3396
2319 3396
2320 3860
2321 3604
2322 3924
2323 3924
2324 3908
2325 3668
2326 3924
2327 3924
2328 3348
2329 3092
2330 3412
2331 3412
2332 3396
2333 3156
2334 3412
2335 3412
2336 4044
2337 3788
2338 4044
2339 4044
2340 4044
2341 3788
2342 4044
2343 4044
2344 3532
2345 3276
2346 3532
2347 3532
2348 3532
2349 3276
2350 3532
2351 3532
2352 3996
2353 3740
2354 4060
2355 4060
2356 4044
2357 3804
2358 4060
2359 4060
2360 3484
2361 3228
2362 3548
2363 3548
2364 3532
2365 3292
2366 3548
2367 3548
2368 3908
2369 1604
2370 3908
2371 1860
2372 3908
2373 1604
2374 3908
2375 1860
2376 3396
2377 1092
2378 3396
2379 1348
2380 3396
2381 1092
2382 3396
2383 1348
2384 3844
2385 1556
2386 3908
2387 1876
2388 3908
2389 1620
2390 3908
2391 1876
2392 3332
2393 1044
2394 3396
2395 1364
2396 3396
2397 1108
2398 3396
2399 1364
2400 3916
2401 1612
2402 3916
2403 1868
2404 3916
2405 1612
2406 3916
2407 1868
2408 3404
2409 1100
2410 3404
2411 1356
2412 3404
2413 1100
2414 3404
2415 1356
2416 3852
2417 1564
2418 3916
2419 1884
2420 3916
2421 1628
2422 3916
2423 1884
2424 3340
2425 1052
2426 3404
2427 1372
2428 3404
2429 1116
2430 3404
2431 1372
2432 3654
2433 3652
2434 3910
2435 3908
2436 3652
2437 3652
2438 3908
2439 3908
2440 3654
2441 3652
2442 3910
2443 3908
2444 3652
2445 3652
2446 3908
2447 3908
2448 3606
2449 3604
2450 3926
2451 3924
2452 3652
2453 3668
2454 3924
2455 3924
2456 3606
2457 3604
2458 3926
2459 3924
2460 3652
2461 3668
2462 3924
2463 3924
2464 3790
2465 3788
2466 4046
2467 4044
2468 3788
2469 3788
2470 4044
2471 4044
2472 3790
2473 3788
2474 4046
2475 4044
2476 3788
2477 3788
2478 4044
2479 4044
2480 3742
2481 3740
2482 4062
2483 4060
2484 3788
2485 3804
2486 4060
2487 4060
2488 3742
2489 3740
2490 4062
2491 4060
2492 3788
2493 3804
2494 4060
2495 4060
2496 1606
2497 1604
2498 1862
2499 1860
2500 1604
2501 1604
2502 1860
2503 1860
2504 1606
2505 1604
2506 1862
2507 1860
2508 1604
2509 1604
2510 1860
2511 1860
2512 1542
2513 1556
2514 1862
2515 1876
2516 1604
2517 1620
2518 1860
2519 1876
2520 1542
2521 1556
2522 1862
2523 1876
2524 1604
2525 1620
2526 1860
2527 1876
2528 1614
2529 1612
2530 1870
2531 1868
2532 1612
2533 1612
2534 1868
2535 1868
2536 1614
2537 1612
2538 1870
2539 1868
2540 1612
2541 1612
2542 1868
2543 1868
2544 1550
2545 1564
2546 1870
2547 1884
2548 1612
2549 1628
2550 1868
2551 1884
2552 1550
2553 1564
2554 1870
2555 1884
2556 1612
2557 1628
2558 1868
2559 1884
2560 3652
2561 3652
2562 3908
2563 3908
2564 3652
2565 3652
2566 3908
2567 3908
2568 3652
2569 3652
2570 3908
2571 3908
2572 3652
2573 3652
2574 3908
2575 3908
2576 3652
2577 3668
2578 3924
2579 3924
2580 3652
2581 3668
2582 3924
2583 3924
2584 3652
2585 3668
2586 3924
2587 3924
2588 3652
2589 3668
2590 3924
2591 3924
2592 4044
2593 3788
2594 4044
2595 4044
2596 4044
2597 3788
2598 4044
2599 4044
2600 4044
2601 3788
2602 4044
2603 4044
2604 4044
2605 3788
2606 4044
2607 4044
2608 4044
2609 3804
2610 4060
2611 4060
2612 4044
2613 3804
2614 4060
2615 4060
2616 4044
2617 3804
2618 4060
2619 4060
2620 4044
2621 3804
2622 4060
2623 4060
2624 3652
2625 1604
2626 3908
2627 1860
2628 3652
2629 1604
2630 3908
2631 1860
2632 3652
2633 1604
2634 3908
2635 1860
2636 3652
2637 1604
2638 3908
2639 1860
2640 3652
2641 1620
2642 3908
2643 1876
2644 3652
2645 1620
2646 3908
2647 1876
2648 3652
2649 1620
2650 3908
2651 1876
2652 3652
2653 1620
2654 3908
2655 1876
2656 3916
2657 1612
2658 3916
2659 1868
2660 3916
2661 1612
2662 3916
2663 1868
2664 3916
2665 1612
2666 3916
2667 1868
2668 3916
2669 1612
2670 3916
2671 1868
2672 3916
2673 1628
2674 3916
2675 1884
2676 3916
2677 1628
2678 3916
2679 1884
2680 3916
2681 1628
2682 3916
2683 1884
2684 3916
2685 1628
2686 3916
2687 1884
2688 3654
2689 3654
2690 3910
2691 3910
2692 3652
2693 3652
2694 3908
2695 3908
2696 3654
2697 3654
2698 3910
2699 3910
2700 3652
2701 3652
2702 3908
2703 3908
2704 3654
2705 3670
2706 3926
2707 3926
2708 3652
2709 3668
2710 3924
2711 3924
2712 3654
2713 3670
2714 3926
2715 3926
2716 3652
2717 3668
2718 3924
2719 3924
2720 3662
2721 3660
2722 3918
2723 3916
2724 3660
2725 3660
2726 3916
2727 3916
2728 3790
2729 3788
2730 4046
2731 4044
2732 3788
2733 3788
2734 4044
2735 4044
2736 3662
2737 3676
2738 3934
2739 3932
2740 3660
2741 3676
2742 3932
2743 3932
2744 3790
2745 3804
2746 4062
2747 4060
2748 3788
2749 3804
2750 4060
2751 4060
2752 3654
2753 1606
2754 3910
2755 1862
2756 3652
2757 1604
2758 3908
2759 1860
2760 3654
2761 1606
2762 3910
2763 1862
2764 3652
2765 1604
2766 3908
2767 1860
2768 3654
2769 1622
2770 3910
2771 1878
2772 3652
2773 1620
2774 3908
2775 1876
2776 3654
2777 1622
2778 3910
2779 1878
2780 3652
2781 1620
2782 3908
2783 1876
2784 3662
2785 1612
2786 3918
2787 1868
2788 3660
2789 1612
2790 3916
2791 1868
2792 3662
2793 1612
2794 3918
2795 1868
2796 3660
2797 1612
2798 3916
2799 1868
2800 3662
2801 1628
2802 3918
2803 1884
2804 3660
2805 1628
2806 3916
2807 1884
2808 3662
2809 1628
2810 3918
2811 1884
2812 3660
2813 1628
2814 3916
2815 1884
2816 3652
2817 3652
2818 3908
2819 3908
2820 3652
2821 3652
2822 3908
2823 3908
2824 3140
2825 3140
2826 3396
2827 3396
2828 3140
2829 3140
2830 3396
2831 3396
2832 3668
2833 3668
2834 3924
2835 3924
2836 3652
2837 3668
2838 3924
2839 3924
2840 3156
2841 3156
2842 3412
2843 3412
2844 3140
2845 3156
2846 3412
2847 3412
2848 4044
2849 3788
2850 4044
2851 4044
2852 4044
2853 3788
2854 4044
2855 4044
2856 3532
2857 3276
2858 3532
2859 3532
2860 3532
2861 3276
2862 3532
2863 3532
2864 4060
2865 3804
2866 4060
2867 4060
2868 4044
2869 3804
2870 4060
2871 4060
2872 3548
2873 3292
2874 3548
2875 3548
2876 3532
2877 3292
2878 3548
2879 3548
2880 3652
2881 1604
2882 3908
2883 1860
2884 3652
2885 1604
2886 3908
2887 1860
2888 3140
2889 1092
2890 3396
2891 1348
2892 3140
2893 1092
2894 3396
2895 1348
2896 3652
2897 1620
2898 3908
2899 1876
2900 3652
2901 1620
2902 3908
2903 1876
2904 3140
2905 1108
2906 3396
2907 1364
2908 3140
2909 1108
2910 3396
2911 1364
2912 3916
2913 1612
2914 3916
2915 1868
2916 3916
2917 1612
2918 3916
2919 1868
2920 3404
2921 1100
2922 3404
2923 1356
2924 3404
2925 1100
2926 3404
2927 1356
2928 3916
2929 1628
2930 3916
2931 1884
2932 3916
2933 1628
2934 3916
2935 1884
2936 3404
2937 1116
2938 3404
2939 1372
2940 3404
2941 1116
2942 3404
2943 1372
2944 3654
2945 3654
2946 3910
2947 3910
2948 3652
2949 3652
2950 3908
2951 3908
2952 3654
2953 3654
2954 3910
2955 3910
2956 3652
2957 3652
2958 3908
2959 3908
2960 3670
2961 3670
2962 3926
2963 3926
2964 3652
2965 3668
2966 3924
2967 3924
2968 3670
2969 3670
2970 3926
2971 3926
2972 3652
2973 3668
2974 3924
2975 3924
2976 3662
2977 3660
2978 3918
2979 3916
2980 3660
2981 3660
2982 3916
2983 3916
2984 3790
2985 3788
2986 4046
2987 4044
2988 3788
2989 3788
2990 4044
2991 4044
2992 3678
2993 3676
2994 3934
2995 3932
2996 3660
2997 3676
2998 3932
2999 3932
3000 3806
3001 3804
3002 4062
3003 4060
3004 3788
3005 3804
3006 4060
3007 4060
3008 1606
3009 1606
3010 1862
3011 1862
3012 1604
3013 1604
3014 1860
3015 1860
3016 1606
3017 1606
3018 1862
3019 1862
3020 1604
3021 1604
3022 1860
3023 1860
3024 1606
3025 1622
3026 1862
3027 1878
3028 1604
3029 1620
3030 1860
3031 1876
3032 1606
3033 1622
3034 1862
3035 1878
3036 1604
3037 1620
3038 1860
3039 1876
3040 1614
3041 1612
3042 1870
3043 1868
3044 1612
3045 1612
3046 1868
3047 1868
3048 1614
3049 1612
3050 1870
3051 1868
3052 1612
3053 1612
3054 1868
3055 1868
3056 1614
3057 1628
3058 1870
3059 1884
3060 1612
3061 1628
3062 1868
3063 1884
3064 1614
3065 1628
3066 1870
3067 1884
3068 1612
3069 1628
3070 1868
3071 1884
3072 3921
3073 3665
3074 3921
3075 3921
3076 3921
3077 3665
3078 3921
3079 3921
3080 3921
3081 3153
3082 3921
3083 3409
3084 3921
3085 3665
3086 3921
3087 3921
3088 3857
3089 3601
3090 3920
3091 3920
3092 3921
3093 3665
3094 3920
3095 3920
3096 3857
3097 3089
3098 3920
3099 3408
3100 3921
3101 3665
3102 3920
3103 3920
3104 4057
3105 3801
3106 4057
3107 4057
3108 4057
3109 3801
3110 4057
3111 4057
3112 4049
3113 3281
3114 4057
3115 3545
3116 4049
3117 3793
3118 4057
3119 4057
3120 3993
3121 3737
3122 4056
3123 4056
3124 4057
3125 3801
3126 4056
3127 4056
3128 3985
3129 3217
3130 4056
3131 3544
3132 4049
3133 3793
3134 4056
3135 4056
3136 3921
3137 1617
3138 3921
3139 1873
3140 3925
3141 1621
3142 3925
3143 1877
3144 3921
3145 1105
3146 3921
3147 1361
3148 3925
3149 1109
3150 3925
3151 1365
3152 3856
3153 1552
3154 3920
3155 1872
3156 3924
3157 1620
3158 3924
3159 1876
3160 3856
3161 1040
3162 3920
3163 1360
3164 3924
3165 1108
3166 3924
3167 1364
3168 4057
3169 1753
3170 4057
3171 2009
3172 4061
3173 1757
3174 4061
3175 2013
3176 4049
3177 1233
3178 4057
3179 1497
3180 4053
3181 1237
3182 4061
3183 1501
3184 3992
3185 1688
3186 4056
3187 2008
3188 4060
3189 1756
3190 4060
3191 2012
3192 3984
3193 1168
3194 4056
3195 1496
3196 4052
3197 1236
3198 4060
3199 1500
3200 3667
3201 3665
3202 3923
3203 3921
3204 3665
3205 3665
3206 3921
3207 3921
3208 3667
3209 3667
3210 3923
3211 3923
3212 3665
3213 3665
3214 3921
3215 3921
3216 3603
3217 3601
3218 3922
3219 3920
3220 3665
3221 3665
3222 3920
3223 3920
3224 3603
3225 3603
3226 3922
3227 3922
3228 3665
3229 3665
3230 3920
3231 3920
3232 3803
3233 3801
3234 4059
3235 4057
3236 3801
3237 3801
3238 4057
3239 4057
3240 3795
3241 3793
3242 4059
3243 4057
3244 3793
3245 3793
3246 4057
3247 4057
3248 3739
3249 3737
3250 4058
3251 4056
3252 3801
3253 3801
3254 4056
3255 4056
3256 3731
3257 3729
3258 4058
3259 4056
3260 3793
3261 3793
3262 4056
3263 4056
3264 3667
3265 1617
3266 3923
3267 1873
3268 3669
3269 1621
3270 3925
3271 1877
3272 3667
3273 1619
3274 3923
3275 1875
3276 3669
3277 1621
3278 3925
3279 1877
3280 3602
3281 1552
3282 3922
3283 1872
3284 3668
3285 1620
3286 3924
3287 1876
3288 3602
3289 1554
3290 3922
3291 1874
3292 3668
3293 1620
3294 3924
3295 1876
3296 3803
3297 1753
3298 4059
3299 2009
3300 3805
3301 1757
3302 4061
3303 2013
3304 3795
3305 1745
3306 4059
3307 2009
3308 3797
3309 1749
3310 4061
3311 2013
3312 3738
3313 1688
3314 4058
3315 2008
3316 3804
3317 1756
3318 4060
3319 2012
3320 3730
3321 1680
3322 4058
3323 2008
3324 3796
3325 1748
3326 4060
3327 2012
3328 3920
3329 3664
3330 3920
3331 3920
3332 3920
3333 3664
3334 3920
3335 3920
3336 3408
3337 3152
3338 3408
3339 3408
3340 3408
3341 3152
3342 3408
3343 3408
3344 3856
3345 3600
3346 3920
3347 3920
3348 3920
3349 3664
3350 3920
3351 3920
3352 3344
3353 3088
3354 3408
3355 3408
3356 3408
3357 3152
3358 3408
3359 3408
3360 4056
3361 3800
3362 4056
3363 4056
3364 4056
3365 3800
3366 4056
3367 4056
3368 3544
3369 3288
3370 3544
3371 3544
3372 3544
3373 3288
3374 3544
3375 3544
3376 3992
3377 3736
3378 4056
3379 4056
3380 4056
3381 3800
3382 4056
3383 4056
3384 3480
3385 3224
3386 3544
3387 3544
3388 3544
3389 3288
3390 3544
3391 3544
3392 3920
3393 1616
3394 3920
3395 1872
3396 3920
3397 1616
3398 3924
3399 1876
3400 3408
3401 1104
3402 3408
3403 1360
3404 3412
3405 1108
3406 3412
3407 1364
3408 3856
3409 1552
3410 3920
3411 1872
3412 3920
3413 1616
3414 3924
3415 1876
3416 3344
3417 1040
3418 3408
3419 1360
3420 3412
3421 1108
3422 3412
3423 1364
3424 4056
3425 1752
3426 4056
3427 2008
3428 4056
3429 1752
3430 4060
3431 2012
3432 3544
3433 1240
3434 3544
3435 1496
3436 3548
3437 1244
3438 3548
3439 1500
3440 3992
3441 1688
3442 4056
3443 2008
3444 4056
3445 1752
3446 4060
3447 2012
3448 3480
3449 1176
3450 3544
3451 1496
3452 3548
3453 1244
3454 3548
3455 1500
3456 3666
3457 3664
3458 3922
3459 3920
3460 3664
3461 3664
3462 3920
3463 3920
3464 3666
3465 3664
3466 3922
3467 3920
3468 3664
3469 3664
3470 3920
3471 3920
3472 3602
3473 3600
3474 3922
3475 3920
3476 3664
3477 3664
3478 3920
3479 3920
3480 3602
3481 3600
3482 3922
3483 3920
3484 3664
3485 3664
3486 3920
3487 3920
3488 3802
3489 3800
3490 4058
3491 4056
3492 3800
3493 3800
3494 4056
3495 4056
3496 3802
3497 3800
3498 4058
3499 4056
3500 3800
3501 3800
3502 4056
3503 4056
3504 3738
3505 3736
3506 4058
3507 4056
3508 3800
3509 3800
3510 4056
3511 4056
3512 3738
3513 3736
3514 4058
3515 4056
3516 3800
3517 3800
3518 4056
3519 4056
3520 1618
3521 1616
3522 1874
3523 1872
3524 1620
3525 1620
3526 1876
3527 1876
3528 1618
3529 1616
3530 1874
3531 1872
3532 1620
3533 1620
3534 1876
3535 1876
3536 1554
3537 1552
3538 1874
3539 1872
3540 1620
3541 1620
3542 1876
3543 1876
3544 1554
3545 1552
3546 1874
3547 1872
3548 1620
3549 1620
3550 1876
3551 1876
3552 1754
3553 1752
3554 2010
3555 2008
3556 1756
3557 1756
3558 2012
3559 2012
3560 1754
3561 1752
3562 2010
3563 2008
3564 1756
3565 1756
3566 2012
3567 2012
3568 1690
3569 1688
3570 2010
3571 2008
3572 1756
3573 1756
3574 2012
3575 2012
3576 1690
3577 1688
3578 2010
3579 2008
3580 1756
3581 1756
3582 2012
3583 2012
3584 3920
3585 3664
3586 3920
3587 3920
3588 3920
3589 3664
3590 3920
3591 3920
3592 3920
3593 3664
3594 3920
3595 3920
3596 3920
3597 3664
3598 3920
3599 3920
3600 3920
3601 3664
3602 3920
3603 3920
3604 3920
3605 3664
3606 3920
3607 3920
3608 3920
3609 3664
3610 3920
3611 3920
3612 3920
3613 3664
3614 3920
3615 3920
3616 4056
3617 3800
3618 4056
3619 4056
3620 4056
3621 3800
3622 4056
3623 4056
3624 4048
3625 3792
3626 4056
3627 4056
3628 4048
3629 3792
3630 4056
3631 4056
3632 4056
3633 3800
3634 4056
3635 4056
3636 4056
3637 3800
3638 4056
3639 4056
3640 4048
3641 3792
3642 4056
3643 4056
3644 4048
3645 3792
3646 4056
3647 4056
3648 3920
3649 1616
3650 3920
3651 1872
3652 3924
3653 1620
3654 3924
3655 1876
3656 3920
3657 1616
3658 3920
3659 1872
3660 3924
3661 1620
3662 3924
3663 1876
3664 3920
3665 1616
3666 3920
3667 1872
3668 3924
3669 1620
3670 3924
3671 1876
3672 3920
3673 1616
3674 3920
3675 1872
3676 3924
3677 1620
3678 3924
3679 1876
3680 4056
3681 1752
3682 4056
3683 2008
3684 4060
3685 1756
3686 4060
3687 2012
3688 4048
3689 1744
3690 4056
3691 2008
3692 4052
3693 1748
3694 4060
3695 2012
3696 4056
3697 1752
3698 4056
3699 2008
3700 4060
3701 1756
3702 4060
3703 2012
3704 4048
3705 1744
3706 4056
3707 2008
3708 4052
3709 1748
3710 4060
3711 2012
3712 3666
3713 3666
3714 3922
3715 3922
3716 3664
3717 3664
3718 3920
3719 3920
3720 3666
3721 3666
3722 3922
3723 3922
3724 3664
3725 3664
3726 3920
3727 3920
3728 3666
3729 3666
3730 3922
3731 3922
3732 3664
3733 3664
3734 3920
3735 3920
3736 3666
3737 3666
3738 3922
3739 3922
3740 3664
3741 3664
3742 3920
3743 3920
3744 3802
3745 3800
3746 4058
3747 4056
3748 3800
3749 3800
3750 4056
3751 4056
3752 3794
3753 3792
3754 4058
3755 4056
3756 3792
3757 3792
3758 4056
3759 4056
3760 3802
3761 3800
3762 4058
3763 4056
3764 3800
3765 3800
3766 4056
3767 4056
3768 3794
3769 3792
3770 4058
3771 4056
3772 3792
3773 3792
3774 4056
3775 4056
3776 3666
3777 1618
3778 3922
3779 1874
3780 3668
3781 1620
3782 3924
3783 1876
3784 3666
3785 1618
3786 3922
3787 1874
3788 3668
3789 1620
3790 3924
3791 1876
3792 3666
3793 1618
3794 3922
3795 1874
3796 3668
3797 1620
3798 3924
3799 1876
3800 3666
3801 1618
3802 3922
3803 1874
3804 3668
3805 1620
3806 3924
3807 1876
3808 3802
3809 1752
3810 4058
3811 2008
3812 3804
3813 1756
3814 4060
3815 2012
3816 3794
3817 1744
3818 4058
3819 2008
3820 3796
3821 1748
3822 4060
3823 2012
3824 3802
3825 1752
3826 4058
3827 2008
3828 3804
3829 1756
3830 4060
3831 2012
3832 3794
3833 1744
3834 4058
3835 2008
3836 3796
3837 1748
3838 4060
3839 2012
3840 3664
3841 3664
3842 3920
3843 3920
3844 3664
3845 3664
3846 3920
3847 3920
3848 3152
3849 3152
3850 3408
3851 3408
3852 3152
3853 3152
3854 3408
3855 3408
3856 3664
3857 3664
3858 3920
3859 3920
3860 3664
3861 3664
3862 3920
3863 3920
3864 3152
3865 3152
3866 3408
3867 3408
3868 3152
3869 3152
3870 3408
3871 3408
3872 4056
3873 3800
3874 4056
3875 4056
3876 4056
3877 3800
3878 4056
3879 4056
3880 3536
3881 3280
3882 3544
3883 3544
3884 3536
3885 3280
3886 3544
3887 3544
3888 4056
3889 3800
3890 4056
3891 4056
3892 4056
3893 3800
3894 4056
3895 4056
3896 3536
3897 3280
3898 3544
3899 3544
3900 3536
3901 3280
3902 3544
3903 3544
3904 3664
3905 1616
3906 3920
3907 1872
3908 3664
3909 1616
3910 3924
3911 1876
3912 3152
3913 1104
3914 3408
3915 1360
3916 3156
3917 1108
3918 3412
3919 1364
3920 3664
3921 1616
3922 3920
3923 1872
3924 3664
3925 1616
3926 3924
3927 1876
3928 3152
3929 1104
3930 3408
3931 1360
3932 3156
3933 1108
3934 3412
3935 1364
3936 4056
3937 1752
3938 4056
3939 2008
3940 4056
3941 1752
3942 4060
3943 2012
3944 3536
3945 1232
3946 3544
3947 1496
3948 3540
3949 1236
3950 3548
3951 1500
3952 4056
3953 1752
3954 4056
3955 2008
3956 4056
3957 1752
3958 4060
3959 2012
3960 3536
3961 1232
3962 3544
3963 1496
3964 3540
3965 1236
3966 3548
3967 1500
3968 3666
3969 3666
3970 3922
3971 3922
3972 3664
3973 3664
3974 3920
3975 3920
3976 3666
3977 3666
3978 3922
3979 3922
3980 3664
3981 3664
3982 3920
3983 3920
3984 3666
3985 3666
3986 3922
3987 3922
3988 3664
3989 3664
3990 3920
3991 3920
3992 3666
3993 3666
3994 3922
3995 3922
3996 3664
3997 3664
3998 3920
3999 3920
4000 3802
4001 3800
4002 4058
4003 4056
4004 3800
4005 3800
4006 4056
4007 4056
4008 3794
4009 3792
4010 4058
4011 4056
4012 3792
4013 3792
4014 4056
4015 4056
4016 3802
4017 3800
4018 4058
4019 4056
4020 3800
4021 3800
4022 4056
4023 4056
4024 3794
4025 3792
4026 4058
4027 4056
4028 3792
4029 3792
4030 4056
4031 4056
4032 3666
4033 1618
4034 1874
4035 1874
4036 3668
4037 1620
4038 1876
4039 1876
4040 3666
4041 1618
4042 1874
4043 1874
4044 3668
4045 1620
4046 1876
4047 1876
4048 3666
4049 1618
4050 1874
4051 1874
4052 3668
4053 1620
4054 1876
4055 1876
4056 3666
4057 1618
4058 1874
4059 1874
4060 3668
4061 1620
4062 1876
4063 1876
4064 3802
4065 1752
4066 2010
4067 2008
4068 3804
4069 1756
4070 2012
4071 2012
4072 3794
4073 1744
4074 2010
4075 2008
4076 3796
4077 1748
4078 2012
4079 2012
4080 3802
4081 1752
4082 2010
4083 2008
4084 3804
4085 1756
4086 2012
4087 2012
4088 3794
4089 1744
4090 2010
4091 2008
4092 3796
4093 1748
4094 2012
4095 2012
