Ar salabotu pareizi en gena funkciju



		musas genu sk: 15 musas sunu skaits: 4

ciklu skaits := 10
garakais cikls := 1
iteraciju skaits := 2443732
analize ar sausanu2 musai laiks: 61s

	info par visiem cikliem:

cikls  cikla_garums  gar_cels_lidz  relativie_trapijumi    starta_stavoklis

    1             1             44               0.9831   16959902639436030
    2             1             30               0.0156     338670252146765
    3             1             25               0.0002   16958935530696958
    4             1             25               0.0005   17170041763229950
    5             1             25               0.0005    1118151991328845
    6             1              8               0.0000   17173340298113278
    7             1             26               0.0002    1118139106426957
    8             1              8               0.0000   55161347519774797
    9             1              6               0.0000   55161334634872909
   10             1              5               0.0000   16962234065580286

####################################################################################################################
		musas genu sk: 15 musas sunu skaits: 8

ciklu skaits := 36
garakais cikls := 1
iteraciju skaits := 1262835
analize ar sausanu2 musai laiks: 61s

	info par visiem cikliem:

cikls  cikla_garums  gar_cels_lidz  relativie_trapijumi    starta_stavoklis

    1             1             44               0.9668   16959902639436030 16959902639436030
    2             1             44               0.0148     338670252159230 16959902639423565
    3             1             44               0.0148   16959902639423565 338670252159230
    4             1             38               0.0004   17170041763229950 16959902639436030
    5             1             22               0.0000   17173340298113278 16959902639436030
    6             1             38               0.0004   16959902639423565 1118139106439422
    7             1             37               0.0004   16958935530696958 16959902639436030
    8             1             37               0.0004    1118151991341310 16959902639423565
    9             1             39               0.0004   16959902639436030 16958935530696958
   10             1             30               0.0002     338670252146765 338670252146765
   11             1             37               0.0004   16959902639423565 1118151991341310
   12             1             38               0.0004   16959902639436030 17170041763229950
   13             1             30               0.0000     338670252146765 1118151991328845
   14             1             44               0.0004    1118139106439422 16959902639423565
   15             1             22               0.0000    1118151991328845 338670252146765
   16             1             28               0.0000   16959902639423565 55161334634885374
   17             1             30               0.0000     338670252159230 17170041763217485
   18             1             27               0.0000   16962234065580286 16959902639436030
   19             1             29               0.0000   16959902639423565 55161347519787262
   20             1             30               0.0000   55161334634885374 16959902639423565
   21             1             22               0.0000     338670252146765 1118139106426957
   22             1             23               0.0000   16959902639436030 17173340298113278
   23             1             23               0.0000     338670252159230 16958935530684493
   24             1             23               0.0000   17170041763217485 338670252159230
   25             1             14               0.0000   16959902639436030 16962234065580286
   26             1             22               0.0000    1118139106426957 338670252146765
   27             1             18               0.0000   55161334634872909 338670252146765
   28             1             15               0.0000     338670252159230 17173340298100813
   29             1             22               0.0000   16958935530684493 338670252159230
   30             1             17               0.0000    1118151991341310 17170041763217485
   31             1              8               0.0000    1118139106439422 17170041763217485
   32             1             24               0.0000   17170041763217485 1118139106439422
   33             1             24               0.0000    1118151991341310 16958935530684493
   34             1             22               0.0000    1118139106426957 1118139106426957
   35             1             30               0.0000   55161347519787262 16959902639423565
   36             1              9               0.0000    1118139106439422 16958935530684493

####################################################################################################################
		musas genu sk: 15 musas sunu skaits: 12

ciklu skaits := 98
garakais cikls := 1
iteraciju skaits := 5102343
analize ar sausanu2 musai laiks: 361s

	info par visiem cikliem:

cikls  cikla_garums  gar_cels_lidz  relativie_trapijumi    starta_stavoklis

    1             1             44               0.9502   16959902639436030 16959902639436030 16959902639436030
    2             1             44               0.0146     338670252159230 16959902639436030 16959902639423565
    3             1             38               0.0004   16959902639436030 16958935530696958 16959902639436030
    4             1             44               0.0147   16959902639423565 338670252159230 16959902639436030
    5             1             44               0.0146   16959902639436030 16959902639423565 338670252159230
    6             1             39               0.0002     338670252146765 338670252159230 16959902639423565
    7             1             44               0.0004   16958935530696958 16959902639436030 16959902639436030
    8             1             44               0.0004   16959902639423565 1118139106439422 16959902639436030
    9             1             36               0.0000   16959902639436030 16962234065580286 16959902639436030
   10             1             35               0.0000    1118151991328845 338670252159230 16959902639423565
   11             1             34               0.0000   16959902639423565 1118151991328845 338670252159230
   12             1             44               0.0004   16959902639423565 1118151991341310 16959902639436030
   13             1             36               0.0000    1118139106426957 338670252159230 16959902639423565
   14             1             43               0.0004   16959902639436030 17170041763229950 16959902639436030
   15             1             44               0.0004   16959902639436030 16959902639423565 1118139106439422
   16             1             44               0.0004   16959902639436030 16959902639436030 16958935530696958
   17             1             44               0.0004   16959902639436030 16959902639423565 1118151991341310
   18             1             44               0.0004    1118151991341310 16959902639436030 16959902639423565
   19             1             38               0.0002     338670252159230 16959902639423565 338670252146765
   20             1             38               0.0004    1118139106439422 16959902639436030 16959902639423565
   21             1             44               0.0004   16959902639436030 16959902639436030 17170041763229950
   22             1             34               0.0000   16959902639423565 338670252159230 17170041763229950
   23             1             38               0.0004   17170041763229950 16959902639436030 16959902639436030
   24             1             38               0.0002   16959902639423565 338670252146765 338670252159230
   25             1             30               0.0000     338670252146765 338670252146765 338670252146765
   26             1             37               0.0000   16959902639436030 17173340298113278 16959902639436030
   27             1             38               0.0000     338670252146765 1118151991341310 16959902639423565
   28             1             38               0.0000   16959902639436030 17170041763217485 338670252159230
   29             1             30               0.0000     338670252159230 16959902639436030 17170041763217485
   30             1             36               0.0000   16959902639423565 338670252146765 1118139106439422
   31             1             32               0.0000   17170041763229950 16959902639423565 338670252159230
   32             1             30               0.0000   16959902639436030 16959902639423565 55161347519787262
   33             1             36               0.0000     338670252159230 16959902639423565 1118139106426957
   34             1             29               0.0000   16958935530696958 16959902639423565 338670252159230
   35             1             37               0.0000     338670252159230 16959902639423565 1118151991328845
   36             1             32               0.0000     338670252159230 17170041763229950 16959902639423565
   37             1             30               0.0000   16959902639423565 55161347519787262 16959902639436030
   38             1             37               0.0000     338670252146765 1118139106439422 16959902639423565
   39             1             40               0.0000   16958935530684493 338670252159230 16959902639436030
   40             1             37               0.0000     338670252159230 16958935530696958 16959902639423565
   41             1             30               0.0000     338670252159230 16959902639436030 16958935530684493
   42             1             30               0.0000   16959902639423565 338670252146765 1118151991341310
   43             1             36               0.0000   16959902639436030 16958935530684493 338670252159230
   44             1             37               0.0000   16959902639436030 16959902639423565 55161334634885374
   45             1             36               0.0000   16962234065580286 16959902639436030 16959902639436030
   46             1             33               0.0000    1118139106439422 16959902639423565 338670252146765
   47             1             35               0.0000   16959902639423565 1118139106426957 338670252159230
   48             1             36               0.0000   16959902639436030 16959902639436030 17173340298113278
   49             1             16               0.0000    1118151991341310 16958935530696958 16959902639423565
   50             1             37               0.0000   16959902639423565 338670252159230 16958935530696958
   51             1             24               0.0000   17170041763217485 1118151991341310 16959902639436030
   52             1             36               0.0000   17170041763217485 338670252159230 16959902639436030
   53             1             35               0.0000   55161334634885374 16959902639436030 16959902639423565
   54             1             37               0.0000   16959902639436030 16959902639436030 16962234065580286
   55             1             37               0.0000   16959902639423565 55161334634885374 16959902639436030
   56             1             37               0.0000    1118151991341310 16959902639423565 338670252146765
   57             1             15               0.0000   16959902639423565 1118139106439422 16958935530696958
   58             1             25               0.0000   16959902639423565 1118151991341310 17170041763229950
   59             1             36               0.0000   17173340298113278 16959902639436030 16959902639436030
   60             1             29               0.0000   16958935530696958 17170041763229950 16959902639436030
   61             1             35               0.0000   16959902639436030 16958935530684493 1118139106439422
   62             1             17               0.0000   17170041763229950 16959902639436030 17170041763229950
   63             1             30               0.0000    1118151991341310 16959902639436030 17170041763217485
   64             1             38               0.0000   16959902639436030 17170041763229950 17170041763229950
   65             1             23               0.0000   16958935530684493 1118139106439422 16959902639436030
   66             1             21               0.0000    1118151991328845 338670252146765 338670252146765
   67             1             13               0.0000   16959902639423565 1118151991341310 16958935530696958
   68             1             22               0.0000    1118151991341310 16959902639436030 16958935530684493
   69             1             31               0.0000   55161347519787262 16959902639436030 16959902639423565
   70             1             22               0.0000   17170041763229950 16959902639436030 16958935530696958
   71             1             29               0.0000   16959902639436030 17170041763217485 1118151991341310
   72             1             24               0.0000   16958935530684493 1118151991341310 16959902639436030
   73             1             36               0.0000    1118139106439422 16959902639436030 17170041763217485
   74             1             28               0.0000    1118139106439422 16959902639436030 16958935530684493
   75             1             30               0.0000     338670252146765 55161334634885374 16959902639423565
   76             1             21               0.0000     338670252146765 338670252146765 1118139106426957
   77             1             30               0.0000   16962234065580286 16959902639423565 338670252159230
   78             1             17               0.0000   16959902639423565 1118151991328845 1118139106439422
   79             1             17               0.0000   16959902639436030 16958935530684493 1118151991341310
   80             1             22               0.0000   16959902639423565 338670252146765 55161334634885374
   81             1             21               0.0000   17170041763229950 17170041763229950 16959902639436030
   82             1             14               0.0000    1118139106439422 16959902639423565 1118151991328845
   83             1             29               0.0000   16959902639436030 17170041763217485 1118139106439422
   84             1             15               0.0000     338670252146765 338670252159230 17170041763217485
   85             1             22               0.0000    1118151991341310 17170041763229950 16959902639423565
   86             1             28               0.0000   17170041763217485 1118139106439422 16959902639436030
   87             1             25               0.0000   16958935530696958 16959902639423565 1118151991341310
   88             1             21               0.0000     338670252159230 17170041763217485 338670252146765
   89             1             17               0.0000   16959902639423565 1118139106439422 17170041763229950
   90             1             14               0.0000   16959902639436030 16958935530696958 17170041763229950
   91             1             22               0.0000     338670252159230 16958935530684493 338670252146765
   92             1             28               0.0000   16959902639423565 1118139106426957 1118139106439422
   93             1             25               0.0000     338670252146765 338670252146765 1118151991328845
   94             1             16               0.0000   17170041763229950 16959902639423565 1118151991341310
   95             1             24               0.0000   16959902639423565 1118139106426957 1118151991341310
   96             1             22               0.0000    1118139106426957 1118151991341310 16959902639423565
   97             1             16               0.0000   16959902639436030 17170041763229950 16958935530696958
   98             1             22               0.0000   16962234065567821 338670252159230 16959902639436030

####################################################################################################################
		musas genu sk: 15 musas sunu skaits: 12

ciklu skaits := 98
garakais cikls := 1
iteraciju skaits := 5134476
analize ar sausanu2 musai laiks: 361s

	info par visiem cikliem:

cikls  cikla_garums  gar_cels_lidz  relativie_trapijumi    starta_stavoklis

    1             1             44               0.9502   16959902639436030 16959902639436030 16959902639436030
    2             1             44               0.0146     338670252159230 16959902639436030 16959902639423565
    3             1             38               0.0004   16959902639436030 16958935530696958 16959902639436030
    4             1             44               0.0147   16959902639423565 338670252159230 16959902639436030
    5             1             44               0.0146   16959902639436030 16959902639423565 338670252159230
    6             1             39               0.0002     338670252146765 338670252159230 16959902639423565
    7             1             44               0.0004   16958935530696958 16959902639436030 16959902639436030
    8             1             44               0.0004   16959902639423565 1118139106439422 16959902639436030
    9             1             36               0.0000   16959902639436030 16962234065580286 16959902639436030
   10             1             35               0.0000    1118151991328845 338670252159230 16959902639423565
   11             1             34               0.0000   16959902639423565 1118151991328845 338670252159230
   12             1             44               0.0004   16959902639423565 1118151991341310 16959902639436030
   13             1             36               0.0000    1118139106426957 338670252159230 16959902639423565
   14             1             43               0.0004   16959902639436030 17170041763229950 16959902639436030
   15             1             44               0.0004   16959902639436030 16959902639423565 1118139106439422
   16             1             44               0.0004   16959902639436030 16959902639436030 16958935530696958
   17             1             44               0.0004   16959902639436030 16959902639423565 1118151991341310
   18             1             44               0.0004    1118151991341310 16959902639436030 16959902639423565
   19             1             38               0.0002     338670252159230 16959902639423565 338670252146765
   20             1             38               0.0004    1118139106439422 16959902639436030 16959902639423565
   21             1             44               0.0004   16959902639436030 16959902639436030 17170041763229950
   22             1             34               0.0000   16959902639423565 338670252159230 17170041763229950
   23             1             38               0.0004   17170041763229950 16959902639436030 16959902639436030
   24             1             38               0.0002   16959902639423565 338670252146765 338670252159230
   25             1             30               0.0000     338670252146765 338670252146765 338670252146765
   26             1             37               0.0000   16959902639436030 17173340298113278 16959902639436030
   27             1             38               0.0000     338670252146765 1118151991341310 16959902639423565
   28             1             38               0.0000   16959902639436030 17170041763217485 338670252159230
   29             1             30               0.0000     338670252159230 16959902639436030 17170041763217485
   30             1             36               0.0000   16959902639423565 338670252146765 1118139106439422
   31             1             32               0.0000   17170041763229950 16959902639423565 338670252159230
   32             1             30               0.0000   16959902639436030 16959902639423565 55161347519787262
   33             1             36               0.0000     338670252159230 16959902639423565 1118139106426957
   34             1             29               0.0000   16958935530696958 16959902639423565 338670252159230
   35             1             37               0.0000     338670252159230 16959902639423565 1118151991328845
   36             1             32               0.0000     338670252159230 17170041763229950 16959902639423565
   37             1             30               0.0000   16959902639423565 55161347519787262 16959902639436030
   38             1             37               0.0000     338670252146765 1118139106439422 16959902639423565
   39             1             40               0.0000   16958935530684493 338670252159230 16959902639436030
   40             1             37               0.0000     338670252159230 16958935530696958 16959902639423565
   41             1             30               0.0000     338670252159230 16959902639436030 16958935530684493
   42             1             30               0.0000   16959902639423565 338670252146765 1118151991341310
   43             1             36               0.0000   16959902639436030 16958935530684493 338670252159230
   44             1             37               0.0000   16959902639436030 16959902639423565 55161334634885374
   45             1             36               0.0000   16962234065580286 16959902639436030 16959902639436030
   46             1             33               0.0000    1118139106439422 16959902639423565 338670252146765
   47             1             35               0.0000   16959902639423565 1118139106426957 338670252159230
   48             1             36               0.0000   16959902639436030 16959902639436030 17173340298113278
   49             1             16               0.0000    1118151991341310 16958935530696958 16959902639423565
   50             1             37               0.0000   16959902639423565 338670252159230 16958935530696958
   51             1             24               0.0000   17170041763217485 1118151991341310 16959902639436030
   52             1             36               0.0000   17170041763217485 338670252159230 16959902639436030
   53             1             35               0.0000   55161334634885374 16959902639436030 16959902639423565
   54             1             37               0.0000   16959902639436030 16959902639436030 16962234065580286
   55             1             37               0.0000   16959902639423565 55161334634885374 16959902639436030
   56             1             37               0.0000    1118151991341310 16959902639423565 338670252146765
   57             1             15               0.0000   16959902639423565 1118139106439422 16958935530696958
   58             1             25               0.0000   16959902639423565 1118151991341310 17170041763229950
   59             1             36               0.0000   17173340298113278 16959902639436030 16959902639436030
   60             1             29               0.0000   16958935530696958 17170041763229950 16959902639436030
   61             1             35               0.0000   16959902639436030 16958935530684493 1118139106439422
   62             1             17               0.0000   17170041763229950 16959902639436030 17170041763229950
   63             1             30               0.0000    1118151991341310 16959902639436030 17170041763217485
   64             1             38               0.0000   16959902639436030 17170041763229950 17170041763229950
   65             1             23               0.0000   16958935530684493 1118139106439422 16959902639436030
   66             1             21               0.0000    1118151991328845 338670252146765 338670252146765
   67             1             13               0.0000   16959902639423565 1118151991341310 16958935530696958
   68             1             22               0.0000    1118151991341310 16959902639436030 16958935530684493
   69             1             31               0.0000   55161347519787262 16959902639436030 16959902639423565
   70             1             22               0.0000   17170041763229950 16959902639436030 16958935530696958
   71             1             29               0.0000   16959902639436030 17170041763217485 1118151991341310
   72             1             24               0.0000   16958935530684493 1118151991341310 16959902639436030
   73             1             36               0.0000    1118139106439422 16959902639436030 17170041763217485
   74             1             28               0.0000    1118139106439422 16959902639436030 16958935530684493
   75             1             30               0.0000     338670252146765 55161334634885374 16959902639423565
   76             1             21               0.0000     338670252146765 338670252146765 1118139106426957
   77             1             30               0.0000   16962234065580286 16959902639423565 338670252159230
   78             1             17               0.0000   16959902639423565 1118151991328845 1118139106439422
   79             1             17               0.0000   16959902639436030 16958935530684493 1118151991341310
   80             1             22               0.0000   16959902639423565 338670252146765 55161334634885374
   81             1             21               0.0000   17170041763229950 17170041763229950 16959902639436030
   82             1             14               0.0000    1118139106439422 16959902639423565 1118151991328845
   83             1             29               0.0000   16959902639436030 17170041763217485 1118139106439422
   84             1             15               0.0000     338670252146765 338670252159230 17170041763217485
   85             1             22               0.0000    1118151991341310 17170041763229950 16959902639423565
   86             1             28               0.0000   17170041763217485 1118139106439422 16959902639436030
   87             1             25               0.0000   16958935530696958 16959902639423565 1118151991341310
   88             1             21               0.0000     338670252159230 17170041763217485 338670252146765
   89             1             17               0.0000   16959902639423565 1118139106439422 17170041763229950
   90             1             14               0.0000   16959902639436030 16958935530696958 17170041763229950
   91             1             22               0.0000     338670252159230 16958935530684493 338670252146765
   92             1             28               0.0000   16959902639423565 1118139106426957 1118139106439422
   93             1             25               0.0000     338670252146765 338670252146765 1118151991328845
   94             1             16               0.0000   17170041763229950 16959902639423565 1118151991341310
   95             1             24               0.0000   16959902639423565 1118139106426957 1118151991341310
   96             1             22               0.0000    1118139106426957 1118151991341310 16959902639423565
   97             1             16               0.0000   16959902639436030 17170041763229950 16958935530696958
   98             1             22               0.0000   16962234065567821 338670252159230 16959902639436030

####################################################################################################################

