		musas genu sk: 15 musas sunu skaits: 4

ciklu skaits := 10

wg: 0 0 1 1 
WG: 0 0 1 1 
en: 1 1 0 0 
EN: 1 1 0 0 
hh: 1 1 0 0 
HH: 1 1 0 0 
ptc: 0 0 1 1 
PTC: 0 0 1 1 
PH: 0 0 1 1 
SMO: 1 1 1 1 
ci: 0 0 1 1 
CI: 0 0 1 1 
CIA: 0 0 1 1 
CIR: 0 0 0 0 




wg: 0 0 0 0 
WG: 0 0 0 0 
en: 0 0 0 0 
EN: 0 0 0 0 
hh: 0 0 0 0 
HH: 0 0 0 0 
ptc: 0 0 0 0 
PTC: 1 1 1 1 
PH: 0 0 0 0 
SMO: 0 0 0 0 
ci: 1 1 1 1 
CI: 1 1 1 1 
CIA: 0 0 0 0 
CIR: 1 1 1 1 




wg: 0 0 0 1 
WG: 0 0 0 1 
en: 1 0 0 0 
EN: 1 0 0 0 
hh: 1 0 0 0 
HH: 1 0 0 0 
ptc: 0 1 0 1 
PTC: 0 1 1 1 
PH: 0 1 0 1 
SMO: 1 1 0 1 
ci: 0 1 1 1 
CI: 0 1 1 1 
CIA: 0 1 0 1 
CIR: 0 0 1 0 




wg: 0 0 0 1 
WG: 0 0 0 1 
en: 1 0 0 0 
EN: 1 0 0 0 
hh: 1 0 0 0 
HH: 1 0 0 0 
ptc: 0 1 0 1 
PTC: 1 1 1 1 
PH: 0 1 0 1 
SMO: 0 1 0 1 
ci: 0 1 1 1 
CI: 0 1 1 1 
CIA: 0 1 0 1 
CIR: 0 0 1 0 




wg: 0 0 1 0 
WG: 0 0 1 0 
en: 0 1 0 0 
EN: 0 1 0 0 
hh: 0 1 0 0 
HH: 0 1 0 0 
ptc: 1 0 1 0 
PTC: 1 1 1 1 
PH: 1 0 1 0 
SMO: 1 0 1 0 
ci: 1 0 1 1 
CI: 1 0 1 1 
CIA: 1 0 1 0 
CIR: 0 0 0 1 




wg: 0 1 0 1 
WG: 0 1 0 1 
en: 1 0 0 0 
EN: 1 0 0 0 
hh: 1 0 0 0 
HH: 1 0 0 0 
ptc: 0 1 0 1 
PTC: 1 1 1 1 
PH: 0 1 0 1 
SMO: 0 1 0 1 
ci: 0 1 1 1 
CI: 0 1 1 1 
CIA: 0 1 0 1 
CIR: 0 0 1 0 




wg: 0 0 1 0 
WG: 0 0 1 0 
en: 0 1 0 0 
EN: 0 1 0 0 
hh: 0 1 0 0 
HH: 0 1 0 0 
ptc: 1 0 1 0 
PTC: 1 0 1 1 
PH: 1 0 1 0 
SMO: 1 1 1 0 
ci: 1 0 1 1 
CI: 1 0 1 1 
CIA: 1 0 1 0 
CIR: 0 0 0 1 




wg: 1 0 1 0 
WG: 1 0 1 0 
en: 0 1 0 0 
EN: 0 1 0 0 
hh: 0 1 0 0 
HH: 0 1 0 0 
ptc: 1 0 1 0 
PTC: 1 1 1 1 
PH: 1 0 1 0 
SMO: 1 0 1 0 
ci: 1 0 1 1 
CI: 1 0 1 1 
CIA: 1 0 1 0 
CIR: 0 0 0 1 




wg: 1 0 1 0 
WG: 1 0 1 0 
en: 0 1 0 0 
EN: 0 1 0 0 
hh: 0 1 0 0 
HH: 0 1 0 0 
ptc: 1 0 1 0 
PTC: 1 0 1 1 
PH: 1 0 1 0 
SMO: 1 1 1 0 
ci: 1 0 1 1 
CI: 1 0 1 1 
CIA: 1 0 1 0 
CIR: 0 0 0 1 




wg: 0 1 0 1 
WG: 0 1 0 1 
en: 1 0 0 0 
EN: 1 0 0 0 
hh: 1 0 0 0 
HH: 1 0 0 0 
ptc: 0 1 0 1 
PTC: 0 1 1 1 
PH: 0 1 0 1 
SMO: 1 1 0 1 
ci: 0 1 1 1 
CI: 0 1 1 1 
CIA: 0 1 0 1 
CIR: 0 0 1 0 





####################################################################################################################
