		musas genu sk: 15 musas sunu skaits: 2

ciklu skaits := 3
garakais cikls := 1
analize ar sausanu2 musai laiks: 61s

	info par visiem cikliem:

cikls  cikla_garums  gar_cels_lidz  reizes_trapits

    1             1             27    1087868/4158592
    2             1             26    1354769/4158592
    3             1             30    1715955/4158592

###############################################

		musas genu sk: 15 musas sunu skaits: 2

ciklu skaits := 3
garakais cikls := 1
analize ar sausanu2 musai laiks: 121s

	info par visiem cikliem:

cikls  cikla_garums  gar_cels_lidz  reizes_trapits

    1             1             27    2202587/8419866
    2             1             26    2743805/8419866
    3             1             30    3473474/8419866

###############################################




		musas genu sk: 15 musas sunu skaits: 2

ciklu skaits := 3
garakais cikls := 1
analize ar sausanu2 musai laiks: 146s

	info par visiem cikliem:

cikls  cikla_garums  gar_cels_lidz  reizes_trapits

    1             1             27    2615960/10000000
    2             1             26    3258817/10000000
    3             1             30    4125223/10000000

###############################################


		musas genu sk: 15 musas sunu skaits: 2

ciklu skaits := 3
garakais cikls := 1
analize ar sausanu2 musai laiks: 241s

	info par visiem cikliem:

cikls  cikla_garums  gar_cels_lidz  reizes_trapits

    1             1             27    4367147/16690455
    2             1             26    5440204/16690455
    3             1             30    6883104/16690455

###############################################



///////////////////////////////////////////////////////////
Ar 4 suunaam:

		musas genu sk: 15 musas sunu skaits: 4

ciklu skaits := 5
garakais cikls := 1
analize ar sausanu2 musai laiks: 151s

	info par visiem cikliem:

cikls  cikla_garums  gar_cels_lidz  reizes_trapits

    1             1             21    9983106/10000000
    2             1             10       5187/10000000
    3             1             10       5222/10000000
    4             1             12       3217/10000000
    5             1             12       3268/10000000

###############################################


		musas genu sk: 15 musas sunu skaits: 4

ciklu skaits := 5
garakais cikls := 1
analize ar sausanu2 musai laiks: 361s

	info par visiem cikliem:

cikls  cikla_garums  gar_cels_lidz  reizes_trapits

    1             1             21   23956903/23997299
    2             1             10      12482/23997299
    3             1             10      12492/23997299
    4             1             12       7708/23997299
    5             1             12       7714/23997299

###############################################


		musas genu sk: 15 musas sunu skaits: 4

ciklu skaits := 5
garakais cikls := 1
analize ar sausanu2 musai laiks: 61s

	info par visiem cikliem:

cikls  cikla_garums  gar_cels_lidz     reizes_trapits  sakuma_virsotne(binari)

    1             1             21    3634735/3640994  000000001001101000000001001101100000001001101100000001001101
    2             1             10       1930/3640994  000111100010000011000011111110100000001001101111000011111110
    3             1             10       1938/3640994  011000011111110000111100010000111000011111110100000001001101
    4             1             12       1180/3640994  000111101000000011000011111110100000001001101111000011111110
    5             1             12       1211/3640994  011000011111110000111101000000111000011111110100000001001101

##################################################################################################################

///////////////////////////////////////////////////////////////////////////////////////////////////////////////////////

		musas genu sk: 15 musas sunu skaits: 2

ciklu skaits := 3
garakais cikls := 1
analize ar sausanu2 musai laiks: 61s

	info par visiem cikliem:

cikls  cikla_garums  gar_cels_lidz  reizes_trapits

    1             1             27    1125564/4302706
    2             1             26    1401476/4302706
    3             1             30    1775666/4302706

####################################################################################################################

