		musas genu sk: 15 musas sunu skaits: 4

ciklu skaits := 10

cikls: 1	000111100010000  000111100010000  111000011111110  111000011111110  
cikls: 2	000000001001101  000000001001101  100000001001101  100000001001101  
cikls: 3	000111100010000  000000011111110  100000001001101  111000011111110  
cikls: 4	000111101000000  000000011111110  100000001001101  111000011111110  
cikls: 5	000000011111110  000111101000000  111000011111110  100000001001101  
cikls: 6	000111101000000  011000011111110  100000001001101  111000011111110  
cikls: 7	000000011111110  000111100010000  111000011111110  100000001001101  
cikls: 8	011000011111110  000111101000000  111000011111110  100000001001101  
cikls: 9	011000011111110  000111100010000  111000011111110  100000001001101  
cikls: 10	000111100010000  011000011111110  100000001001101  111000011111110  

####################################################################################################################
		musas genu sk: 15 musas sunu skaits: 4

ciklu skaits := 10

cikls: 1	000111100010000  000111100010000  111000011111110  111000011111110  
cikls: 2	000000001001101  000000001001101  100000001001101  100000001001101  
cikls: 3	000111100010000  000000011111110  100000001001101  111000011111110  
cikls: 4	000111101000000  000000011111110  100000001001101  111000011111110  
cikls: 5	000000011111110  000111101000000  111000011111110  100000001001101  
cikls: 6	000111101000000  011000011111110  100000001001101  111000011111110  
cikls: 7	000000011111110  000111100010000  111000011111110  100000001001101  
cikls: 8	011000011111110  000111101000000  111000011111110  100000001001101  
cikls: 9	011000011111110  000111100010000  111000011111110  100000001001101  
cikls: 10	000111100010000  011000011111110  100000001001101  111000011111110  

####################################################################################################################
		musas genu sk: 15 musas sunu skaits: 4

ciklu skaits := 10

cikls: 1	000111100010000  000111100010000  111000011111110  111000011111110  
cikls: 2	000000001001101  000000001001101  100000001001101  100000001001101  
cikls: 3	000111100010000  000000011111110  100000001001101  111000011111110  
cikls: 4	000111101000000  000000011111110  100000001001101  111000011111110  
cikls: 5	000000011111110  000111101000000  111000011111110  100000001001101  
cikls: 6	000111101000000  011000011111110  100000001001101  111000011111110  
cikls: 7	000000011111110  000111100010000  111000011111110  100000001001101  
cikls: 8	011000011111110  000111101000000  111000011111110  100000001001101  
cikls: 9	011000011111110  000111100010000  111000011111110  100000001001101  
cikls: 10	000111100010000  011000011111110  100000001001101  111000011111110  

####################################################################################################################
