		musas genu sk: 15 musas sunu skaits: 4

ciklu skaits := 5
garakais cikls := 1
iteraciju skaits := 4186687
analize ar sausanu2 musai laiks: 61s

	info par visiem cikliem:

cikls  cikla_garums  gar_cels_lidz  relativie_trapijumi    starta_stavoklis

    1             1             20               0.9977     338670252146765
    2             1             10               0.0011   16962234065567821
    3             1             10               0.0010   17173340298100813
    4             1             10               0.0001   55161334634872909
    5             1             12               0.0001   55161347519774797

####################################################################################################################
		musas genu sk: 15 musas sunu skaits: 8

ciklu skaits := 16
garakais cikls := 1
iteraciju skaits := 2473141
analize ar sausanu2 musai laiks: 61s

	info par visiem cikliem:

cikls  cikla_garums  gar_cels_lidz  relativie_trapijumi    starta_stavoklis

    1             1             21               0.9961     338670252146765 338670252146765
    2             1             17               0.0011   16962234065567821 338670252146765
    3             1             17               0.0005     338670252146765 55161334634872909
    4             1             18               0.0010   17173340298100813 338670252146765
    5             1             17               0.0003     338670252146765 55161347519774797
    6             1             17               0.0003     338670252159230 17173340298100813
    7             1             18               0.0005     338670252159230 16962234065567821
    8             1             15               0.0001   55161347519774797 338670252146765
    9             1             15               0.0001   55161334634872909 338670252146765
   10             1              9               0.0000   17173340298100813 55161334634872909
   11             1              9               0.0000   16962234065567821 55161347519774797
   12             1             10               0.0000   55161347519787262 17173340298100813
   13             1             10               0.0000   17173340298100813 55161347519774797
   14             1              8               0.0000   17173340298113278 16962234065567821
   15             1             10               0.0000   16962234065580286 16962234065567821
   16             1             10               0.0000   16962234065567821 55161334634872909

####################################################################################################################

		musas genu sk: 15 musas sunu skaits: 12

ciklu skaits := 23
garakais cikls := 1
iteraciju skaits := 1840257
analize ar sausanu2 musai laiks: 61s

	info par visiem cikliem:

cikls  cikla_garums  gar_cels_lidz  relativie_trapijumi    starta_stavoklis

    1             1             21               0.9945     338670252146765 338670252146765 338670252146765
    2             1             17               0.0005     338670252146765 55161334634872909 338670252146765
    3             1             17               0.0005     338670252146765 338670252146765 55161334634872909
    4             1             16               0.0003     338670252146765 338670252159230 17173340298100813
    5             1             18               0.0010   17173340298100813 338670252146765 338670252146765
    6             1             18               0.0005     338670252146765 338670252159230 16962234065567821
    7             1             19               0.0003     338670252146765 338670252146765 55161347519774797
    8             1             17               0.0005     338670252159230 16962234065567821 338670252146765
    9             1             17               0.0003     338670252159230 17173340298100813 338670252146765
   10             1             17               0.0011   16962234065567821 338670252146765 338670252146765
   11             1             17               0.0003     338670252146765 55161347519774797 338670252146765
   12             1             16               0.0001   55161334634872909 338670252146765 338670252146765
   13             1             15               0.0001   55161347519774797 338670252146765 338670252146765
   14             1             12               0.0000   17173340298100813 338670252146765 55161334634872909
   15             1             10               0.0000   17173340298113278 17173340298100813 338670252146765
   16             1             10               0.0000   17173340298100813 55161334634872909 338670252146765
   17             1             10               0.0000   16962234065567821 338670252146765 55161334634872909
   18             1             10               0.0000   16962234065567821 338670252146765 55161347519774797
   19             1             10               0.0000   16962234065567821 55161347519774797 338670252146765
   20             1             10               0.0000   16962234065580286 16962234065567821 338670252146765
   21             1             10               0.0000     338670252146765 55161347519787262 16962234065567821
   22             1             11               0.0000   55161334634872909 55161347519774797 338670252146765
   23             1              8               0.0000   17173340298100813 55161347519774797 338670252146765

####################################################################################################################
		musas genu sk: 15 musas sunu skaits: 12

ciklu skaits := 48
garakais cikls := 1
iteraciju skaits := 11055855
analize ar sausanu2 musai laiks: 361s

	info par visiem cikliem:

cikls  cikla_garums  gar_cels_lidz  relativie_trapijumi    starta_stavoklis

    1             1             21               0.9945     338670252146765 338670252146765 338670252146765
    2             1             18               0.0005     338670252146765 55161334634872909 338670252146765
    3             1             18               0.0005     338670252146765 338670252146765 55161334634872909
    4             1             20               0.0003     338670252146765 338670252159230 17173340298100813
    5             1             18               0.0010   17173340298100813 338670252146765 338670252146765
    6             1             18               0.0005     338670252146765 338670252159230 16962234065567821
    7             1             19               0.0003     338670252146765 338670252146765 55161347519774797
    8             1             18               0.0005     338670252159230 16962234065567821 338670252146765
    9             1             17               0.0003     338670252159230 17173340298100813 338670252146765
   10             1             19               0.0011   16962234065567821 338670252146765 338670252146765
   11             1             17               0.0003     338670252146765 55161347519774797 338670252146765
   12             1             18               0.0001   55161334634872909 338670252146765 338670252146765
   13             1             17               0.0001   55161347519774797 338670252146765 338670252146765
   14             1             12               0.0000   17173340298100813 338670252146765 55161334634872909
   15             1             10               0.0000   17173340298113278 17173340298100813 338670252146765
   16             1             10               0.0000   17173340298100813 55161334634872909 338670252146765
   17             1             10               0.0000   16962234065567821 338670252146765 55161334634872909
   18             1             14               0.0000   16962234065567821 338670252146765 55161347519774797
   19             1             13               0.0000   16962234065567821 55161347519774797 338670252146765
   20             1             12               0.0000   16962234065580286 16962234065567821 338670252146765
   21             1             10               0.0000     338670252146765 55161347519787262 16962234065567821
   22             1             11               0.0000   55161334634872909 55161347519774797 338670252146765
   23             1             11               0.0000   17173340298100813 55161347519774797 338670252146765
   24             1             11               0.0000     338670252159230 17173340298113278 16962234065567821
   25             1             11               0.0000   17173340298100813 338670252159230 17173340298100813
   26             1             12               0.0000   16962234065567821 338670252159230 16962234065567821
   27             1             11               0.0000   17173340298100813 338670252159230 16962234065567821
   28             1             10               0.0000     338670252146765 55161334634885374 17173340298100813
   29             1             10               0.0000   16962234065580286 17173340298100813 338670252146765
   30             1             10               0.0000     338670252159230 16962234065580286 16962234065567821
   31             1             10               0.0000     338670252146765 55161347519774797 55161334634872909
   32             1             10               0.0000   55161334634872909 338670252146765 55161334634872909
   33             1             10               0.0000     338670252159230 17173340298100813 55161334634872909
   34             1             11               0.0000   17173340298100813 338670252146765 55161347519774797
   35             1             11               0.0000     338670252146765 55161334634885374 16962234065567821
   36             1             12               0.0000   16962234065567821 338670252159230 17173340298100813
   37             1             11               0.0000     338670252146765 55161334634872909 55161334634872909
   38             1             12               0.0000   16962234065567821 55161334634872909 338670252146765
   39             1             10               0.0000   55161334634872909 338670252159230 16962234065567821
   40             1             12               0.0000   17173340298113278 16962234065567821 338670252146765
   41             1             10               0.0000   55161347519774797 55161334634872909 338670252146765
   42             1             10               0.0000     338670252159230 16962234065567821 55161334634872909
   43             1             10               0.0000   55161347519787262 17173340298100813 338670252146765
   44             1             12               0.0000     338670252146765 55161347519774797 55161347519774797
   45             1             10               0.0000   55161334634885374 16962234065567821 338670252146765
   46             1             10               0.0000   55161334634872909 338670252146765 55161347519774797
   47             1             10               0.0000     338670252146765 55161347519787262 17173340298100813
   48             1             11               0.0000     338670252146765 55161334634872909 55161347519774797

####################################################################################################################
