
	Salmonellas pilna stav grafa analize.
 Kopejais genu skaits: 34.
 Konstanto skaits:6.

268409344 268409344 268409344 268409344 268409344 268409344 268409344 268409344 268409344 268409344 268409344 268409344 268409344 268409344 268409344 268409344 268409344 268409344 268409344 268409344 268409344 268409344 268409344 268409344 268409344 268409344 268409344 268409344 268409344 268409344 268409344 268409344 268409344 268409344 268409344 268409344 268409344 268409344 268409344 268409344 268409344 268409344 268409344 268409344 268409344 268409344 268409344 268409344 268409344 268409344 268409344 268409344 268409344 268409344 268409344 268409344 268409344 268409344 268409344 268409344 268409344 268409344 268409344 268409344 