
	Salmonellas pilna stav grafa analize.
 Kopejais genu skaits: 34.
 Konstanto skaits:6.

134217728.00 134217728.00 268435456.00 268435456.00 134217728.00 134217728.00 268435456.00 268435456.00 134217728.00 134217728.00 268435456.00 268435456.00 134217728.00 134217728.00 268435456.00 268435456.00 134217728.00 134217728.00 268435456.00 268435456.00 134217728.00 134217728.00 268435456.00 268435456.00 134217728.00 134217728.00 268435456.00 268435456.00 134217728.00 134217728.00 268435456.00 268435456.00 134217728.00 134217728.00 134217728.00 134217728.00 134217728.00 134217728.00 134217728.00 134217728.00 134217728.00 134217728.00 134217728.00 134217728.00 134217728.00 134217728.00 134217728.00 134217728.00 134217728.00 134217728.00 134217728.00 134217728.00 134217728.00 134217728.00 134217728.00 134217728.00 134217728.00 134217728.00 134217728.00 134217728.00 134217728.00 134217728.00 134217728.00 134217728.00 