statistika 03 2var pilnam grafam
intervals	geni: [30;30]	 ietekmejosie: [2 ; 3]
bula funkcijas rekinas pec a varianta


#gens:30 #
1073741824 1023410176 1073741824 536870912 790626304 805306368 536870912 893587456 805306368 880541696 
502757312 475320856 934414740 847611080 828769840 934388185 1034916736 1066152524 850682596 979558000 
