statistika 03 2var pilnam grafam
intervals	geni: [20;20]	 ietekmejosie: [2 ; 7]
bula funkcijas rekinas pec a varianta


#gens:20   iet gens:2 #

$cikls  baseina_lielums  cikla_garums   liel_att_lidz_c$

     1          1046528             1                12
     2             2048             1                 3

#########################################################
     1           450560            15                 5
     2            24576             1                 5
     3           450560            15                 5
     4            24576             1                 5
     5            36864             2                 5
     6            36864             2                 5
     7            12288             1                 5
     8            12288             1                 5

#########################################################
     1           786432             1                 6
     2           262144             1                 6

#########################################################
     1          1048576             1                 8

#########################################################
     1           242112             8                12
     2           228736             8                12
     3           465280             8                12
     4           112448             1                 7

#########################################################
     1            21760            12                 7
     2            21760            12                 7
     3            27264            12                 7
     4            27264            12                 7
     5            18816            12                 7
     6            18816            12                 7
     7            23040            12                 7
     8            23040            12                 7
     9            27008            12                 7
    10            27008            12                 7
    11            33280            12                 7
    12            33280            12                 7
    13            18304            12                 7
    14            18304            12                 7
    15            23040            12                 7
    16            23040            12                 7
    17            27008            12                 7
    18            27008            12                 7
    19            18816            12                 7
    20            18816            12                 7
    21            18304            12                 7
    22            18304            12                 7
    23            13568             6                 4
    24            13568             6                 4
    25             9216             6                 4
    26             9216             6                 4
    27            13568             6                 4
    28            13568             6                 4
    29             9216             6                 4
    30             9216             6                 4
    31            27264            12                 7
    32            27264            12                 7
    33            21760            12                 7
    34            21760            12                 7
    35            16128             6                 4
    36            16128             6                 4
    37            16128             6                 4
    38            16128             6                 4
    39            14848            12                 5
    40            14848            12                 5
    41            33280            12                 7
    42            33280            12                 7
    43            13568             6                 4
    44            13568             6                 4
    45             9216             6                 4
    46             9216             6                 4
    47            13568             6                 4
    48            13568             6                 4
    49             9216             6                 4
    50             9216             6                 4
    51            16128             6                 4
    52            16128             6                 4
    53            16128             6                 4
    54            16128             6                 4
    55            14848            12                 5
    56            14848            12                 5

#########################################################
     1          1048576             1                 5

#########################################################
     1           524288             2                 9
     2           524288             2                 9

#########################################################
     1           141696            24                10
     2           108672            12                 8
     3           110976            12                 8
     4           139008            24                10
     5            47232             8                10
     6            46336             8                10
     7            35456             4                 8
     8            37760             4                 8
     9            51520             8                11
    10           154560            24                11
    11           131520            24                10
    12            43840             8                10

#########################################################
     1           790528             1                24
     2           258048             1                10

#########################################################

#gens:20   iet gens:3 #

$cikls  baseina_lielums  cikla_garums   liel_att_lidz_c$

     1           361931             4                37
     2           211456            13                27
     3           284889             4                36
     4           145842            13                32
     5            11992             2                12
     6             4500             5                15
     7             9014             6                 8
     8            14132             5                15
     9             4820             2                11

#########################################################
     1           265182            17                27
     2           521096            38                26
     3           152503             1                21
     4           109795             1                24

#########################################################
     1           671648             8                45
     2           361848             2                38
     3            13528             2                 7
     4             1248             2                 6
     5              304             1                 3

#########################################################
     1          1048576            34                56

#########################################################
     1           740752             9                38
     2            62076             2                11
     3           245748             2                28

#########################################################
     1           865764            31                53
     2           169076             9                30
     3            11752             4                11
     4              280             1                 3
     5              644             1                 3
     6              352             1                 4
     7              268             1                 4
     8              360             1                 4
     9               80             4                 2

#########################################################
     1            39528             4                 9
     2           960360             8                36
     3             6488             1                 9
     4             3072             1                 4
     5            13496             3                10
     6            20320             2                 9
     7             3376             4                 5
     8             1600             4                 5
     9              144             1                 3
    10              192             6                 4

#########################################################
     1           822560             6               101
     2           168874            10                41
     3            52356             8                14
     4             4786             2                14

#########################################################
     1           195880             7                12
     2           801184             8                28
     3            21480             4                 9
     4            21072             4                 8
     5             4312             4                20
     6             3440             9                14
     7             1208            12                 4

#########################################################
     1           568228             6                32
     2            47660             2                16
     3           131368            14                39
     4           218190             8                53
     5            40084            10                13
     6            40008             7                22
     7             1188             3                10
     8             1850             4                 8

#########################################################

#gens:20   iet gens:4 #

$cikls  baseina_lielums  cikla_garums   liel_att_lidz_c$

     1           935173           140               410
     2           100339            20               113
     3            11773            15                40
     4             1167            19                10
     5               79             1                 6
     6               21             1                 3
     7               20             1                 5
     8                4             1                 1

#########################################################
     1           957392             6                83
     2            79608             1                32
     3            11150             4                17
     4              426             1                 4

#########################################################
     1           706587            80                83
     2           323578            37                57
     3            16392             8                21
     4             2019             6                12

#########################################################
     1           802465            31               235
     2           188150            15               142
     3            43276             8                71
     4            13309            25                24
     5             1333             1                19
     6               43             3                 2

#########################################################
     1           571777            37               307
     2           361830            35               176
     3           114969            57               122

#########################################################
     1          1010801           168               122
     2            35495            11                28
     3              528             1                 9
     4             1594             2                14
     5              140             1                 7
     6               18             2                 4

#########################################################
     1             7840             2                21
     2           662669            31               123
     3           346427             4                89
     4            11272             2                22
     5            17721            25                49
     6             2166             1                19
     7              481             1                10

#########################################################
     1           781635            78                79
     2           266887             8                65
     3               36             1                 2
     4               16             1                 2
     5                2             1                 1

#########################################################
     1           743600            52               211
     2           176100             2               104
     3            89888            88                53
     4            13528            12                25
     5            23480            27                31
     6             1512             1                13
     7              468             2                 9

#########################################################
     1           480974            10                42
     2           556412            16                55
     3             2374             2                13
     4             8040             4                14
     5              237             2                 7
     6               81             1                 4
     7              244             2                 5
     8              124             2                 4
     9               90             1                 3

#########################################################

#gens:20   iet gens:5 #

$cikls  baseina_lielums  cikla_garums   liel_att_lidz_c$

     1           791875             1               296
     2           213043            28               244
     3            29786             8                60
     4            12076             1                44
     5             1386             1                21
     6              410             7                13

#########################################################
     1            57009            93               100
     2           708597            95               427
     3           244154            11               189
     4            16484             2                59
     5             6428             2                37
     6            11774             2                61
     7             1578             2                21
     8             1873             4                38
     9              486             4                15
    10              100             1                 6
    11                8             2                 2
    12               47             1                 6
    13               38             1                 3

#########################################################
     1           279511           168               308
     2            51758             9               151
     3           645555           205               297
     4            71377            78                94
     5               89             3                 7
     6              282             3                11
     7                4             1                 1

#########################################################
     1           656796           294               253
     2           368107           163               290
     3            17667            80                51
     4             6006             5                57

#########################################################
     1           282576           101               186
     2           379035           170               220
     3           322866           263               132
     4            51981           129                66
     5             5860            14                24
     6             3303             2                29
     7             1056            11                30
     8             1577             9                24
     9              194             2                 7
    10               14             4                 2
    11              114             6                 6

#########################################################
     1           924315           276               807
     2            90372            94               180
     3             9825            60                43
     4             3301            24                41
     5            15101            53                80
     6             4985            30                42
     7              646            14                12
     8                6             1                 2
     9               25             5                 3

#########################################################
     1           435214            61               181
     2           550799            81               254
     3            11137            37                47
     4            50047            95                58
     5             1379            14                13

#########################################################
     1           754512           117               344
     2           289928           108                99
     3             1865             9                20
     4             1165            10                20
     5              767             3                21
     6              108             2                 9
     7               95             2                 5
     8               12             1                 3
     9               60             2                 4
    10               64             2                 3

#########################################################
     1           356244            65               277
     2           692227             8               432
     3               85             2                 5
     4               16             3                 2
     5                4             1                 1

#########################################################
     1           514133           190               295
     2            39016            42               137
     3            20552             5               100
     4           472253           128               344
     5             1185            10                19
     6             1283             6                16
     7               39             3                 4
     8              115             9                 8

#########################################################

#gens:20   iet gens:6 #

$cikls  baseina_lielums  cikla_garums   liel_att_lidz_c$

     1           984522           428               619
     2            62333           132               169
     3             1721            30                25

#########################################################
     1           958270           400              1355
     2            77837           199               254
     3            10467            43                89
     4             1613             4                28
     5              140             8                13
     6              166             4                11
     7               83             6                 8

#########################################################
     1           918877             3              1426
     2           129624           127               314
     3               75             3                 8

#########################################################
     1           999080           608               797
     2             9330            55               110
     3            28173            14               202
     4              772            25                14
     5             2531            26                88
     6             1669            30                27
     7             5914            23                74
     8               99             3                10
     9              981             4                37
    10               27             1                 6

#########################################################
     1           982113           107              1313
     2            29586            11               115
     3             4835             2                84
     4            15997            72                74
     5             6374            21                44
     6              989             8                21
     7             8433            31                54
     8              249             2                14

#########################################################
     1          1000685           171               778
     2            10518            15                95
     3            31332           111               140
     4              407            11                20
     5             1889            55                34
     6             2878            19                29
     7              457             1                40
     8              335             3                18
     9               34             5                 6
    10               41             3                 4

#########################################################
     1           594749            41               507
     2           396074           441               440
     3            16835             2               111
     4            31872            87                90
     5             5736            95                26
     6              378             1                14
     7              502             1                26
     8             1035             2                36
     9              958             9                27
    10               83             2                 5
    11              203            14                11
    12               90             6                 6
    13               43             2                 4
    14               18             6                 2

#########################################################
     1           147657            25               480
     2           217296             6               446
     3           171994           240               227
     4           338001            33               559
     5           135568            43               278
     6            22478            77               113
     7            15514            63                87
     8               68             2                 9

#########################################################
     1           473490           238               432
     2           120379           126               287
     3           230497           293               308
     4            11315            63                61
     5           196909            50               437
     6              532             2                27
     7            14944             2               116
     8               54             1                10
     9              456             9                37

#########################################################
     1           790880           460               588
     2            93373           109               186
     3             8905            16                86
     4            68434            56               179
     5            45045            53               150
     6             4617            16                46
     7            19151            47                92
     8             1050             5                27
     9            10757            10                74
    10             2078            24                25
    11             4284             5                71
    12                2             1                 1

#########################################################

#gens:20   iet gens:7 #

$cikls  baseina_lielums  cikla_garums   liel_att_lidz_c$

     1           901700           850              1412
     2            90965            77               370
     3            34650            35               257
     4             9444             8               110
     5            10731            93                75
     6              342            16                13
     7              740            10                20
     8                4             1                 2

#########################################################
     1           881200           431              1411
     2           104995            31               596
     3            12920            75                76
     4            49073            14               287
     5              385            22                10
     6                1             1                 0
     7                2             1                 1

#########################################################
     1          1016584             9              1379
     2             3600            18                82
     3            28388             8               311
     4                4             2                 1

#########################################################
     1           962050            42              1727
     2            67672            36               339
     3             8836            60               117
     4             9967            41               142
     5               50             6                 5
     6                1             1                 0

#########################################################
     1           110084            51               476
     2            17704            29               246
     3           782842          1112               753
     4           115097           106               396
     5            11356            34               116
     6            11061           137               131
     7              432            10                15

#########################################################
     1           918916           633              1386
     2            97278           218               628
     3            24272            39               305
     4             5364            54                81
     5             2157            20                72
     6              574            19                20
     7                8             1                 3
     8                7             2                 2

#########################################################
     1          1042304          1410              1080
     2             2093            38                43
     3             1381            21                61
     4             2724            48                57
     5               54             1                 9
     6               10             3                 2
     7               10             2                 5

#########################################################
     1           199406           229               345
     2           811395           111              1351
     3             2217             6                69
     4            12864            25               159
     5            12501            17               140
     6             8597             1               222
     7              281             4                12
     8             1315            31                37

#########################################################
     1          1041093           658               924
     2             1259            14                44
     3             4726            15               123
     4              711            30                24
     5              787            14                38

#########################################################
     1           598161           936               761
     2           321137           487               738
     3           127043           188               295
     4              658             4                40
     5             1305            23                39
     6              168            13                14
     7               53             1                14
     8               31             4                 4
     9               20             2                 6

#########################################################
